%!PS-Adobe-3.0 EPSF-3.0
%%Creator: MATLAB, The MathWorks, Inc. Version 8.3.0.532 (R2014a). Operating System: Linux 3.19.0-41-generic #46-Ubuntu SMP Fri Dec 4 18:18:11 UTC 2015 x86_64.
%%Title: /home/nicolai/Dropbox/Skole/7. Semester/EMB/Projects/Final Project/code/h_c.eps
%%CreationDate: 12/18/2015  17:36:02
%%DocumentNeededFonts: Helvetica
%%DocumentProcessColors: Cyan Magenta Yellow Black
%%LanguageLevel: 2
%%Pages: 1
%%BoundingBox:    81   227   529   564
%%EndComments

%%BeginProlog
% MathWorks dictionary
/MathWorks 160 dict begin
% definition operators
/bdef {bind def} bind def
/ldef {load def} bind def
/xdef {exch def} bdef
/xstore {exch store} bdef
% operator abbreviations
/c  /clip ldef
/cc /concat ldef
/cp /closepath ldef
/gr /grestore ldef
/gs /gsave ldef
/mt /moveto ldef
/np /newpath ldef
/cm /currentmatrix ldef
/sm /setmatrix ldef
/rm /rmoveto ldef
/rl /rlineto ldef
/s {show newpath} bdef
/sc {setcmykcolor} bdef
/sr /setrgbcolor ldef
/sg /setgray ldef
/w /setlinewidth ldef
/j /setlinejoin ldef
/cap /setlinecap ldef
/rc {rectclip} bdef
/rf {rectfill} bdef
% page state control
/pgsv () def
/bpage {/pgsv save def} bdef
/epage {pgsv restore} bdef
/bplot /gsave ldef
/eplot {stroke grestore} bdef
% orientation switch
/portraitMode 0 def /landscapeMode 1 def /rotateMode 2 def
% coordinate system mappings
/dpi2point 0 def
% font control
/FontSize 0 def
/FMS {/FontSize xstore findfont [FontSize 0 0 FontSize neg 0 0]
  makefont setfont} bdef
/reencode {exch dup where {pop load} {pop StandardEncoding} ifelse
  exch dup 3 1 roll findfont dup length dict begin
  { 1 index /FID ne {def}{pop pop} ifelse } forall
  /Encoding exch def currentdict end definefont pop} bdef
/isroman {findfont /CharStrings get /Agrave known} bdef
/FMSR {3 1 roll 1 index dup isroman {reencode} {pop pop} ifelse
  exch FMS} bdef
/csm {1 dpi2point div -1 dpi2point div scale neg translate
 dup landscapeMode eq {pop -90 rotate}
  {rotateMode eq {90 rotate} if} ifelse} bdef
% line types: solid, dotted, dashed, dotdash
/SO { [] 0 setdash } bdef
/DO { [.5 dpi2point mul 4 dpi2point mul] 0 setdash } bdef
/DA { [6 dpi2point mul] 0 setdash } bdef
/DD { [.5 dpi2point mul 4 dpi2point mul 6 dpi2point mul 4
  dpi2point mul] 0 setdash } bdef
% macros for lines and objects
/L {lineto stroke} bdef
/MP {3 1 roll moveto 1 sub {rlineto} repeat} bdef
/AP {{rlineto} repeat} bdef
/PDlw -1 def
/W {/PDlw currentlinewidth def setlinewidth} def
/PP {closepath eofill} bdef
/DP {closepath stroke} bdef
/MR {4 -2 roll moveto dup  0 exch rlineto exch 0 rlineto
  neg 0 exch rlineto closepath} bdef
/FR {MR stroke} bdef
/PR {MR fill} bdef
/L1i {{currentfile picstr readhexstring pop} image} bdef
/tMatrix matrix def
/MakeOval {newpath tMatrix currentmatrix pop translate scale
0 0 1 0 360 arc tMatrix setmatrix} bdef
/FO {MakeOval stroke} bdef
/PO {MakeOval fill} bdef
/PD {currentlinewidth 2 div 0 360 arc fill
   PDlw -1 eq not {PDlw w /PDlw -1 def} if} def
/FA {newpath tMatrix currentmatrix pop translate scale
  0 0 1 5 -2 roll arc tMatrix setmatrix stroke} bdef
/PA {newpath tMatrix currentmatrix pop	translate 0 0 moveto scale
  0 0 1 5 -2 roll arc closepath tMatrix setmatrix fill} bdef
/FAn {newpath tMatrix currentmatrix pop translate scale
  0 0 1 5 -2 roll arcn tMatrix setmatrix stroke} bdef
/PAn {newpath tMatrix currentmatrix pop translate 0 0 moveto scale
  0 0 1 5 -2 roll arcn closepath tMatrix setmatrix fill} bdef
/vradius 0 def /hradius 0 def /lry 0 def
/lrx 0 def /uly 0 def /ulx 0 def /rad 0 def
/MRR {/vradius xdef /hradius xdef /lry xdef /lrx xdef /uly xdef
  /ulx xdef newpath tMatrix currentmatrix pop ulx hradius add uly
  vradius add translate hradius vradius scale 0 0 1 180 270 arc 
  tMatrix setmatrix lrx hradius sub uly vradius add translate
  hradius vradius scale 0 0 1 270 360 arc tMatrix setmatrix
  lrx hradius sub lry vradius sub translate hradius vradius scale
  0 0 1 0 90 arc tMatrix setmatrix ulx hradius add lry vradius sub
  translate hradius vradius scale 0 0 1 90 180 arc tMatrix setmatrix
  closepath} bdef
/FRR {MRR stroke } bdef
/PRR {MRR fill } bdef
/MlrRR {/lry xdef /lrx xdef /uly xdef /ulx xdef /rad lry uly sub 2 div def
  newpath tMatrix currentmatrix pop ulx rad add uly rad add translate
  rad rad scale 0 0 1 90 270 arc tMatrix setmatrix lrx rad sub lry rad
  sub translate rad rad scale 0 0 1 270 90 arc tMatrix setmatrix
  closepath} bdef
/FlrRR {MlrRR stroke } bdef
/PlrRR {MlrRR fill } bdef
/MtbRR {/lry xdef /lrx xdef /uly xdef /ulx xdef /rad lrx ulx sub 2 div def
  newpath tMatrix currentmatrix pop ulx rad add uly rad add translate
  rad rad scale 0 0 1 180 360 arc tMatrix setmatrix lrx rad sub lry rad
  sub translate rad rad scale 0 0 1 0 180 arc tMatrix setmatrix
  closepath} bdef
/FtbRR {MtbRR stroke } bdef
/PtbRR {MtbRR fill } bdef
/stri 6 array def /dtri 6 array def
/smat 6 array def /dmat 6 array def
/tmat1 6 array def /tmat2 6 array def /dif 3 array def
/asub {/ind2 exch def /ind1 exch def dup dup
  ind1 get exch ind2 get sub exch } bdef
/tri_to_matrix {
  2 0 asub 3 1 asub 4 0 asub 5 1 asub
  dup 0 get exch 1 get 7 -1 roll astore } bdef
/compute_transform {
  dmat dtri tri_to_matrix tmat1 invertmatrix 
  smat stri tri_to_matrix tmat2 concatmatrix } bdef
/ds {stri astore pop} bdef
/dt {dtri astore pop} bdef
/db {2 copy /cols xdef /rows xdef mul dup 3 mul string
  currentfile 
  3 index 0 eq {/ASCIIHexDecode filter}
  {/ASCII85Decode filter 3 index 2 eq {/RunLengthDecode filter} if }
  ifelse exch readstring pop
  dup 0 3 index getinterval /rbmap xdef
  dup 2 index dup getinterval /gbmap xdef
  1 index dup 2 mul exch getinterval /bbmap xdef pop pop}bdef
/it {gs np dtri aload pop moveto lineto lineto cp c
  cols rows 8 compute_transform 
  rbmap gbmap bbmap true 3 colorimage gr}bdef
/il {newpath moveto lineto stroke}bdef
currentdict end def
%%EndProlog

%%BeginSetup
MathWorks begin

0 cap

end
%%EndSetup

%%Page: 1 1
%%BeginPageSetup
%%PageBoundingBox:    81   227   529   564
MathWorks begin
bpage
%%EndPageSetup

%%BeginObject: obj1
bplot

/dpi2point 12 def
portraitMode 0972 6768 csm

    0     0  5376  4033 rc
85 dict begin %Colortable dictionary
/c0 { 0.000000 0.000000 0.000000 sr} bdef
/c1 { 1.000000 1.000000 1.000000 sr} bdef
/c2 { 0.900000 0.000000 0.000000 sr} bdef
/c3 { 0.000000 0.820000 0.000000 sr} bdef
/c4 { 0.000000 0.000000 0.800000 sr} bdef
/c5 { 0.910000 0.820000 0.320000 sr} bdef
/c6 { 1.000000 0.260000 0.820000 sr} bdef
/c7 { 0.000000 0.820000 0.820000 sr} bdef
c0
1 j
1 sg
   0    0 5377 4034 rf
6 w
0 3227 4166 0 0 -3227 699 3589 4 MP
PP
-4166 0 0 3227 4166 0 0 -3227 699 3589 5 MP stroke
4 w
DO
SO
6 w
0 sg
 699 3589 mt 4865 3589 L
 699  362 mt 4865  362 L
 699 3589 mt  699  362 L
4865 3589 mt 4865  362 L
 699 3589 mt 4865 3589 L
 699 3589 mt  699  362 L
 699 3589 mt  699 3547 L
 699  362 mt  699  403 L
%%IncludeResource: font Helvetica
/Helvetica /ISOLatin1Encoding 120 FMSR

 666 3734 mt 
(0) s
1115 3589 mt 1115 3547 L
1115  362 mt 1115  403 L
1049 3734 mt 
(10) s
1532 3589 mt 1532 3547 L
1532  362 mt 1532  403 L
1466 3734 mt 
(20) s
1948 3589 mt 1948 3547 L
1948  362 mt 1948  403 L
1882 3734 mt 
(30) s
2365 3589 mt 2365 3547 L
2365  362 mt 2365  403 L
2299 3734 mt 
(40) s
2782 3589 mt 2782 3547 L
2782  362 mt 2782  403 L
2716 3734 mt 
(50) s
3198 3589 mt 3198 3547 L
3198  362 mt 3198  403 L
3132 3734 mt 
(60) s
3615 3589 mt 3615 3547 L
3615  362 mt 3615  403 L
3549 3734 mt 
(70) s
4031 3589 mt 4031 3547 L
4031  362 mt 4031  403 L
3965 3734 mt 
(80) s
4448 3589 mt 4448 3547 L
4448  362 mt 4448  403 L
4382 3734 mt 
(90) s
4865 3589 mt 4865 3547 L
4865  362 mt 4865  403 L
4765 3734 mt 
(100) s
 699 3266 mt  740 3266 L
4865 3266 mt 4823 3266 L
 364 3310 mt 
(346.4) s
 699 2943 mt  740 2943 L
4865 2943 mt 4823 2943 L
 364 2987 mt 
(346.6) s
 699 2620 mt  740 2620 L
4865 2620 mt 4823 2620 L
 364 2664 mt 
(346.8) s
 699 2298 mt  740 2298 L
4865 2298 mt 4823 2298 L
 464 2342 mt 
(347) s
 699 1975 mt  740 1975 L
4865 1975 mt 4823 1975 L
 364 2019 mt 
(347.2) s
 699 1652 mt  740 1652 L
4865 1652 mt 4823 1652 L
 364 1696 mt 
(347.4) s
 699 1330 mt  740 1330 L
4865 1330 mt 4823 1330 L
 364 1374 mt 
(347.6) s
 699 1007 mt  740 1007 L
4865 1007 mt 4823 1007 L
 364 1051 mt 
(347.8) s
 699  684 mt  740  684 L
4865  684 mt 4823  684 L
 464  728 mt 
(348) s
 699  362 mt  740  362 L
4865  362 mt 4823  362 L
 364  406 mt 
(348.2) s
 699 3589 mt 4865 3589 L
 699  362 mt 4865  362 L
 699 3589 mt  699  362 L
4865 3589 mt 4865  362 L
gs 699 362 4167 3228 rc
/c8 { 0.000000 0.000000 1.000000 sr} bdef
c8
21 -14 21 -14 21 -14 21 -13 20 -14 21 -14 21 -14 21 -14 
21 -14 21 -13 20 -14 21 -14 21 -14 21 -14 21 -13 21 -14 
20 -14 21 -14 21 -14 21 -13 21 -14 21 -14 20 -14 21 -14 
21 -14 21 -13 21 -14 21 -14 20 -14 21 -14 21 -13 21 -14 
21 -14 21 -14 20 -14 21 -14 21 -13 21 -14 21 -14 21 -14 
20 -14 21 -14 21 -13 21 -14 21 -14 21 -14 20 -14 21 -13 
21 -14 21 -14 21 -14 20 -14 21 -14 21 -13 21 -14 21 -14 
21 -14 20 -14 21 -14 21 -13 21 -14 21 -14 21 -14 20 -14 
21 -13 21 -14 21 -14 21 -14 21 -14 20 -14 21 -13 21 -14 
21 -14 21 -14 21 -14 20 -14 21 -13 21 -14 21 -14 21 -14 
21 -14 20 -14 21 -13 21 -14 21 -14 21 -14 21 -14 20 -14 
21 -13 21 -14 21 -14 21 -14 21 -14 20 -14 21 -13 21 -14 
21 -14 21 -14 20 -14 21 -14 21 -13 21 -14 21 -14 21 -14 
20 -14 21 -14 21 -13 21 -14 21 -14 21 -14 20 -14 21 -14 
21 -13 21 -14 21 -14 21 -14 20 -14 21 -14 21 -13 21 -14 
21 -14 21 -14 20 -14 21 -14 21 -13 21 -14 21 -14 21 -14 
20 -14 21 -14 21 -14 21 -13 21 -14 21 -14 20 -14 21 -14 
21 -14 21 -13 21 -14 21 -14 20 -14 21 -14 21 -14 21 -13 
21 -14 21 -14 20 -14 21 -14 21 -14 21 -14 21 -13 20 -14 
21 -14 21 -14 21 -14 21 -14 21 -13 20 -14 21 -14 21 -14 
21 -14 21 -14 21 -14 20 -13 21 -14 21 -14 21 -14 21 -14 
21 -14 20 -14 21 -13 21 -14 21 -14 21 -14 21 -14 20 -14 
21 -13 21 -14 21 -14 21 -14 21 -14 20 -14 21 -14 21 -13 
21 -14 21 -14 21 -14 20 -14 21 -14 21 -14 21 -13 21 -14 
21 -14 20 -14 21 -14 21 -14 21 -14 21 -13 20 -14 699 3479 200 MP stroke
gr

c8
0 sg
2444 3877 mt 
(Humidity [%]) s
 282 2553 mt  -90 rotate
(Speed of Sound [m/s]) s
90 rotate
1687  111 mt 
(Speed of Sound as a function of Humidity) s
1194  259 mt 
( With a sound frequency of 40kHz, 1 atm pressure and 25) s
%%IncludeResource: font Symbol
/Symbol /ISOLatin1Encoding 120 FMSR

4257  259 mt 
(\260) s
%%IncludeResource: font Helvetica
/Helvetica /ISOLatin1Encoding 120 FMSR

4305  259 mt 
(C) s

end %%Color Dict

eplot
%%EndObject

epage
end

showpage

%%Trailer
%%EOF
