%!PS-Adobe-3.0 EPSF-3.0
%%Creator: MATLAB, The MathWorks, Inc. Version 8.3.0.532 (R2014a). Operating System: Linux 3.19.0-41-generic #46-Ubuntu SMP Fri Dec 4 18:18:11 UTC 2015 x86_64.
%%Title: /home/nicolai/Dropbox/Skole/7. Semester/EMB/Projects/Final Project/code/p_c.eps
%%CreationDate: 12/18/2015  17:36:21
%%DocumentNeededFonts: Helvetica
%%DocumentProcessColors: Cyan Magenta Yellow Black
%%LanguageLevel: 2
%%Pages: 1
%%BoundingBox:    85   239   525   552
%%EndComments

%%BeginProlog
% MathWorks dictionary
/MathWorks 160 dict begin
% definition operators
/bdef {bind def} bind def
/ldef {load def} bind def
/xdef {exch def} bdef
/xstore {exch store} bdef
% operator abbreviations
/c  /clip ldef
/cc /concat ldef
/cp /closepath ldef
/gr /grestore ldef
/gs /gsave ldef
/mt /moveto ldef
/np /newpath ldef
/cm /currentmatrix ldef
/sm /setmatrix ldef
/rm /rmoveto ldef
/rl /rlineto ldef
/s {show newpath} bdef
/sc {setcmykcolor} bdef
/sr /setrgbcolor ldef
/sg /setgray ldef
/w /setlinewidth ldef
/j /setlinejoin ldef
/cap /setlinecap ldef
/rc {rectclip} bdef
/rf {rectfill} bdef
% page state control
/pgsv () def
/bpage {/pgsv save def} bdef
/epage {pgsv restore} bdef
/bplot /gsave ldef
/eplot {stroke grestore} bdef
% orientation switch
/portraitMode 0 def /landscapeMode 1 def /rotateMode 2 def
% coordinate system mappings
/dpi2point 0 def
% font control
/FontSize 0 def
/FMS {/FontSize xstore findfont [FontSize 0 0 FontSize neg 0 0]
  makefont setfont} bdef
/reencode {exch dup where {pop load} {pop StandardEncoding} ifelse
  exch dup 3 1 roll findfont dup length dict begin
  { 1 index /FID ne {def}{pop pop} ifelse } forall
  /Encoding exch def currentdict end definefont pop} bdef
/isroman {findfont /CharStrings get /Agrave known} bdef
/FMSR {3 1 roll 1 index dup isroman {reencode} {pop pop} ifelse
  exch FMS} bdef
/csm {1 dpi2point div -1 dpi2point div scale neg translate
 dup landscapeMode eq {pop -90 rotate}
  {rotateMode eq {90 rotate} if} ifelse} bdef
% line types: solid, dotted, dashed, dotdash
/SO { [] 0 setdash } bdef
/DO { [.5 dpi2point mul 4 dpi2point mul] 0 setdash } bdef
/DA { [6 dpi2point mul] 0 setdash } bdef
/DD { [.5 dpi2point mul 4 dpi2point mul 6 dpi2point mul 4
  dpi2point mul] 0 setdash } bdef
% macros for lines and objects
/L {lineto stroke} bdef
/MP {3 1 roll moveto 1 sub {rlineto} repeat} bdef
/AP {{rlineto} repeat} bdef
/PDlw -1 def
/W {/PDlw currentlinewidth def setlinewidth} def
/PP {closepath eofill} bdef
/DP {closepath stroke} bdef
/MR {4 -2 roll moveto dup  0 exch rlineto exch 0 rlineto
  neg 0 exch rlineto closepath} bdef
/FR {MR stroke} bdef
/PR {MR fill} bdef
/L1i {{currentfile picstr readhexstring pop} image} bdef
/tMatrix matrix def
/MakeOval {newpath tMatrix currentmatrix pop translate scale
0 0 1 0 360 arc tMatrix setmatrix} bdef
/FO {MakeOval stroke} bdef
/PO {MakeOval fill} bdef
/PD {currentlinewidth 2 div 0 360 arc fill
   PDlw -1 eq not {PDlw w /PDlw -1 def} if} def
/FA {newpath tMatrix currentmatrix pop translate scale
  0 0 1 5 -2 roll arc tMatrix setmatrix stroke} bdef
/PA {newpath tMatrix currentmatrix pop	translate 0 0 moveto scale
  0 0 1 5 -2 roll arc closepath tMatrix setmatrix fill} bdef
/FAn {newpath tMatrix currentmatrix pop translate scale
  0 0 1 5 -2 roll arcn tMatrix setmatrix stroke} bdef
/PAn {newpath tMatrix currentmatrix pop translate 0 0 moveto scale
  0 0 1 5 -2 roll arcn closepath tMatrix setmatrix fill} bdef
/vradius 0 def /hradius 0 def /lry 0 def
/lrx 0 def /uly 0 def /ulx 0 def /rad 0 def
/MRR {/vradius xdef /hradius xdef /lry xdef /lrx xdef /uly xdef
  /ulx xdef newpath tMatrix currentmatrix pop ulx hradius add uly
  vradius add translate hradius vradius scale 0 0 1 180 270 arc 
  tMatrix setmatrix lrx hradius sub uly vradius add translate
  hradius vradius scale 0 0 1 270 360 arc tMatrix setmatrix
  lrx hradius sub lry vradius sub translate hradius vradius scale
  0 0 1 0 90 arc tMatrix setmatrix ulx hradius add lry vradius sub
  translate hradius vradius scale 0 0 1 90 180 arc tMatrix setmatrix
  closepath} bdef
/FRR {MRR stroke } bdef
/PRR {MRR fill } bdef
/MlrRR {/lry xdef /lrx xdef /uly xdef /ulx xdef /rad lry uly sub 2 div def
  newpath tMatrix currentmatrix pop ulx rad add uly rad add translate
  rad rad scale 0 0 1 90 270 arc tMatrix setmatrix lrx rad sub lry rad
  sub translate rad rad scale 0 0 1 270 90 arc tMatrix setmatrix
  closepath} bdef
/FlrRR {MlrRR stroke } bdef
/PlrRR {MlrRR fill } bdef
/MtbRR {/lry xdef /lrx xdef /uly xdef /ulx xdef /rad lrx ulx sub 2 div def
  newpath tMatrix currentmatrix pop ulx rad add uly rad add translate
  rad rad scale 0 0 1 180 360 arc tMatrix setmatrix lrx rad sub lry rad
  sub translate rad rad scale 0 0 1 0 180 arc tMatrix setmatrix
  closepath} bdef
/FtbRR {MtbRR stroke } bdef
/PtbRR {MtbRR fill } bdef
/stri 6 array def /dtri 6 array def
/smat 6 array def /dmat 6 array def
/tmat1 6 array def /tmat2 6 array def /dif 3 array def
/asub {/ind2 exch def /ind1 exch def dup dup
  ind1 get exch ind2 get sub exch } bdef
/tri_to_matrix {
  2 0 asub 3 1 asub 4 0 asub 5 1 asub
  dup 0 get exch 1 get 7 -1 roll astore } bdef
/compute_transform {
  dmat dtri tri_to_matrix tmat1 invertmatrix 
  smat stri tri_to_matrix tmat2 concatmatrix } bdef
/ds {stri astore pop} bdef
/dt {dtri astore pop} bdef
/db {2 copy /cols xdef /rows xdef mul dup 3 mul string
  currentfile 
  3 index 0 eq {/ASCIIHexDecode filter}
  {/ASCII85Decode filter 3 index 2 eq {/RunLengthDecode filter} if }
  ifelse exch readstring pop
  dup 0 3 index getinterval /rbmap xdef
  dup 2 index dup getinterval /gbmap xdef
  1 index dup 2 mul exch getinterval /bbmap xdef pop pop}bdef
/it {gs np dtri aload pop moveto lineto lineto cp c
  cols rows 8 compute_transform 
  rbmap gbmap bbmap true 3 colorimage gr}bdef
/il {newpath moveto lineto stroke}bdef
currentdict end def
%%EndProlog

%%BeginSetup
MathWorks begin

0 cap

end
%%EndSetup

%%Page: 1 1
%%BeginPageSetup
%%PageBoundingBox:    85   239   525   552
MathWorks begin
bpage
%%EndPageSetup

%%BeginObject: obj1
bplot

/dpi2point 12 def
portraitMode 1020 6624 csm

    0     0  5280  3745 rc
85 dict begin %Colortable dictionary
/c0 { 0.000000 0.000000 0.000000 sr} bdef
/c1 { 1.000000 1.000000 1.000000 sr} bdef
/c2 { 0.900000 0.000000 0.000000 sr} bdef
/c3 { 0.000000 0.820000 0.000000 sr} bdef
/c4 { 0.000000 0.000000 0.800000 sr} bdef
/c5 { 0.910000 0.820000 0.320000 sr} bdef
/c6 { 1.000000 0.260000 0.820000 sr} bdef
/c7 { 0.000000 0.820000 0.820000 sr} bdef
c0
1 j
1 sg
   0    0 5281 3746 rf
6 w
0 2971 4092 0 0 -2971 686 3333 4 MP
PP
-4092 0 0 2971 4092 0 0 -2971 686 3333 5 MP stroke
4 w
DO
SO
6 w
0 sg
 686 3333 mt 4778 3333 L
 686  362 mt 4778  362 L
 686 3333 mt  686  362 L
4778 3333 mt 4778  362 L
 686 3333 mt 4778 3333 L
 686 3333 mt  686  362 L
 686 3333 mt  686 3292 L
 686  362 mt  686  402 L
%%IncludeResource: font Helvetica
/Helvetica /ISOLatin1Encoding 120 FMSR

 620 3478 mt 
(40) s
1095 3333 mt 1095 3292 L
1095  362 mt 1095  402 L
1029 3478 mt 
(60) s
1504 3333 mt 1504 3292 L
1504  362 mt 1504  402 L
1438 3478 mt 
(80) s
1913 3333 mt 1913 3292 L
1913  362 mt 1913  402 L
1813 3478 mt 
(100) s
2322 3333 mt 2322 3292 L
2322  362 mt 2322  402 L
2222 3478 mt 
(120) s
2732 3333 mt 2732 3292 L
2732  362 mt 2732  402 L
2632 3478 mt 
(140) s
3141 3333 mt 3141 3292 L
3141  362 mt 3141  402 L
3041 3478 mt 
(160) s
3550 3333 mt 3550 3292 L
3550  362 mt 3550  402 L
3450 3478 mt 
(180) s
3959 3333 mt 3959 3292 L
3959  362 mt 3959  402 L
3859 3478 mt 
(200) s
4368 3333 mt 4368 3292 L
4368  362 mt 4368  402 L
4268 3478 mt 
(220) s
4778 3333 mt 4778 3292 L
4778  362 mt 4778  402 L
4678 3478 mt 
(240) s
 686 3333 mt  726 3333 L
4778 3333 mt 4737 3333 L
 351 3377 mt 
(346.6) s
 686 3035 mt  726 3035 L
4778 3035 mt 4737 3035 L
 351 3079 mt 
(346.8) s
 686 2738 mt  726 2738 L
4778 2738 mt 4737 2738 L
 451 2782 mt 
(347) s
 686 2441 mt  726 2441 L
4778 2441 mt 4737 2441 L
 351 2485 mt 
(347.2) s
 686 2144 mt  726 2144 L
4778 2144 mt 4737 2144 L
 351 2188 mt 
(347.4) s
 686 1847 mt  726 1847 L
4778 1847 mt 4737 1847 L
 351 1891 mt 
(347.6) s
 686 1550 mt  726 1550 L
4778 1550 mt 4737 1550 L
 351 1594 mt 
(347.8) s
 686 1253 mt  726 1253 L
4778 1253 mt 4737 1253 L
 451 1297 mt 
(348) s
 686  956 mt  726  956 L
4778  956 mt 4737  956 L
 351 1000 mt 
(348.2) s
 686  659 mt  726  659 L
4778  659 mt 4737  659 L
 351  703 mt 
(348.4) s
 686  362 mt  726  362 L
4778  362 mt 4737  362 L
 351  406 mt 
(348.6) s
 686 3333 mt 4778 3333 L
 686  362 mt 4778  362 L
 686 3333 mt  686  362 L
4778 3333 mt 4778  362 L
gs 686 362 4093 2972 rc
/c8 { 0.000000 0.000000 1.000000 sr} bdef
c8
20 2 21 1 20 2 21 2 20 1 21 2 20 2 21 1 
20 2 21 2 20 2 20 1 21 2 20 2 21 2 20 2 
21 2 20 2 21 2 20 1 21 2 20 2 21 3 20 2 
20 2 21 2 20 2 21 2 20 2 21 3 20 2 21 2 
20 2 21 3 20 2 21 2 20 3 20 2 21 3 20 2 
21 3 20 2 21 3 20 3 21 2 20 3 21 3 20 3 
20 3 21 2 20 3 21 3 20 3 21 3 20 3 21 3 
20 3 21 4 20 3 21 3 20 3 20 4 21 3 20 4 
21 3 20 4 21 3 20 4 21 4 20 3 21 4 20 4 
21 4 20 4 20 4 21 4 20 4 21 4 20 5 21 4 
20 4 21 5 20 4 21 5 20 4 21 5 20 5 20 5 
21 5 20 5 21 5 20 5 21 5 20 6 21 5 20 5 
21 6 20 6 20 6 21 5 20 6 21 6 20 7 21 6 
20 6 21 7 20 6 21 7 20 7 21 7 20 7 20 7 
21 7 20 7 21 8 20 8 21 7 20 8 21 8 20 9 
21 8 20 9 21 8 20 9 20 9 21 9 20 10 21 9 
20 10 21 10 20 10 21 11 20 10 21 11 20 11 21 11 
20 12 20 11 21 12 20 13 21 12 20 13 21 13 20 13 
21 14 20 14 21 14 20 15 20 14 21 16 20 15 21 16 
20 17 21 17 20 17 21 17 20 18 21 19 20 19 21 20 
20 20 20 20 21 21 20 22 21 23 20 23 21 23 20 25 
21 25 20 25 21 27 20 27 21 29 20 29 20 30 21 31 
20 32 21 33 20 35 21 35 20 37 21 38 20 39 21 41 
20 43 21 44 20 45 20 48 21 50 20 51 21 54 20 56 
21 59 20 61 21 64 20 67 21 70 20 74 20 77 686 657 200 MP stroke
gr

c8
0 sg
2340 3621 mt 
(Pressure [kPa]) s
 269 2425 mt  -90 rotate
(Speed of Sound [m/s]) s
90 rotate
1637  111 mt 
(Speed of Sound as a function of pressure) s
1167  259 mt 
( With a sound frequency of 40kHz, 50% humidity, and 25) s
%%IncludeResource: font Symbol
/Symbol /ISOLatin1Encoding 120 FMSR

4171  259 mt 
(\260) s
%%IncludeResource: font Helvetica
/Helvetica /ISOLatin1Encoding 120 FMSR

4219  259 mt 
(C) s

end %%Color Dict

eplot
%%EndObject

epage
end

showpage

%%Trailer
%%EOF
