%!PS-Adobe-3.0 EPSF-3.0
%%Creator: MATLAB, The MathWorks, Inc. Version 8.3.0.532 (R2014a). Operating System: Linux 3.19.0-41-generic #46-Ubuntu SMP Fri Dec 4 18:18:11 UTC 2015 x86_64.
%%Title: /home/nicolai/Dropbox/Skole/7. Semester/EMB/Projects/Final Project/code/t_c.eps
%%CreationDate: 12/18/2015  17:14:14
%%DocumentNeededFonts: Helvetica
%%DocumentProcessColors: Cyan Magenta Yellow Black
%%LanguageLevel: 2
%%Pages: 1
%%BoundingBox:    81   227   529   564
%%EndComments

%%BeginProlog
% MathWorks dictionary
/MathWorks 160 dict begin
% definition operators
/bdef {bind def} bind def
/ldef {load def} bind def
/xdef {exch def} bdef
/xstore {exch store} bdef
% operator abbreviations
/c  /clip ldef
/cc /concat ldef
/cp /closepath ldef
/gr /grestore ldef
/gs /gsave ldef
/mt /moveto ldef
/np /newpath ldef
/cm /currentmatrix ldef
/sm /setmatrix ldef
/rm /rmoveto ldef
/rl /rlineto ldef
/s {show newpath} bdef
/sc {setcmykcolor} bdef
/sr /setrgbcolor ldef
/sg /setgray ldef
/w /setlinewidth ldef
/j /setlinejoin ldef
/cap /setlinecap ldef
/rc {rectclip} bdef
/rf {rectfill} bdef
% page state control
/pgsv () def
/bpage {/pgsv save def} bdef
/epage {pgsv restore} bdef
/bplot /gsave ldef
/eplot {stroke grestore} bdef
% orientation switch
/portraitMode 0 def /landscapeMode 1 def /rotateMode 2 def
% coordinate system mappings
/dpi2point 0 def
% font control
/FontSize 0 def
/FMS {/FontSize xstore findfont [FontSize 0 0 FontSize neg 0 0]
  makefont setfont} bdef
/reencode {exch dup where {pop load} {pop StandardEncoding} ifelse
  exch dup 3 1 roll findfont dup length dict begin
  { 1 index /FID ne {def}{pop pop} ifelse } forall
  /Encoding exch def currentdict end definefont pop} bdef
/isroman {findfont /CharStrings get /Agrave known} bdef
/FMSR {3 1 roll 1 index dup isroman {reencode} {pop pop} ifelse
  exch FMS} bdef
/csm {1 dpi2point div -1 dpi2point div scale neg translate
 dup landscapeMode eq {pop -90 rotate}
  {rotateMode eq {90 rotate} if} ifelse} bdef
% line types: solid, dotted, dashed, dotdash
/SO { [] 0 setdash } bdef
/DO { [.5 dpi2point mul 4 dpi2point mul] 0 setdash } bdef
/DA { [6 dpi2point mul] 0 setdash } bdef
/DD { [.5 dpi2point mul 4 dpi2point mul 6 dpi2point mul 4
  dpi2point mul] 0 setdash } bdef
% macros for lines and objects
/L {lineto stroke} bdef
/MP {3 1 roll moveto 1 sub {rlineto} repeat} bdef
/AP {{rlineto} repeat} bdef
/PDlw -1 def
/W {/PDlw currentlinewidth def setlinewidth} def
/PP {closepath eofill} bdef
/DP {closepath stroke} bdef
/MR {4 -2 roll moveto dup  0 exch rlineto exch 0 rlineto
  neg 0 exch rlineto closepath} bdef
/FR {MR stroke} bdef
/PR {MR fill} bdef
/L1i {{currentfile picstr readhexstring pop} image} bdef
/tMatrix matrix def
/MakeOval {newpath tMatrix currentmatrix pop translate scale
0 0 1 0 360 arc tMatrix setmatrix} bdef
/FO {MakeOval stroke} bdef
/PO {MakeOval fill} bdef
/PD {currentlinewidth 2 div 0 360 arc fill
   PDlw -1 eq not {PDlw w /PDlw -1 def} if} def
/FA {newpath tMatrix currentmatrix pop translate scale
  0 0 1 5 -2 roll arc tMatrix setmatrix stroke} bdef
/PA {newpath tMatrix currentmatrix pop	translate 0 0 moveto scale
  0 0 1 5 -2 roll arc closepath tMatrix setmatrix fill} bdef
/FAn {newpath tMatrix currentmatrix pop translate scale
  0 0 1 5 -2 roll arcn tMatrix setmatrix stroke} bdef
/PAn {newpath tMatrix currentmatrix pop translate 0 0 moveto scale
  0 0 1 5 -2 roll arcn closepath tMatrix setmatrix fill} bdef
/vradius 0 def /hradius 0 def /lry 0 def
/lrx 0 def /uly 0 def /ulx 0 def /rad 0 def
/MRR {/vradius xdef /hradius xdef /lry xdef /lrx xdef /uly xdef
  /ulx xdef newpath tMatrix currentmatrix pop ulx hradius add uly
  vradius add translate hradius vradius scale 0 0 1 180 270 arc 
  tMatrix setmatrix lrx hradius sub uly vradius add translate
  hradius vradius scale 0 0 1 270 360 arc tMatrix setmatrix
  lrx hradius sub lry vradius sub translate hradius vradius scale
  0 0 1 0 90 arc tMatrix setmatrix ulx hradius add lry vradius sub
  translate hradius vradius scale 0 0 1 90 180 arc tMatrix setmatrix
  closepath} bdef
/FRR {MRR stroke } bdef
/PRR {MRR fill } bdef
/MlrRR {/lry xdef /lrx xdef /uly xdef /ulx xdef /rad lry uly sub 2 div def
  newpath tMatrix currentmatrix pop ulx rad add uly rad add translate
  rad rad scale 0 0 1 90 270 arc tMatrix setmatrix lrx rad sub lry rad
  sub translate rad rad scale 0 0 1 270 90 arc tMatrix setmatrix
  closepath} bdef
/FlrRR {MlrRR stroke } bdef
/PlrRR {MlrRR fill } bdef
/MtbRR {/lry xdef /lrx xdef /uly xdef /ulx xdef /rad lrx ulx sub 2 div def
  newpath tMatrix currentmatrix pop ulx rad add uly rad add translate
  rad rad scale 0 0 1 180 360 arc tMatrix setmatrix lrx rad sub lry rad
  sub translate rad rad scale 0 0 1 0 180 arc tMatrix setmatrix
  closepath} bdef
/FtbRR {MtbRR stroke } bdef
/PtbRR {MtbRR fill } bdef
/stri 6 array def /dtri 6 array def
/smat 6 array def /dmat 6 array def
/tmat1 6 array def /tmat2 6 array def /dif 3 array def
/asub {/ind2 exch def /ind1 exch def dup dup
  ind1 get exch ind2 get sub exch } bdef
/tri_to_matrix {
  2 0 asub 3 1 asub 4 0 asub 5 1 asub
  dup 0 get exch 1 get 7 -1 roll astore } bdef
/compute_transform {
  dmat dtri tri_to_matrix tmat1 invertmatrix 
  smat stri tri_to_matrix tmat2 concatmatrix } bdef
/ds {stri astore pop} bdef
/dt {dtri astore pop} bdef
/db {2 copy /cols xdef /rows xdef mul dup 3 mul string
  currentfile 
  3 index 0 eq {/ASCIIHexDecode filter}
  {/ASCII85Decode filter 3 index 2 eq {/RunLengthDecode filter} if }
  ifelse exch readstring pop
  dup 0 3 index getinterval /rbmap xdef
  dup 2 index dup getinterval /gbmap xdef
  1 index dup 2 mul exch getinterval /bbmap xdef pop pop}bdef
/it {gs np dtri aload pop moveto lineto lineto cp c
  cols rows 8 compute_transform 
  rbmap gbmap bbmap true 3 colorimage gr}bdef
/il {newpath moveto lineto stroke}bdef
currentdict end def
%%EndProlog

%%BeginSetup
MathWorks begin

0 cap

end
%%EndSetup

%%Page: 1 1
%%BeginPageSetup
%%PageBoundingBox:    81   227   529   564
MathWorks begin
bpage
%%EndPageSetup

%%BeginObject: obj1
bplot

/dpi2point 12 def
portraitMode 0972 6768 csm

    0     0  5376  4033 rc
85 dict begin %Colortable dictionary
/c0 { 0.000000 0.000000 0.000000 sr} bdef
/c1 { 1.000000 1.000000 1.000000 sr} bdef
/c2 { 0.900000 0.000000 0.000000 sr} bdef
/c3 { 0.000000 0.820000 0.000000 sr} bdef
/c4 { 0.000000 0.000000 0.800000 sr} bdef
/c5 { 0.910000 0.820000 0.320000 sr} bdef
/c6 { 1.000000 0.260000 0.820000 sr} bdef
/c7 { 0.000000 0.820000 0.820000 sr} bdef
c0
1 j
1 sg
   0    0 5377 4034 rf
6 w
0 3246 4166 0 0 -3246 699 3589 4 MP
PP
-4166 0 0 3246 4166 0 0 -3246 699 3589 5 MP stroke
4 w
DO
SO
6 w
0 sg
 699 3589 mt 4865 3589 L
 699  343 mt 4865  343 L
 699 3589 mt  699  343 L
4865 3589 mt 4865  343 L
 699 3589 mt 4865 3589 L
 699 3589 mt  699  343 L
 699 3589 mt  699 3547 L
 699  344 mt  699  385 L
%%IncludeResource: font Helvetica
/Helvetica /ISOLatin1Encoding 120 FMSR

 563 3734 mt 
(-30) s
1219 3589 mt 1219 3547 L
1219  344 mt 1219  385 L
1083 3734 mt 
(-20) s
1740 3589 mt 1740 3547 L
1740  344 mt 1740  385 L
1604 3734 mt 
(-10) s
2261 3589 mt 2261 3547 L
2261  344 mt 2261  385 L
2228 3734 mt 
(0) s
2782 3589 mt 2782 3547 L
2782  344 mt 2782  385 L
2716 3734 mt 
(10) s
3302 3589 mt 3302 3547 L
3302  344 mt 3302  385 L
3236 3734 mt 
(20) s
3823 3589 mt 3823 3547 L
3823  344 mt 3823  385 L
3757 3734 mt 
(30) s
4344 3589 mt 4344 3547 L
4344  344 mt 4344  385 L
4278 3734 mt 
(40) s
4865 3589 mt 4865 3547 L
4865  344 mt 4865  385 L
4799 3734 mt 
(50) s
 699 3589 mt  740 3589 L
4865 3589 mt 4823 3589 L
 464 3633 mt 
(315) s
 699 3264 mt  740 3264 L
4865 3264 mt 4823 3264 L
 464 3308 mt 
(320) s
 699 2940 mt  740 2940 L
4865 2940 mt 4823 2940 L
 464 2984 mt 
(325) s
 699 2615 mt  740 2615 L
4865 2615 mt 4823 2615 L
 464 2659 mt 
(330) s
 699 2291 mt  740 2291 L
4865 2291 mt 4823 2291 L
 464 2335 mt 
(335) s
 699 1966 mt  740 1966 L
4865 1966 mt 4823 1966 L
 464 2010 mt 
(340) s
 699 1642 mt  740 1642 L
4865 1642 mt 4823 1642 L
 464 1686 mt 
(345) s
 699 1317 mt  740 1317 L
4865 1317 mt 4823 1317 L
 464 1361 mt 
(350) s
 699  993 mt  740  993 L
4865  993 mt 4823  993 L
 464 1037 mt 
(355) s
 699  668 mt  740  668 L
4865  668 mt 4823  668 L
 464  712 mt 
(360) s
 699  344 mt  740  344 L
4865  344 mt 4823  344 L
 464  388 mt 
(365) s
 699 3589 mt 4865 3589 L
 699  343 mt 4865  343 L
 699 3589 mt  699  343 L
4865 3589 mt 4865  343 L
gs 699 344 4167 3246 rc
/c8 { 0.000000 0.000000 1.000000 sr} bdef
c8
26 -24 26 -23 26 -23 26 -24 26 -23 26 -23 26 -23 26 -22 
26 -23 26 -23 26 -22 26 -23 26 -22 26 -22 26 -23 26 -22 
26 -22 26 -22 26 -22 26 -22 26 -21 26 -22 26 -22 26 -21 
26 -22 27 -21 26 -22 26 -21 26 -21 26 -22 26 -21 26 -21 
26 -21 26 -21 26 -21 26 -21 26 -21 26 -21 26 -21 26 -21 
26 -21 26 -20 26 -21 26 -21 26 -20 26 -21 26 -20 26 -21 
26 -21 26 -20 26 -20 26 -21 27 -20 26 -21 26 -20 26 -20 
26 -21 26 -20 26 -20 26 -21 26 -20 26 -20 26 -20 26 -20 
26 -21 26 -20 26 -20 26 -20 26 -20 26 -20 26 -20 26 -21 
26 -20 26 -20 26 -20 26 -20 26 -20 26 -20 26 -20 27 -20 
26 -20 26 -20 26 -20 26 -20 26 -20 26 -20 26 -20 26 -20 
26 -20 26 -20 26 -21 26 -20 26 -20 26 -20 26 -20 26 -20 
26 -20 26 -20 26 -20 26 -20 26 -20 26 -20 26 -20 26 -20 
26 -20 27 -21 26 -20 26 -20 26 -20 26 -20 26 -20 26 -20 
26 -21 26 -20 26 -20 26 -20 26 -20 26 -21 26 -20 26 -20 
26 -20 26 -21 26 -20 26 -20 26 -20 26 -21 26 -20 26 -20 
26 -21 26 -20 26 -21 26 -20 27 -20 26 -21 26 -20 26 -21 
26 -20 26 -21 26 -20 26 -21 26 -20 26 -21 26 -20 26 -21 
26 -20 26 -21 26 -21 26 -20 26 -21 959 3527 150 MP stroke
gr

c8
0 sg
2325 3877 mt 
(Temperature [) s
%%IncludeResource: font Symbol
/Symbol /ISOLatin1Encoding 120 FMSR

3063 3877 mt 
(\260) s
%%IncludeResource: font Helvetica
/Helvetica /ISOLatin1Encoding 120 FMSR

3111 3877 mt 
(C]) s
 382 2544 mt  -90 rotate
(Speed of Sound [m/s]) s
90 rotate
1578  111 mt 
(Speed of Sound as a function of Temperature) s
 956  249 mt 
( With a sound frequency of 40kHz, 1 atm pressure and 50% hu\
midity) s

end %%Color Dict

eplot
%%EndObject

epage
end

showpage

%%Trailer
%%EOF
