%!PS-Adobe-3.0 EPSF-3.0
%%Creator: MATLAB, The MathWorks, Inc. Version 8.3.0.532 (R2014a). Operating System: Linux 3.19.0-31-generic #36-Ubuntu SMP Wed Oct 7 15:04:02 UTC 2015 x86_64.
%%Title: /home/nicolai/led.eps
%%CreationDate: 10/29/2015  13:39:02
%%DocumentNeededFonts: Helvetica
%%DocumentProcessColors: Cyan Magenta Yellow Black
%%LanguageLevel: 2
%%Pages: 1
%%BoundingBox:  -315    67   928   724
%%EndComments

%%BeginProlog
% MathWorks dictionary
/MathWorks 160 dict begin
% definition operators
/bdef {bind def} bind def
/ldef {load def} bind def
/xdef {exch def} bdef
/xstore {exch store} bdef
% operator abbreviations
/c  /clip ldef
/cc /concat ldef
/cp /closepath ldef
/gr /grestore ldef
/gs /gsave ldef
/mt /moveto ldef
/np /newpath ldef
/cm /currentmatrix ldef
/sm /setmatrix ldef
/rm /rmoveto ldef
/rl /rlineto ldef
/s {show newpath} bdef
/sc {setcmykcolor} bdef
/sr /setrgbcolor ldef
/sg /setgray ldef
/w /setlinewidth ldef
/j /setlinejoin ldef
/cap /setlinecap ldef
/rc {rectclip} bdef
/rf {rectfill} bdef
% page state control
/pgsv () def
/bpage {/pgsv save def} bdef
/epage {pgsv restore} bdef
/bplot /gsave ldef
/eplot {stroke grestore} bdef
% orientation switch
/portraitMode 0 def /landscapeMode 1 def /rotateMode 2 def
% coordinate system mappings
/dpi2point 0 def
% font control
/FontSize 0 def
/FMS {/FontSize xstore findfont [FontSize 0 0 FontSize neg 0 0]
  makefont setfont} bdef
/reencode {exch dup where {pop load} {pop StandardEncoding} ifelse
  exch dup 3 1 roll findfont dup length dict begin
  { 1 index /FID ne {def}{pop pop} ifelse } forall
  /Encoding exch def currentdict end definefont pop} bdef
/isroman {findfont /CharStrings get /Agrave known} bdef
/FMSR {3 1 roll 1 index dup isroman {reencode} {pop pop} ifelse
  exch FMS} bdef
/csm {1 dpi2point div -1 dpi2point div scale neg translate
 dup landscapeMode eq {pop -90 rotate}
  {rotateMode eq {90 rotate} if} ifelse} bdef
% line types: solid, dotted, dashed, dotdash
/SO { [] 0 setdash } bdef
/DO { [.5 dpi2point mul 4 dpi2point mul] 0 setdash } bdef
/DA { [6 dpi2point mul] 0 setdash } bdef
/DD { [.5 dpi2point mul 4 dpi2point mul 6 dpi2point mul 4
  dpi2point mul] 0 setdash } bdef
% macros for lines and objects
/L {lineto stroke} bdef
/MP {3 1 roll moveto 1 sub {rlineto} repeat} bdef
/AP {{rlineto} repeat} bdef
/PDlw -1 def
/W {/PDlw currentlinewidth def setlinewidth} def
/PP {closepath eofill} bdef
/DP {closepath stroke} bdef
/MR {4 -2 roll moveto dup  0 exch rlineto exch 0 rlineto
  neg 0 exch rlineto closepath} bdef
/FR {MR stroke} bdef
/PR {MR fill} bdef
/L1i {{currentfile picstr readhexstring pop} image} bdef
/tMatrix matrix def
/MakeOval {newpath tMatrix currentmatrix pop translate scale
0 0 1 0 360 arc tMatrix setmatrix} bdef
/FO {MakeOval stroke} bdef
/PO {MakeOval fill} bdef
/PD {currentlinewidth 2 div 0 360 arc fill
   PDlw -1 eq not {PDlw w /PDlw -1 def} if} def
/FA {newpath tMatrix currentmatrix pop translate scale
  0 0 1 5 -2 roll arc tMatrix setmatrix stroke} bdef
/PA {newpath tMatrix currentmatrix pop	translate 0 0 moveto scale
  0 0 1 5 -2 roll arc closepath tMatrix setmatrix fill} bdef
/FAn {newpath tMatrix currentmatrix pop translate scale
  0 0 1 5 -2 roll arcn tMatrix setmatrix stroke} bdef
/PAn {newpath tMatrix currentmatrix pop translate 0 0 moveto scale
  0 0 1 5 -2 roll arcn closepath tMatrix setmatrix fill} bdef
/vradius 0 def /hradius 0 def /lry 0 def
/lrx 0 def /uly 0 def /ulx 0 def /rad 0 def
/MRR {/vradius xdef /hradius xdef /lry xdef /lrx xdef /uly xdef
  /ulx xdef newpath tMatrix currentmatrix pop ulx hradius add uly
  vradius add translate hradius vradius scale 0 0 1 180 270 arc 
  tMatrix setmatrix lrx hradius sub uly vradius add translate
  hradius vradius scale 0 0 1 270 360 arc tMatrix setmatrix
  lrx hradius sub lry vradius sub translate hradius vradius scale
  0 0 1 0 90 arc tMatrix setmatrix ulx hradius add lry vradius sub
  translate hradius vradius scale 0 0 1 90 180 arc tMatrix setmatrix
  closepath} bdef
/FRR {MRR stroke } bdef
/PRR {MRR fill } bdef
/MlrRR {/lry xdef /lrx xdef /uly xdef /ulx xdef /rad lry uly sub 2 div def
  newpath tMatrix currentmatrix pop ulx rad add uly rad add translate
  rad rad scale 0 0 1 90 270 arc tMatrix setmatrix lrx rad sub lry rad
  sub translate rad rad scale 0 0 1 270 90 arc tMatrix setmatrix
  closepath} bdef
/FlrRR {MlrRR stroke } bdef
/PlrRR {MlrRR fill } bdef
/MtbRR {/lry xdef /lrx xdef /uly xdef /ulx xdef /rad lrx ulx sub 2 div def
  newpath tMatrix currentmatrix pop ulx rad add uly rad add translate
  rad rad scale 0 0 1 180 360 arc tMatrix setmatrix lrx rad sub lry rad
  sub translate rad rad scale 0 0 1 0 180 arc tMatrix setmatrix
  closepath} bdef
/FtbRR {MtbRR stroke } bdef
/PtbRR {MtbRR fill } bdef
/stri 6 array def /dtri 6 array def
/smat 6 array def /dmat 6 array def
/tmat1 6 array def /tmat2 6 array def /dif 3 array def
/asub {/ind2 exch def /ind1 exch def dup dup
  ind1 get exch ind2 get sub exch } bdef
/tri_to_matrix {
  2 0 asub 3 1 asub 4 0 asub 5 1 asub
  dup 0 get exch 1 get 7 -1 roll astore } bdef
/compute_transform {
  dmat dtri tri_to_matrix tmat1 invertmatrix 
  smat stri tri_to_matrix tmat2 concatmatrix } bdef
/ds {stri astore pop} bdef
/dt {dtri astore pop} bdef
/db {2 copy /cols xdef /rows xdef mul dup 3 mul string
  currentfile 
  3 index 0 eq {/ASCIIHexDecode filter}
  {/ASCII85Decode filter 3 index 2 eq {/RunLengthDecode filter} if }
  ifelse exch readstring pop
  dup 0 3 index getinterval /rbmap xdef
  dup 2 index dup getinterval /gbmap xdef
  1 index dup 2 mul exch getinterval /bbmap xdef pop pop}bdef
/it {gs np dtri aload pop moveto lineto lineto cp c
  cols rows 8 compute_transform 
  rbmap gbmap bbmap true 3 colorimage gr}bdef
/il {newpath moveto lineto stroke}bdef
currentdict end def
%%EndProlog

%%BeginSetup
MathWorks begin

0 cap

end
%%EndSetup

%%Page: 1 1
%%BeginPageSetup
%%PageBoundingBox:  -315    67   928   724
MathWorks begin
bpage
%%EndPageSetup

%%BeginObject: obj1
bplot

/dpi2point 12 def
portraitMode -3780 8688 csm

    0     0 14927  7882 rc
86 dict begin %Colortable dictionary
/c0 { 0.000000 0.000000 0.000000 sr} bdef
/c1 { 1.000000 1.000000 1.000000 sr} bdef
/c2 { 0.900000 0.000000 0.000000 sr} bdef
/c3 { 0.000000 0.820000 0.000000 sr} bdef
/c4 { 0.000000 0.000000 0.800000 sr} bdef
/c5 { 0.910000 0.820000 0.320000 sr} bdef
/c6 { 1.000000 0.260000 0.820000 sr} bdef
/c7 { 0.000000 0.820000 0.820000 sr} bdef
c0
1 j
1 sg
   0    0 14928 7883 rf
6 w
0 1701 4995 0 0 -1701 1941 2292 4 MP
PP
-4995 0 0 1701 4995 0 0 -1701 1941 2292 5 MP stroke
4 w
DO
SO
6 w
0 sg
1941 2292 mt 6936 2292 L
1941  591 mt 6936  591 L
1941 2292 mt 1941  591 L
6936 2292 mt 6936  591 L
1941 2292 mt 6936 2292 L
1941 2292 mt 1941  591 L
1941 2292 mt 1941 2242 L
1941  591 mt 1941  640 L
%%IncludeResource: font Helvetica
/Helvetica /ISOLatin1Encoding 120 FMSR

1788 2437 mt 
(-2.5) s
2440 2292 mt 2440 2242 L
2440  591 mt 2440  640 L
2337 2437 mt 
(-2) s
2940 2292 mt 2940 2242 L
2940  591 mt 2940  640 L
2787 2437 mt 
(-1.5) s
3439 2292 mt 3439 2242 L
3439  591 mt 3439  640 L
3336 2437 mt 
(-1) s
3939 2292 mt 3939 2242 L
3939  591 mt 3939  640 L
3786 2437 mt 
(-0.5) s
4438 2292 mt 4438 2242 L
4438  591 mt 4438  640 L
4405 2437 mt 
(0) s
4938 2292 mt 4938 2242 L
4938  591 mt 4938  640 L
4855 2437 mt 
(0.5) s
5437 2292 mt 5437 2242 L
5437  591 mt 5437  640 L
5404 2437 mt 
(1) s
5937 2292 mt 5937 2242 L
5937  591 mt 5937  640 L
5854 2437 mt 
(1.5) s
6436 2292 mt 6436 2242 L
6436  591 mt 6436  640 L
6403 2437 mt 
(2) s
6935 2292 mt 6935 2242 L
6935  591 mt 6935  640 L
6852 2437 mt 
(2.5) s
6619 2639 mt 
(x 10) s
%%IncludeResource: font Helvetica
/Helvetica /ISOLatin1Encoding 80 FMSR

6845 2565 mt 
(-5) s
1941 2079 mt 1990 2079 L
6936 2079 mt 6886 2079 L
%%IncludeResource: font Helvetica
/Helvetica /ISOLatin1Encoding 120 FMSR

1840 2123 mt 
(0) s
1941 1654 mt 1990 1654 L
6936 1654 mt 6886 1654 L
1840 1698 mt 
(2) s
1941 1228 mt 1990 1228 L
6936 1228 mt 6886 1228 L
1840 1272 mt 
(4) s
1941  803 mt 1990  803 L
6936  803 mt 6886  803 L
1840  847 mt 
(6) s
1941 2292 mt 6936 2292 L
1941  591 mt 6936  591 L
1941 2292 mt 1941  591 L
6936 2292 mt 6936  591 L
gs 1941 591 4996 1702 rc
/c8 { 1.000000 0.000000 0.000000 sr} bdef
c8
1 -8 2 -9 2 9 2 0 2 0 2 0 2 -17 2 0 
2 17 2 -9 2 9 2 0 2 0 2 17 2 -17 2 -9 
2 9 2 0 2 -9 2 17 2 -25 2 -9 2 26 2 -9 
2 9 2 0 2 0 2 8 2 -8 2 -9 2 9 2 0 
2 0 2 0 2 -17 2 0 2 17 2 -9 2 9 2 0 
2 0 2 8 2 -8 2 0 2 0 2 0 2 0 2 0 
2 0 2 0 2 0 2 -9 2 9 2 0 2 0 2 17 
2 -17 2 0 2 0 2 0 2 0 2 0 2 -9 2 -17 
2 26 2 -9 2 9 2 0 2 0 2 0 2 -17 2 0 
2 17 2 -9 2 9 2 8 2 -25 2 34 2 8 2 -34 
2 9 2 0 2 0 2 8 2 -17 2 0 2 9 2 -9 
2 9 2 0 2 -9 2 17 2 -8 2 0 2 0 2 0 
2 0 2 8 2 -17 2 0 2 9 2 -9 2 9 2 0 
2 -9 2 17 2 -8 2 -9 2 9 2 0 2 0 2 0 
2 -9 2 0 2 9 2 -9 2 9 2 0 2 -9 2 17 
2 -8 2 0 2 0 2 0 2 0 2 8 2 -17 2 0 
2 9 2 -9 2 9 2 0 2 -9 2 17 2 -8 2 0 
2 0 2 0 2 0 2 0 2 -9 2 0 2 9 2 -9 
2 9 2 0 2 -9 2 17 2 -8 2 -9 2 9 2 0 
2 0 2 0 2 -9 2 0 2 9 2 -9 2 9 2 0 
2 -9 2 17 2 -8 2 -9 2 9 2 0 2 -9 2 17 
2 -17 2 0 2 9 2 0 2 0 2 0 2 -9 2 9 
2 0 2 0 2 0 2 0 2 0 2 0 2 0 2 -9 
2 9 2 -9 2 9 2 0 2 -9 2 9 2 8 2 -8 
2 0 2 0 2 0 2 0 2 -9 2 0 2 9 2 -9 
2 9 2 0 2 -9 2 17 2 -8 2 -9 2 9 2 0 
2 0 2 0 2 -9 2 0 2 9 2 -9 2 9 2 0 
2 -9 2 17 2 -8 2 0 2 0 2 0 2 0 2 0 
2 -9 2 0 2 9 2 -9 2 9 2 0 2 0 2 17 
2 -17 2 0 2 0 2 0 2 0 2 0 2 -17 2 8 
2 9 2 -9 2 -8 2 -9 2 17 2 26 2 -17 2 -9 
2 9 2 0 2 0 2 0 2 -17 2 8 2 9 2 -9 
2 9 2 0 2 0 2 17 2 -17 2 0 2 0 2 0 
2 0 2 0 2 -17 2 0 2 17 2 -9 2 9 2 0 
2 0 2 17 2 -17 2 -9 2 9 2 0 2 0 2 8 
2 -25 2 -9 2 26 2 -9 2 9 2 0 2 -9 2 17 
2 -8 2 -9 2 9 2 0 2 0 2 0 2 -17 2 0 
2 17 2 -9 2 9 6340 1900 300 MP stroke
2 0 2 -9 2 17 2 -8 2 0 2 0 2 0 2 0 
2 -9 2 9 2 0 2 0 2 -9 2 9 2 0 2 0 
2 17 2 -17 2 0 2 0 2 0 2 0 2 0 2 -9 
2 -17 2 26 2 0 2 0 2 0 2 0 2 0 2 -26 
2 17 2 9 2 -9 2 9 2 8 2 -25 2 34 2 8 
2 -34 2 9 2 0 2 0 2 8 2 -17 2 0 2 9 
2 -9 2 9 2 0 2 -9 2 17 2 -8 2 0 2 0 
2 0 2 0 2 8 2 -17 2 0 2 9 2 -9 2 9 
2 0 2 -9 2 17 2 -8 2 -9 2 9 2 0 2 0 
2 8 2 -17 2 0 2 9 2 -9 2 9 2 0 2 -9 
2 17 2 -8 2 -9 2 9 2 0 2 0 2 0 2 -9 
2 0 2 9 2 -9 2 9 2 0 2 -9 2 17 2 -8 
2 -9 2 9 2 0 2 0 2 0 2 -9 2 0 2 9 
2 -9 2 9 2 0 2 -9 2 17 2 -8 2 0 2 0 
2 0 2 0 2 0 2 -17 2 8 2 9 2 -9 2 9 
2 0 2 -9 2 9 2 0 2 -9 2 9 2 0 2 0 
2 8 2 -17 2 0 2 9 2 -9 2 9 2 0 2 -9 
2 9 2 0 2 0 2 0 2 -9 2 9 2 8 2 -8 
2 -9 2 9 2 -9 2 9 2 -9 2 9 2 0 2 0 
2 0 2 0 2 0 2 0 2 0 2 -9 2 0 2 9 
2 -9 2 9 2 0 2 -9 2 17 2 -8 2 0 2 0 
2 0 2 0 2 0 2 -9 2 0 2 9 2 -9 2 9 
2 0 2 -9 2 17 2 -8 2 0 2 0 2 0 2 0 
2 0 2 -17 2 8 2 9 2 -9 2 9 2 0 2 0 
2 8 2 -8 2 -9 2 9 2 0 2 0 2 0 2 -9 
2 0 1 9 2 -9 2 -8 2 -9 2 17 2 17 2 -8 
2 -9 2 9 2 0 2 -9 2 9 2 -17 2 0 2 17 
2 -9 2 9 2 0 2 0 2 17 2 -17 2 -9 2 9 
2 0 2 0 2 0 2 -17 2 8 2 9 2 0 2 0 
2 0 2 0 2 8 2 -8 2 -9 2 9 2 0 2 0 
2 8 2 -25 2 -9 2 26 2 -9 2 9 2 0 2 -9 
2 17 2 -8 2 -9 2 9 2 0 2 0 2 0 2 -17 
2 8 2 9 2 -9 2 9 2 0 2 0 2 8 2 -8 
2 -9 2 9 2 0 2 0 2 0 2 0 2 0 2 0 
2 0 2 0 2 0 2 0 2 17 2 -17 2 0 2 0 
2 0 2 0 2 0 2 0 2 -26 2 26 2 0 2 0 
2 0 2 0 2 0 2 -17 2 8 2 9 2 -9 2 9 
2 0 2 -17 2 25 5743 1892 300 MP stroke
2 17 2 -34 2 9 2 0 2 0 2 8 2 -17 2 0 
2 9 2 -9 2 9 2 0 2 -9 2 17 2 -8 2 0 
2 0 2 0 2 0 2 0 2 -9 2 0 2 9 2 -9 
2 9 2 0 2 -9 2 17 2 -8 2 0 2 0 2 0 
2 -9 2 17 2 -17 2 0 2 9 2 0 2 0 2 0 
2 -9 2 17 2 -8 2 -9 2 9 2 0 2 0 2 0 
2 -9 2 0 2 9 2 -9 2 9 2 0 2 -9 2 17 
2 -8 2 0 2 0 2 0 2 0 2 8 2 -17 2 0 
2 9 2 -9 2 9 2 0 2 -9 2 9 2 0 2 0 
2 0 2 0 2 0 2 0 2 -9 2 0 2 9 2 -9 
2 9 2 0 2 -9 2 17 2 -8 2 0 2 0 2 0 
2 0 2 8 2 -17 2 0 2 9 2 0 2 0 2 0 
2 -9 2 17 2 -8 2 0 2 -9 2 9 2 0 2 0 
2 -9 2 0 2 9 2 -9 2 9 2 0 2 0 2 0 
2 0 2 0 2 0 2 0 2 0 2 0 2 -9 2 0 
2 9 2 -9 2 9 2 0 2 -9 2 17 2 -8 2 0 
2 0 2 0 2 0 2 8 2 -17 2 9 2 0 2 -9 
2 9 2 0 2 -9 2 9 2 0 2 0 2 0 2 0 
2 0 2 0 2 -17 2 8 2 9 2 0 2 0 2 0 
2 0 2 17 2 -17 2 0 2 0 2 0 2 0 2 0 
2 -17 2 8 2 9 2 -9 2 -8 2 -9 2 17 2 26 
2 -17 2 -9 2 9 2 0 2 0 2 0 2 -17 2 8 
2 9 2 0 2 0 2 0 2 0 2 8 2 -8 2 -9 
2 9 2 0 2 0 2 0 2 -17 2 8 2 9 2 -9 
2 9 2 0 2 0 2 17 2 -17 2 0 2 0 2 0 
2 0 2 8 2 -25 2 -9 2 26 2 -9 2 9 2 0 
2 -9 2 17 2 -8 2 -9 2 9 2 0 2 0 2 0 
2 -17 2 8 2 9 2 -9 2 9 2 0 2 -9 2 9 
2 0 2 -9 2 9 2 0 2 0 2 0 2 0 2 0 
2 0 2 -9 2 9 2 0 2 0 2 17 2 -17 2 0 
2 -9 2 9 2 0 2 -9 2 9 2 -26 2 26 2 -9 
2 9 2 0 2 0 2 0 2 -17 2 8 2 9 2 -9 
2 9 2 0 2 0 2 0 2 25 2 -25 2 8 2 -8 
2 0 2 0 2 -9 2 0 2 9 2 0 2 0 2 0 
2 -9 2 9 2 0 2 0 2 0 2 0 2 0 2 0 
2 0 2 -9 2 9 2 -9 2 9 2 0 2 -9 2 9 
2 0 2 0 2 0 2 0 2 0 2 0 2 -9 2 0 
2 9 2 -9 2 9 5145 1900 300 MP stroke
2 0 2 -9 2 9 2 0 2 0 2 0 2 0 2 0 
2 8 2 -17 2 0 2 9 2 -9 2 9 2 0 2 -9 
2 17 2 -8 2 -9 2 9 2 0 2 0 2 0 2 -9 
2 0 2 9 2 -9 2 9 2 0 2 -9 2 17 2 -8 
2 -9 2 9 2 0 2 0 2 0 2 -9 2 0 2 9 
2 -9 2 9 2 0 2 -9 2 17 2 -8 2 -9 2 9 
2 0 2 0 2 8 2 -17 2 0 2 9 2 -9 2 9 
2 0 2 -9 2 9 2 0 2 0 2 0 2 0 2 0 
2 0 2 0 2 -9 2 9 2 0 2 0 2 0 2 0 
2 0 2 0 2 0 2 0 2 0 2 0 2 0 2 0 
2 -9 2 9 2 0 2 0 2 0 2 -9 2 17 2 0 
2 -17 2 9 2 0 2 0 2 8 2 -8 2 0 2 0 
2 0 2 0 2 0 2 0 2 8 2 0 2 -8 1 8 
2 -8 2 0 2 0 2 -9 2 9 2 0 2 0 2 0 
2 0 2 0 2 17 2 -9 2 -8 2 0 2 0 2 0 
2 8 2 -17 2 0 2 9 2 -9 2 0 2 -8 2 17 
2 17 2 -9 2 -8 2 0 2 0 2 0 2 0 2 -9 
2 0 2 9 2 0 2 0 2 0 2 0 2 17 2 -17 
2 0 2 0 2 0 2 0 2 0 2 -17 2 8 2 9 
2 0 2 0 2 0 2 0 2 8 2 -8 2 -9 2 9 
2 0 2 0 2 0 2 -26 2 -8 2 25 2 -8 2 8 
2 9 2 -17 2 17 2 0 2 -17 2 8 2 0 2 0 
2 0 2 -25 2 8 2 9 2 0 2 8 2 0 2 -17 
2 26 2 -17 2 -9 2 9 2 0 2 0 2 -9 2 9 
2 8 2 -17 2 0 2 9 2 0 2 0 2 17 2 -17 
2 0 2 -9 2 9 2 -9 2 -8 2 17 2 -17 2 8 
2 -8 2 17 2 0 2 -9 2 9 2 -17 2 0 2 8 
2 0 2 0 2 9 2 -9 2 9 2 25 2 -34 2 17 
2 -8 2 0 2 17 2 -26 2 9 2 8 2 -8 2 8 
2 9 2 -9 2 9 2 0 2 0 2 0 2 0 2 0 
2 17 2 -17 2 0 2 8 2 0 2 9 2 0 2 -9 
2 17 2 0 2 0 2 0 2 0 2 9 2 0 2 -9 
2 0 2 9 2 0 2 8 2 0 2 0 2 9 2 0 
2 0 2 8 2 -8 2 8 2 0 2 -17 2 9 2 8 
2 -8 2 8 2 0 2 0 2 9 2 -9 2 0 2 0 
2 0 2 9 2 0 2 -9 2 0 2 0 2 0 2 9 
2 -9 2 0 2 9 2 0 2 -9 2 9 2 -9 2 0 
2 9 2 -9 2 0 4548 1841 300 MP stroke
2 0 2 0 2 0 2 0 2 -8 2 8 2 0 2 -8 
2 8 2 -8 2 0 2 0 2 -17 2 0 2 8 2 -8 
2 8 2 -8 2 -9 2 17 2 -8 2 -9 2 0 2 0 
2 0 2 0 2 -17 2 0 2 0 2 -8 2 8 2 0 
2 -8 2 8 2 0 2 -17 2 9 2 -9 2 0 2 9 
2 -26 2 0 2 0 2 -8 2 8 2 0 2 -8 2 8 
2 -8 2 -9 2 9 2 -9 2 -8 2 8 2 -17 2 0 
2 0 2 0 2 0 2 0 2 -17 2 17 2 0 2 -17 
2 9 2 -9 2 -8 2 0 2 -9 2 -8 2 8 2 -8 
2 0 2 8 2 -8 2 8 2 -8 2 -17 2 0 2 0 
2 0 2 0 2 -26 2 0 2 9 2 -9 2 0 2 0 
2 0 2 17 2 -17 2 -8 2 0 2 0 2 -9 2 9 
2 -34 2 8 2 9 2 -9 2 9 2 0 2 -9 2 26 
2 -9 2 -17 2 9 2 0 2 -9 2 9 2 -17 2 8 
2 9 2 -9 2 9 2 0 2 0 2 17 2 0 2 -17 
2 0 2 0 2 -9 2 17 2 -17 2 0 2 17 2 9 
2 -9 2 9 2 -17 2 -9 2 17 2 -25 2 -9 2 43 
2 -9 2 -17 2 -8 2 0 2 8 2 -8 2 8 2 0 
2 -8 2 17 2 8 2 -17 2 0 2 0 2 -8 2 8 
2 9 2 8 2 -17 2 0 2 0 2 0 2 0 2 17 
2 -8 2 -9 2 0 2 0 2 0 2 0 2 0 2 -8 
2 8 2 0 2 9 2 -9 2 -8 2 8 2 -8 2 0 
2 8 2 -8 2 8 2 0 2 -17 2 26 2 25 2 -34 
2 0 2 0 2 0 2 9 2 0 2 -17 2 8 2 0 
2 9 2 -9 2 -8 2 8 2 9 2 -9 2 9 2 -17 
2 8 2 9 2 -17 2 8 2 9 2 -9 2 9 2 -9 
2 -8 2 17 2 8 2 -17 2 9 2 -9 2 -8 2 17 
2 -17 2 8 2 9 2 -9 2 9 2 -9 2 -8 2 25 
2 0 2 -17 2 9 2 -9 2 -8 2 25 2 -25 2 8 
2 0 2 0 2 9 2 -9 2 -8 2 17 2 0 2 -9 
2 9 2 -9 2 0 2 17 2 -25 2 8 2 9 2 -17 
2 17 2 -9 2 -8 2 25 2 -8 2 -9 2 9 2 -9 
2 -8 2 17 2 -9 2 -8 2 17 2 -9 2 9 2 -9 
2 -8 2 17 2 0 2 -9 2 9 2 -9 2 -8 2 25 
2 -25 2 8 2 0 2 0 2 9 2 -9 2 -8 2 17 
2 8 2 -17 2 9 2 -9 2 0 2 17 2 -25 2 8 
2 0 2 -8 2 17 2 -9 2 -8 2 17 2 8 2 -17 
2 9 2 -9 2 -8 3950 2087 300 MP stroke
2 25 2 -25 2 8 2 0 2 0 1 9 2 -9 2 -8 
2 25 2 0 2 -17 2 9 2 -9 2 0 2 17 2 -25 
2 0 2 8 2 0 2 9 2 -9 2 -8 2 17 2 0 
2 -17 2 17 2 -17 2 0 2 8 2 -8 2 0 2 8 
2 -8 2 8 2 0 2 0 2 17 2 0 2 -17 2 9 
2 -9 2 -8 2 8 2 -8 2 0 2 17 2 -9 2 0 
2 0 2 -8 2 25 2 0 2 -17 2 0 2 0 2 0 
2 0 2 -8 2 0 2 8 2 -8 2 8 2 0 2 -8 
2 25 2 -8 2 -9 2 9 2 -9 2 -8 2 8 2 -8 
2 8 2 0 2 -8 2 8 2 0 2 -8 2 25 2 0 
2 -17 2 9 2 -9 2 -8 2 17 2 -17 2 -9 2 17 
2 -8 2 8 2 0 2 -8 2 17 2 0 2 -9 2 9 
2 -9 2 -8 2 8 2 -8 2 0 2 8 2 -8 2 8 
2 0 2 -8 2 17 2 8 2 -17 2 0 2 0 2 0 
2 0 2 9 2 8 2 -17 2 0 2 0 2 0 2 0 
2 17 2 -8 2 -9 2 0 2 0 2 0 2 0 2 0 
2 -8 2 8 2 0 2 9 2 -9 2 -8 2 8 2 -8 
2 0 2 8 2 -8 2 8 2 0 2 -17 2 34 2 17 
2 -34 2 0 2 0 2 9 2 0 2 -9 2 0 2 9 
2 -9 2 9 2 -9 2 -8 2 17 2 0 2 -9 2 9 
2 -17 2 17 2 0 2 -17 2 8 2 0 2 0 2 9 
2 -9 2 -8 2 17 2 8 2 -17 2 9 2 -9 2 0 
2 17 2 -25 2 8 2 9 2 -9 2 9 2 -9 2 -8 
2 17 2 8 2 -17 2 9 2 -9 2 0 2 9 2 -17 
2 8 2 0 2 0 2 9 2 -9 2 -8 2 17 2 8 
2 -17 2 9 2 -9 2 0 2 9 2 -17 2 0 2 17 
2 -9 2 0 2 0 2 -8 2 17 2 8 2 -17 2 9 
2 -17 2 8 2 17 2 -17 2 0 2 9 2 -9 2 9 
2 -9 2 -8 2 17 2 0 2 -9 2 9 2 -9 2 0 
2 17 2 -25 2 8 2 9 2 -9 2 9 2 -9 2 -8 
2 25 2 -8 2 -9 2 9 2 -9 2 0 2 17 2 -25 
2 8 2 9 2 -17 2 17 2 -9 2 -8 2 17 2 8 
2 -17 2 9 2 -9 2 0 2 17 2 -25 2 8 2 9 
2 -9 2 9 2 -9 2 -8 2 17 2 8 2 -17 2 9 
2 -9 2 0 2 9 2 -17 2 8 2 0 2 0 2 9 
2 -9 2 -8 2 17 2 0 2 -9 2 9 2 -17 2 0 
2 17 2 -17 2 0 2 8 2 -8 2 8 2 0 2 -8 
2 25 2 0 2 -17 3353 2079 300 MP stroke
2 9 2 -9 2 -8 2 8 2 -8 2 0 2 8 2 -8 
2 8 2 9 2 -17 2 25 2 0 2 -17 2 9 2 -17 
2 8 2 0 2 -8 2 0 2 8 2 -8 2 8 2 0 
2 -8 2 25 2 0 2 -17 2 0 2 0 2 -8 2 17 
2 -17 2 0 2 8 2 -8 2 8 2 0 2 0 2 17 
2 -8 2 -17 2 17 2 -9 2 -8 2 17 2 -17 2 -9 
2 26 2 -17 2 17 2 -9 2 -8 2 17 2 8 2 -17 
2 9 2 -9 2 -8 2 8 2 -8 2 0 2 8 2 0 
2 0 2 0 2 -8 2 17 2 8 2 -17 2 0 2 0 
2 0 2 0 2 0 2 17 2 -17 2 -8 2 8 2 0 
2 -8 2 25 2 -8 2 -9 2 0 2 0 2 0 2 0 
2 0 2 -17 2 26 2 -9 2 9 2 -9 2 -8 2 8 
2 -8 2 0 2 17 2 -17 2 8 2 0 2 -17 2 26 
2 17 2 -26 2 0 2 0 2 0 2 9 2 -9 2 0 
2 9 2 -9 2 9 2 -9 2 -8 2 17 2 0 2 -9 
2 9 2 -17 2 8 2 9 2 -9 2 0 2 9 2 -9 
2 9 2 -9 2 -8 2 25 2 0 2 -17 2 9 2 -9 
2 -8 2 25 2 -25 2 8 2 9 2 -9 2 9 2 -9 
2 -8 2 17 2 0 2 -9 2 9 2 -9 2 0 2 9 
2 -17 2 8 2 9 2 -9 2 9 2 -9 2 -8 2 17 
2 0 2 -9 2 9 2 -9 2 0 2 9 2 -17 2 0 
2 8 2 0 2 9 2 -9 2 -8 2 25 2 -8 2 -9 
2 9 2 -9 2 0 2 9 2 -17 2 8 2 9 2 -9 
2 9 2 -9 2 -8 2 25 2 0 2 -17 2 9 2 -9 
2 0 2 17 2 -25 2 8 2 0 2 -8 2 17 2 -9 
2 -8 2 17 2 8 2 -17 2 9 2 -9 1 -8 2 25 
2 -25 2 8 2 9 2 -17 2 8 2 9 2 -17 2 25 
2 -8 2 -9 2 9 2 -9 2 0 2 9 2 -9 2 0 
2 0 2 0 2 9 2 -9 2 -8 2 25 2 -8 2 -9 
2 9 2 -9 2 0 2 9 2 -17 2 8 2 0 2 0 
2 9 2 -9 2 -8 2 25 2 -8 2 -9 2 9 2 -9 
2 -8 2 17 2 -17 2 0 2 8 2 0 2 0 2 0 
2 0 2 17 2 -8 2 -17 2 17 2 -9 2 -8 2 17 
2 -17 2 0 2 8 2 0 2 0 2 0 2 0 2 17 
2 0 2 -17 2 9 2 -9 2 0 2 9 2 -17 2 8 
2 0 2 -8 2 8 2 0 2 -8 2 25 2 0 2 -17 
2 9 2 -9 2 -8 2 8 2 -8 2 0 2 8 2 0 
2 0 2 0 2 -8 2756 2087 300 MP stroke
2 25 2 -8 2 -17 2 17 2 -9 2 -8 2 17 2 -17 
2 0 2 8 2 0 2 0 2 0 2 -8 2 17 2 0 
2 -9 2 9 2 -9 2 -8 2 8 2 -8 2 0 2 8 
2 0 2 0 2 0 2 -8 2 17 2 8 2 -17 2 9 
2 -9 2 0 2 0 2 9 2 8 2 -17 2 0 2 0 
2 0 2 -8 2 25 2 -8 2 -9 2 0 2 0 2 9 
2 -9 2 0 2 -8 2 17 2 -9 2 9 2 -9 2 -8 
2 8 2 -8 2 0 2 8 2 -8 2 8 2 0 2 -17 
2 26 2 17 2 -17 2 -9 2 0 2 9 2 0 2 -9 
2 0 2 0 2 -8 2 17 2 -9 2 -8 2 8 2 17 
2 -17 2 9 2 -17 2 17 2 -9 2 0 2 0 2 0 
2 0 2 9 2 0 2 -17 2 25 2 -8 2 -9 2 9 
2 -9 2 0 2 17 2 -17 2 0 2 0 2 0 2 9 
2 -9 2 -8 2 25 2 0 2 -17 2 9 2 -9 2 0 
2 17 2 -25 2 8 2 0 2 -8 2 17 2 -9 2 -8 
2 17 2 8 2 -17 2 9 2 -9 2 -8 2 17 2 -17 
2 8 2 9 2 -9 2 9 2 -9 2 -8 2 17 2 0 
2 -9 2 9 2 -9 2 0 2 17 2 -25 2 8 2 9 
2 -9 2 9 2 -9 2 -8 2 17 2 8 2 -17 2 9 
2 -9 2 0 2 9 2 -17 2 8 2 9 2 -9 2 9 
2 -9 2 -8 2 25 2 -8 2 -9 2 9 2 -9 2 -8 
2 25 2 -17 2 0 2 0 2 0 2 9 2 -9 2 -8 
2 25 2 0 2 -17 2 9 2 -9 2 0 2 17 2 -25 
2 8 2 0 2 -8 2 17 2 -9 2 -8 2 17 2 8 
2 -17 2 9 2 -9 2 -8 2 25 2 -17 2 0 2 0 
2 -8 2 17 2 -9 2 -8 2 25 2 -8 2 -9 2 9 
2 -17 2 0 2 8 2 -8 2 0 2 8 2 0 2 0 
2 0 2 -8 2 25 2 0 2 -17 2 9 2 -9 2 0 
2 0 2 -8 2 0 2 17 2 -17 2 8 2 0 2 -8 
2 25 2 -8 2 -9 2 9 2 -9 2 -8 2 8 2 -8 
2 0 2 8 2 -8 2 8 2 0 2 -8 2 25 2 0 
2 -17 2 9 2 -9 2 -8 2 17 2 -17 2 0 2 8 
2 -8 2 8 2 0 2 -8 2 25 2 -8 2 -9 2 9 
2 -17 2 0 2 17 2 -17 2 0 2 17 2 -17 2 8 
2 0 2 -8 2 17 2 0 2 -9 2 9 2 -9 2 -8 
2 8 2 -8 2 8 2 0 2 0 2 0 2 0 2 -8 
2 17 2 8 2 -17 2 0 2 0 2 0 2 0 2 9 
2 8 2 -17 2 -8 2158 2087 300 MP stroke
2 8 2 0 2 0 2 17 2 -8 2 -9 2 9 2 -9 
2 0 2 0 2 0 2 -8 2 8 2 -8 2 8 2 0 
2 -8 2 8 2 -8 2 8 2 0 2 -8 2 8 2 0 
2 -17 2 26 2 17 2 -26 2 0 2 -8 2 8 2 9 
2 -9 2 0 2 0 2 -8 2 17 2 -9 2 -8 2 8 
2 9 2 -9 2 9 2 -17 2 17 2 0 2 -17 2 8 
2 0 2 -8 2 8 2 0 2 -8 2 17 2 0 2 -9 
2 9 2 -9 2 -8 2 25 2 -25 2 8 2 9 2 -9 
2 9 2 -9 2 -8 2 17 2 0 2 -9 2 9 2 -9 
2 -8 2 17 2 -17 2 8 2 9 2 -17 2 17 2 0 
2 -17 2 17 2 0 2 -9 2 9 2 -9 2 -8 2 17 
2 -17 2 8 2 0 2 0 2 9 2 -9 2 -8 2 25 
2 -8 2 -9 2 9 2 -9 2 0 2 17 2 -25 2 8 
2 9 2 -17 2 8 2 0 1 -8 1941 2087 110 MP stroke
gr

c8
1 sg
0 1701 4996 0 0 -1701 8513 2292 4 MP
PP
-4996 0 0 1701 4996 0 0 -1701 8513 2292 5 MP stroke
4 w
DO
SO
6 w
0 sg
8513 2292 mt 13509 2292 L
8513  591 mt 13509  591 L
8513 2292 mt 8513  591 L
13509 2292 mt 13509  591 L
8513 2292 mt 13509 2292 L
8513 2292 mt 8513  591 L
8513 2292 mt 8513 2242 L
8513  591 mt 8513  640 L
8360 2437 mt 
(-2.5) s
9012 2292 mt 9012 2242 L
9012  591 mt 9012  640 L
8909 2437 mt 
(-2) s
9512 2292 mt 9512 2242 L
9512  591 mt 9512  640 L
9359 2437 mt 
(-1.5) s
10011 2292 mt 10011 2242 L
10011  591 mt 10011  640 L
9908 2437 mt 
(-1) s
10511 2292 mt 10511 2242 L
10511  591 mt 10511  640 L
10358 2437 mt 
(-0.5) s
11011 2292 mt 11011 2242 L
11011  591 mt 11011  640 L
10978 2437 mt 
(0) s
11510 2292 mt 11510 2242 L
11510  591 mt 11510  640 L
11427 2437 mt 
(0.5) s
12010 2292 mt 12010 2242 L
12010  591 mt 12010  640 L
11977 2437 mt 
(1) s
12509 2292 mt 12509 2242 L
12509  591 mt 12509  640 L
12426 2437 mt 
(1.5) s
13009 2292 mt 13009 2242 L
13009  591 mt 13009  640 L
12976 2437 mt 
(2) s
13509 2292 mt 13509 2242 L
13509  591 mt 13509  640 L
13426 2437 mt 
(2.5) s
13192 2639 mt 
(x 10) s
%%IncludeResource: font Helvetica
/Helvetica /ISOLatin1Encoding 80 FMSR

13418 2565 mt 
(-5) s
8513 2079 mt 8562 2079 L
13509 2079 mt 13459 2079 L
%%IncludeResource: font Helvetica
/Helvetica /ISOLatin1Encoding 120 FMSR

8412 2123 mt 
(0) s
8513 1654 mt 8562 1654 L
13509 1654 mt 13459 1654 L
8412 1698 mt 
(2) s
8513 1228 mt 8562 1228 L
13509 1228 mt 13459 1228 L
8412 1272 mt 
(4) s
8513  803 mt 8562  803 L
13509  803 mt 13459  803 L
8412  847 mt 
(6) s
8513 2292 mt 13509 2292 L
8513  591 mt 13509  591 L
8513 2292 mt 8513  591 L
13509 2292 mt 13509  591 L
gs 8513 591 4997 1702 rc
c8
1 -13 2 0 2 0 2 8 2 9 2 -9 2 17 2 -34 
2 9 2 8 2 0 2 -8 2 0 2 8 2 -8 2 0 
2 0 2 0 2 8 2 0 2 -8 2 0 2 0 2 8 
2 0 2 -8 2 0 2 17 2 -17 2 8 2 -8 2 0 
2 8 2 0 2 -8 2 0 2 0 2 0 2 8 2 -8 
2 0 2 8 2 -8 2 8 2 -8 2 0 2 8 2 0 
2 -8 2 0 2 0 2 8 2 0 2 -8 2 0 2 17 
2 -17 2 0 2 0 2 0 2 8 2 0 2 -17 2 9 
2 0 2 0 2 0 2 0 2 8 2 0 2 -17 2 9 
2 0 2 0 2 8 2 0 2 -8 2 0 2 0 2 0 
2 8 2 -8 2 0 2 8 2 -17 2 9 2 0 2 0 
2 8 2 0 2 -8 2 0 2 0 2 0 2 8 2 0 
2 -8 2 8 2 -17 2 9 2 0 2 0 2 8 2 0 
2 -8 2 0 2 0 2 0 2 8 2 -8 2 8 2 0 
2 -8 2 8 2 -8 2 0 2 8 2 0 2 -8 2 0 
2 0 2 8 2 0 2 -8 2 0 2 8 2 -8 2 8 
2 -8 2 0 2 17 2 -9 2 -8 2 0 2 0 2 8 
2 0 2 -8 2 8 2 9 2 -17 2 8 2 -8 2 0 
2 8 2 0 2 -8 2 0 2 0 2 8 2 0 2 -8 
2 17 2 8 2 -17 2 0 2 0 2 -8 2 17 2 -17 
2 -9 2 0 2 9 2 0 2 17 2 -17 2 8 2 17 
2 -25 2 0 2 0 2 -9 2 0 2 -17 2 17 2 0 
2 9 2 0 2 8 2 -8 2 8 2 9 2 -17 2 0 
2 0 2 0 2 8 2 0 2 -17 2 0 2 0 2 9 
2 8 2 -8 2 0 2 17 2 -17 2 0 2 0 2 0 
2 8 2 -8 2 -9 2 0 2 9 2 0 2 8 2 0 
2 0 2 9 2 -9 2 -8 2 0 2 -9 2 17 2 -8 
2 -9 2 9 2 0 2 0 2 8 2 -8 2 8 2 9 
2 -17 2 0 2 0 2 0 2 8 2 0 2 -17 2 9 
2 0 2 0 2 0 2 0 2 0 2 8 2 -17 2 9 
2 0 2 0 2 8 2 -8 2 -9 2 0 2 17 2 -8 
2 0 2 25 2 -34 2 17 2 0 2 -8 2 0 2 0 
2 8 2 -8 2 8 2 17 2 -34 2 9 2 0 2 0 
2 17 2 -9 2 9 2 -26 2 9 2 0 2 0 2 0 
2 0 2 8 2 -8 2 0 2 0 2 0 2 8 2 0 
2 -8 2 0 2 0 2 8 2 0 2 -8 2 0 2 8 
2 -8 2 8 2 -8 2 0 2 8 2 -8 2 -9 2 9 
2 0 2 8 2 0 12913 1705 300 MP stroke
2 -8 2 0 2 8 2 -17 2 9 2 0 2 0 2 8 
2 -8 2 0 2 0 2 0 2 0 2 8 2 -8 2 0 
2 8 2 -8 2 0 2 -9 2 9 2 8 2 0 2 -17 
2 9 2 0 2 0 2 -9 2 17 2 0 2 0 2 -17 
2 9 2 0 2 0 2 8 2 -8 2 0 2 0 2 0 
2 0 2 8 2 -8 2 0 2 8 2 -17 2 9 2 0 
2 0 2 8 2 -8 2 0 2 0 2 0 2 0 2 8 
2 -8 2 8 2 0 2 -8 2 0 2 0 2 0 2 8 
2 -8 2 0 2 0 2 0 2 0 2 8 2 -8 2 8 
2 0 2 -8 2 0 2 0 2 0 2 8 2 0 2 -8 
2 0 2 0 2 8 2 -8 2 0 2 0 2 17 2 -17 
2 8 2 -8 2 0 2 8 2 0 2 -8 2 0 2 0 
2 8 2 0 2 -8 2 8 2 0 2 -8 2 8 2 -8 
2 0 2 8 2 0 2 -17 2 9 2 0 2 8 2 0 
2 -8 2 17 2 0 2 -17 2 8 2 0 2 -8 2 8 
2 -8 2 -9 2 9 2 0 2 0 2 8 2 -8 2 8 
2 17 2 -25 2 0 2 0 2 -9 2 0 2 -17 2 17 
2 0 2 9 2 0 2 8 2 -8 2 8 2 9 2 -17 
2 0 2 0 2 0 2 8 2 0 2 -17 2 0 2 0 
2 9 2 8 2 -8 2 8 2 9 2 -26 2 9 2 0 
2 0 2 8 2 -8 2 -9 2 0 2 0 2 9 2 8 
2 -8 2 8 2 17 2 -17 2 -8 2 0 2 -9 2 17 
2 -8 2 -9 2 0 2 9 2 0 2 8 2 -8 2 8 
2 9 2 -17 2 0 2 0 2 0 2 8 2 0 2 -17 
2 9 2 0 2 0 2 0 2 0 2 8 2 0 2 -17 
2 9 2 0 2 0 2 8 2 -8 2 -9 2 0 2 17 
2 0 2 -17 2 34 2 -34 2 26 2 -9 2 -8 2 0 
2 0 2 8 2 0 2 0 2 17 2 -25 2 0 2 0 
2 8 2 9 2 -9 2 9 2 -26 2 9 2 0 2 8 
2 -8 2 8 2 0 2 -8 2 8 2 -8 2 0 2 8 
2 0 2 -8 2 0 2 0 2 8 2 0 2 -8 2 0 
2 17 2 -17 2 8 2 -8 2 0 2 8 2 0 2 -8 
2 0 2 0 2 8 2 0 2 -8 2 0 2 17 2 -17 
2 0 2 0 2 0 2 8 2 0 2 -8 2 0 2 0 
2 8 2 0 2 -17 2 9 2 8 2 -8 2 0 2 0 
2 0 2 8 2 0 2 -17 2 0 2 9 2 0 2 0 
2 8 2 0 2 0 2 -17 2 9 2 0 2 0 2 8 
2 0 2 -8 2 0 12315 1713 300 MP stroke
2 -9 2 9 2 8 2 -8 2 0 2 8 2 -17 2 9 
2 0 2 0 2 8 2 0 2 -8 2 0 2 0 2 0 
2 8 2 -8 2 0 2 8 2 -17 2 9 2 0 2 0 
2 8 2 -8 2 0 1 0 2 0 2 0 2 8 2 -8 
2 8 2 0 2 -17 2 9 2 0 2 0 2 8 2 0 
2 -8 2 0 2 0 2 8 2 0 2 -8 2 0 2 17 
2 -17 2 0 2 0 2 0 2 17 2 -9 2 -8 2 0 
2 0 2 8 2 0 2 -8 2 8 2 0 2 -8 2 8 
2 -8 2 0 2 17 2 -17 2 0 2 0 2 0 2 8 
2 9 2 -17 2 17 2 8 2 -25 2 8 2 0 2 -8 
2 17 2 -9 2 -17 2 9 2 0 2 0 2 8 2 -8 
2 8 2 17 2 -25 2 0 2 0 2 -9 2 0 2 -17 
2 17 2 0 2 9 2 0 2 8 2 -8 2 8 2 17 
2 -25 2 0 2 0 2 0 2 17 2 -9 2 -17 2 9 
2 0 2 0 2 8 2 0 2 0 2 17 2 -25 2 0 
2 8 2 -8 2 8 2 0 2 -17 2 9 2 0 2 0 
2 8 2 0 2 0 2 17 2 -17 2 -8 2 0 2 0 
2 8 2 0 2 -17 2 0 2 9 2 0 2 8 2 -8 
2 8 2 17 2 -25 2 0 2 0 2 0 2 8 2 0 
2 -17 2 9 2 0 2 0 2 0 2 0 2 0 2 8 
2 -17 2 9 2 0 2 0 2 8 2 0 2 -17 2 0 
2 26 2 -17 2 0 2 25 2 -25 2 17 2 -9 2 -8 
2 0 2 0 2 17 2 -9 2 0 2 17 2 -25 2 0 
2 0 2 8 2 9 2 -9 2 9 2 -26 2 9 2 0 
2 0 2 8 2 0 2 0 2 -17 2 9 2 0 2 0 
2 8 2 -8 2 0 2 0 2 0 2 0 2 8 2 -8 
2 8 2 0 2 -8 2 0 2 0 2 0 2 8 2 0 
2 -8 2 8 2 -8 2 0 2 8 2 -8 2 0 2 8 
2 -8 2 0 2 0 2 0 2 8 2 -8 2 0 2 0 
2 0 2 8 2 -8 2 0 2 0 2 8 2 -8 2 0 
2 0 2 0 2 8 2 0 2 -8 2 0 2 0 2 0 
2 0 2 8 2 0 2 0 2 -17 2 9 2 0 2 0 
2 8 2 0 2 -8 2 0 2 0 2 0 2 8 2 -8 
2 0 2 8 2 -17 2 9 2 0 2 0 2 8 2 0 
2 -8 2 8 2 -8 2 8 2 0 2 0 2 0 2 9 
2 -17 2 8 2 0 2 0 2 9 2 -9 2 0 2 0 
2 -8 2 8 2 9 2 -9 2 0 2 9 2 -17 2 8 
2 0 2 0 2 9 11718 1696 300 MP stroke
2 0 2 -9 2 0 2 0 2 9 2 0 2 -9 2 9 
2 8 2 -17 2 9 2 -9 2 0 2 17 2 -8 2 -9 
2 9 2 -9 2 9 2 8 2 -8 2 8 2 0 2 -8 
2 0 2 0 2 0 2 8 2 0 2 -8 2 0 2 0 
2 0 2 0 2 0 2 8 2 0 2 -8 2 0 2 0 
2 0 2 8 2 -8 2 -17 2 8 2 0 2 9 2 8 
2 -17 2 9 2 8 2 -17 2 0 2 0 2 -8 2 -9 
2 -8 2 8 2 9 2 0 2 8 2 0 2 0 2 0 
2 9 2 -26 2 9 2 0 2 0 2 8 2 -8 2 -17 
2 8 2 0 2 0 2 0 2 0 2 9 2 8 2 -17 
2 0 2 0 2 0 2 0 2 0 2 -25 2 17 2 0 
2 0 2 8 2 -8 2 8 2 9 2 -9 2 -8 2 -9 
2 0 2 9 2 -9 2 -8 2 8 2 -8 2 0 2 8 
2 0 2 9 2 8 2 -25 2 0 2 0 2 0 2 8 
2 0 2 -8 2 0 2 0 2 8 2 -8 2 0 2 0 
2 8 2 -17 2 9 2 8 2 -8 2 8 2 0 2 -8 
2 0 2 17 2 -9 2 9 2 8 2 -17 2 17 2 0 
2 0 2 0 2 0 2 9 2 -9 2 17 2 17 2 -25 
2 8 2 0 2 9 2 8 2 0 2 9 2 -26 2 17 
2 9 2 8 2 -8 2 8 2 9 2 -9 2 9 2 0 
2 0 2 8 2 0 2 -8 2 8 2 9 2 0 2 0 
2 8 2 9 2 0 2 -9 2 9 2 0 2 0 2 17 
2 -9 2 0 2 9 2 -9 2 9 2 8 2 0 2 0 
2 9 2 -9 2 9 2 0 2 0 2 0 2 0 2 0 
2 0 2 0 2 8 2 0 2 0 2 0 2 9 2 -17 
2 17 2 -9 2 9 2 8 2 -8 2 0 2 8 2 -8 
2 8 2 0 2 -8 2 8 2 0 2 -8 2 8 2 0 
2 0 2 0 2 0 2 0 2 0 2 0 2 0 2 0 
2 0 2 0 2 0 2 -8 2 8 2 -8 2 0 2 8 
2 -8 2 -9 2 0 2 0 2 0 2 -8 2 8 2 0 
2 0 2 -8 2 0 2 0 2 -9 2 9 2 -9 2 -8 
2 0 2 -9 2 0 2 9 2 -17 2 0 2 8 2 -8 
2 0 2 -9 2 0 2 0 2 0 2 -8 2 0 2 -17 
2 8 2 0 2 -8 2 0 2 0 2 -9 2 9 2 -17 
2 0 2 8 2 -8 2 -9 2 0 2 0 2 0 2 0 
2 -17 2 9 2 0 2 -17 2 0 2 0 2 0 2 -9 
2 0 2 -8 2 8 2 -8 2 0 2 0 2 -9 2 9 
2 0 2 -17 2 0 11120 1747 300 MP stroke
2 0 2 -9 2 9 2 -9 2 -25 2 8 2 0 2 0 
2 0 2 -8 2 0 2 17 2 -26 2 0 2 0 2 -17 
2 0 2 -17 2 9 2 8 2 0 2 0 2 0 2 -8 
2 0 2 8 2 -25 2 0 2 -9 2 0 2 0 2 0 
2 -17 2 9 2 0 2 0 2 0 2 -9 2 0 2 9 
2 -26 2 0 2 0 2 0 2 0 2 0 2 -25 2 8 
2 0 2 0 2 0 2 -8 2 8 2 9 1 -17 2 -9 
2 -8 2 -9 2 17 2 -8 2 -9 2 -8 2 0 2 0 
2 0 2 0 2 0 2 0 2 -17 2 0 2 0 2 -9 
2 9 2 -9 2 0 2 0 2 -8 2 0 2 0 2 -9 
2 -8 2 8 2 -17 2 0 2 0 2 0 2 0 2 0 
2 -17 2 9 2 0 2 -9 2 0 2 0 2 -8 2 8 
2 -8 2 0 2 -9 2 0 2 9 2 -17 2 8 2 9 
2 -17 2 8 2 0 2 -8 2 17 2 -17 2 0 2 -9 
2 17 2 0 2 0 2 -8 2 0 2 17 2 -17 2 17 
2 -9 2 0 2 9 2 -9 2 0 2 9 2 0 2 0 
2 8 2 -8 2 0 2 17 2 -34 2 8 2 0 2 -25 
2 34 2 8 2 -34 2 17 2 -8 2 8 2 0 2 -17 
2 9 2 8 2 -8 2 8 2 -8 2 0 2 8 2 -8 
2 -9 2 17 2 -8 2 0 2 8 2 -17 2 9 2 17 
2 -26 2 17 2 -8 2 0 2 8 2 -8 2 -9 2 17 
2 -8 2 8 2 0 2 -17 2 9 2 8 2 -8 2 8 
2 -8 2 0 2 8 2 -8 2 -9 2 17 2 -8 2 8 
2 0 2 -8 2 0 2 8 2 -8 2 8 2 -8 2 0 
2 8 2 -8 2 -9 2 17 2 -8 2 8 2 0 2 -17 
2 9 2 8 2 -8 2 8 2 -8 2 0 2 17 2 -17 
2 0 2 8 2 -8 2 8 2 0 2 -17 2 9 2 8 
2 -17 2 17 2 -8 2 0 2 8 2 -8 2 -9 2 17 
2 -8 2 0 2 8 2 -17 2 9 2 17 2 -26 2 17 
2 -8 2 0 2 8 2 -8 2 0 2 8 2 -8 2 8 
2 0 2 -17 2 9 2 8 2 -8 2 8 2 -8 2 0 
2 8 2 -8 2 -9 2 9 2 0 2 0 2 0 2 -9 
2 17 2 9 2 -17 2 8 2 -8 2 0 2 8 2 -8 
2 -17 2 17 2 0 2 0 2 8 2 -17 2 9 2 17 
2 -17 2 8 2 -8 2 0 2 8 2 -8 2 -17 2 17 
2 0 2 8 2 0 2 -17 2 9 2 17 2 -26 2 17 
2 -8 2 -9 2 17 2 -8 2 -17 2 17 2 0 2 0 
2 8 2 -17 2 9 10523 2036 300 MP stroke
2 17 2 -17 2 8 2 -8 2 -9 2 17 2 -17 2 -8 
2 17 2 0 2 0 2 8 2 -17 2 0 2 26 2 -9 
2 0 2 -8 2 0 2 8 2 -8 2 -9 2 17 2 -8 
2 0 2 8 2 -17 2 9 2 17 2 -17 2 8 2 -8 
2 0 2 8 2 -8 2 -9 2 17 2 0 2 -8 2 0 
2 0 2 0 2 8 2 -25 2 25 2 -8 2 0 2 8 
2 -8 2 -17 2 17 2 8 2 -8 2 0 2 8 2 -17 
2 17 2 0 2 0 2 -8 2 0 2 8 2 -17 2 9 
2 17 2 -17 2 8 2 -8 2 0 2 17 2 -26 2 9 
2 -9 2 9 2 8 2 0 2 -8 2 0 2 17 2 -17 
2 8 2 -8 2 0 2 8 2 -8 2 -9 2 17 2 -8 
2 8 2 0 2 -8 2 0 2 8 2 -8 2 8 2 -8 
2 0 2 8 2 -8 2 0 2 8 2 -8 2 8 2 0 
2 -8 2 0 2 8 2 -17 2 17 2 -8 2 0 2 8 
2 0 2 -17 2 17 2 -8 2 8 2 0 2 -8 2 0 
2 17 2 -17 2 8 2 -8 2 0 2 8 2 -8 2 0 
2 8 2 -8 2 0 2 8 2 -17 2 9 2 8 2 -8 
2 8 2 -8 2 0 2 8 2 -8 2 -9 2 17 2 -8 
2 0 2 8 2 -17 2 9 2 8 2 -17 2 17 2 -8 
2 0 2 8 2 -8 2 -9 2 17 2 -8 2 8 2 0 
2 -17 2 9 2 17 2 -17 2 8 2 -8 2 0 2 8 
2 -8 2 -9 2 17 2 -8 2 0 2 8 2 -17 2 9 
2 8 2 -17 2 17 2 -8 2 0 2 17 2 -17 2 0 
2 8 2 -8 2 8 2 0 2 -17 2 9 2 8 2 -17 
2 17 2 -8 2 0 2 17 2 -17 2 -9 2 17 2 -8 
2 8 2 0 2 -17 2 9 2 17 2 -17 2 8 2 -8 
2 0 2 8 2 -8 2 -9 2 9 2 0 2 0 2 0 
2 -9 2 17 2 9 2 -17 2 8 2 -8 2 0 2 8 
2 -8 2 -17 2 17 2 0 2 0 2 8 2 -8 2 0 
2 17 2 -17 2 8 2 -8 2 0 2 8 2 -8 2 -17 
2 17 2 8 2 -8 2 8 2 -17 2 9 2 17 2 -26 
2 17 2 -8 2 0 2 8 2 -8 2 -17 2 17 2 0 
2 0 2 8 2 -17 2 9 2 17 2 -17 2 8 2 -8 
2 0 2 8 2 -17 2 -8 2 17 2 0 2 0 2 8 
2 -17 2 0 2 26 2 -9 2 0 2 -8 2 0 2 8 
2 -8 2 -9 2 17 2 -8 2 0 2 8 2 -17 2 9 
2 17 2 -17 2 8 2 0 2 -8 2 8 2 -8 2 -9 
2 17 2 -8 2 8 9925 2028 300 MP stroke
2 0 2 -8 2 0 2 0 2 -17 2 25 2 -8 2 0 
2 8 2 -8 2 -17 2 17 2 8 2 0 2 -8 2 8 
2 -17 2 26 2 0 2 -9 2 -8 2 0 2 8 2 -17 
2 9 2 17 2 -17 2 8 2 -8 2 0 2 17 2 -26 
2 17 2 -17 2 9 2 8 2 0 2 -8 2 0 2 8 
2 -8 2 8 2 -8 2 0 2 17 2 -17 2 -9 2 17 
2 -8 2 8 2 0 2 -17 2 9 2 17 2 -26 2 17 
2 -8 2 0 2 8 2 -8 2 -9 2 17 2 -8 2 8 
2 0 2 -17 2 9 2 17 2 -26 2 17 2 -8 2 0 
2 8 2 -8 2 0 2 8 2 -8 2 8 2 0 2 -17 
2 9 1 17 2 -17 2 8 2 0 2 -8 2 8 2 -8 
2 -9 2 17 2 -8 2 8 2 0 2 -8 2 0 2 8 
2 -17 2 17 2 -8 2 8 2 0 2 -8 2 0 2 8 
2 -8 2 8 2 0 2 -17 2 9 2 8 2 -8 2 8 
2 0 2 -8 2 17 2 -17 2 -9 2 17 2 -8 2 8 
2 0 2 -17 2 9 2 8 2 -17 2 17 2 -8 2 0 
2 8 2 -8 2 -9 2 17 2 -8 2 8 2 0 2 -17 
2 9 2 17 2 -26 2 17 2 -8 2 0 2 8 2 -8 
2 -9 2 17 2 -8 2 8 2 0 2 -17 2 9 2 17 
2 -26 2 17 2 -8 2 0 2 17 2 -17 2 0 2 8 
2 -8 2 8 2 0 2 -17 2 9 2 8 2 -17 2 17 
2 -8 2 0 2 8 2 -8 2 -9 2 17 2 -8 2 0 
2 0 2 -9 2 17 2 9 2 -26 2 17 2 -8 2 0 
2 8 2 -8 2 -17 2 25 2 -8 2 0 2 8 2 -17 
2 9 2 17 2 -17 2 8 2 0 2 -8 2 8 2 -8 
2 -17 2 25 2 -8 2 0 2 8 2 -17 2 9 2 17 
2 -17 2 8 2 -8 2 0 2 8 2 -8 2 -17 2 17 
2 8 2 -8 2 8 2 -8 2 0 2 17 2 -26 2 17 
2 0 2 -8 2 8 2 -8 2 -17 2 17 2 0 2 0 
2 8 2 -17 2 9 2 17 2 -9 2 0 2 0 2 -8 
2 8 2 -8 2 -9 2 17 2 -8 2 0 2 8 2 -17 
2 9 2 17 2 -17 2 8 2 0 2 -8 2 8 2 -8 
2 -9 2 17 2 -8 2 8 2 0 2 -8 2 0 2 8 
2 -25 2 25 2 -8 2 0 2 8 2 -8 2 -17 2 17 
2 0 2 8 2 -8 2 8 2 -17 2 26 2 -9 2 0 
2 -8 2 0 2 8 2 -17 2 9 2 17 2 -17 2 8 
2 -8 2 0 2 8 2 -8 2 0 2 -9 2 9 2 8 
2 0 2 -17 2 9 9328 2036 300 MP stroke
2 8 2 -17 2 17 2 0 2 -8 2 17 2 -17 2 -9 
2 17 2 -8 2 8 2 0 2 -17 2 9 2 8 2 -8 
2 8 2 -8 2 0 2 8 2 -8 2 -9 2 17 2 -8 
2 8 2 0 2 -17 2 9 2 8 2 -17 2 17 2 -8 
2 0 2 17 2 -17 2 -9 2 17 2 -8 2 8 2 0 
2 -17 2 9 2 8 2 -8 2 8 2 -8 2 0 2 17 
2 -17 2 0 2 17 2 -17 2 8 2 0 2 -8 2 0 
2 17 2 -26 2 17 2 -8 2 0 2 8 2 -8 2 -9 
2 17 2 -8 2 8 2 0 2 -17 2 9 2 8 2 -17 
2 17 2 -8 2 0 2 8 2 -8 2 -9 2 17 2 -8 
2 8 2 0 2 -17 2 9 2 8 2 -17 2 17 2 -8 
2 0 2 8 2 -8 2 -9 2 17 2 -8 2 8 2 0 
2 -8 2 0 2 8 2 -17 2 17 2 -8 2 0 2 8 
2 -8 2 -9 2 17 2 -8 2 8 2 0 2 -17 2 9 
2 8 2 -17 2 17 2 -8 2 0 2 8 2 -8 2 -9 
2 17 2 -8 2 8 2 0 2 -17 2 9 2 8 2 -17 
2 17 2 -8 2 0 2 8 2 -8 2 -9 2 17 2 -8 
2 0 2 0 2 -9 2 9 2 17 2 -17 2 8 2 0 
2 -17 2 17 2 -8 2 -17 2 25 2 -8 2 0 2 8 
2 -8 2 0 2 17 2 -17 2 8 2 -8 2 0 2 8 
2 -8 2 -17 2 25 2 -8 2 8 2 0 2 -8 2 0 
2 17 2 -17 2 8 2 0 2 -8 2 8 2 -8 2 -17 
2 17 2 0 2 0 2 8 2 -17 2 9 2 17 2 -17 
2 8 2 -8 2 0 2 8 2 -17 2 -8 2 17 2 0 
2 0 2 8 2 -17 2 9 2 17 2 -9 2 0 2 -8 
2 0 2 8 2 -8 2 -9 2 17 2 -8 2 0 2 8 
2 -8 2 0 2 17 2 -17 2 8 2 -8 2 0 2 8 
2 -8 2 -9 2 17 2 0 2 -8 2 8 2 -8 2 0 
2 8 2 -25 2 25 2 -8 2 -9 2 17 2 -8 2 -17 
2 17 2 8 2 -8 2 0 2 8 2 -8 2 17 2 0 
2 -9 2 -8 2 0 2 8 2 -8 2 0 2 17 2 -26 
2 17 2 -8 2 0 2 8 2 -17 2 9 2 -9 2 9 
2 8 2 -8 2 -9 2 0 2 17 2 -8 2 8 2 -8 
2 0 2 8 2 -8 2 -9 2 17 2 -8 2 8 2 0 
2 -17 2 9 2 8 2 -17 2 17 2 -8 2 0 2 8 
2 -8 2 0 2 8 2 -8 2 8 2 0 2 -17 2 9 
2 17 2 -26 2 17 2 -8 2 0 2 8 2 -8 2 -9 
2 17 2 -8 2 8 8730 2028 300 MP stroke
2 0 2 -17 2 9 2 17 2 -26 2 17 2 0 2 -8 
2 8 2 -8 2 -9 2 17 2 -8 2 8 2 0 2 -17 
2 9 2 8 2 -17 2 17 2 -8 2 0 2 8 2 -8 
2 0 2 8 2 -8 2 8 2 0 2 -17 2 9 2 8 
2 -8 2 8 2 -8 2 0 2 17 2 -17 2 -9 2 17 
2 -8 2 8 2 0 2 -8 2 0 2 8 2 -17 2 17 
2 -8 2 0 2 8 2 -8 2 -9 2 17 2 -8 2 8 
2 0 2 -17 2 9 2 8 2 -17 2 17 2 -8 2 0 
2 17 2 -17 2 -9 2 26 2 -17 2 8 2 0 2 -17 
2 9 2 8 2 -17 2 17 2 -8 2 0 2 8 2 -8 
2 0 2 8 2 -8 2 8 2 0 2 -17 2 17 2 0 
2 -17 2 17 2 -8 2 0 2 8 2 -8 2 0 2 8 
2 -8 2 0 2 0 2 -9 2 17 2 9 2 -26 2 17 
2 -8 2 0 2 8 2 -8 1 -17 8513 2053 110 MP stroke
gr

c8
1 sg
0 1700 4995 0 0 -1700 1941 4653 4 MP
PP
-4995 0 0 1700 4995 0 0 -1700 1941 4653 5 MP stroke
4 w
DO
SO
6 w
0 sg
1941 4653 mt 6936 4653 L
1941 2953 mt 6936 2953 L
1941 4653 mt 1941 2953 L
6936 4653 mt 6936 2953 L
1941 4653 mt 6936 4653 L
1941 4653 mt 1941 2953 L
1941 4653 mt 1941 4603 L
1941 2953 mt 1941 3002 L
1788 4798 mt 
(-2.5) s
2440 4653 mt 2440 4603 L
2440 2953 mt 2440 3002 L
2337 4798 mt 
(-2) s
2940 4653 mt 2940 4603 L
2940 2953 mt 2940 3002 L
2787 4798 mt 
(-1.5) s
3439 4653 mt 3439 4603 L
3439 2953 mt 3439 3002 L
3336 4798 mt 
(-1) s
3939 4653 mt 3939 4603 L
3939 2953 mt 3939 3002 L
3786 4798 mt 
(-0.5) s
4438 4653 mt 4438 4603 L
4438 2953 mt 4438 3002 L
4405 4798 mt 
(0) s
4938 4653 mt 4938 4603 L
4938 2953 mt 4938 3002 L
4855 4798 mt 
(0.5) s
5437 4653 mt 5437 4603 L
5437 2953 mt 5437 3002 L
5404 4798 mt 
(1) s
5937 4653 mt 5937 4603 L
5937 2953 mt 5937 3002 L
5854 4798 mt 
(1.5) s
6436 4653 mt 6436 4603 L
6436 2953 mt 6436 3002 L
6403 4798 mt 
(2) s
6935 4653 mt 6935 4603 L
6935 2953 mt 6935 3002 L
6852 4798 mt 
(2.5) s
6619 5000 mt 
(x 10) s
%%IncludeResource: font Helvetica
/Helvetica /ISOLatin1Encoding 80 FMSR

6845 4926 mt 
(-5) s
1941 4440 mt 1990 4440 L
6936 4440 mt 6886 4440 L
%%IncludeResource: font Helvetica
/Helvetica /ISOLatin1Encoding 120 FMSR

1840 4484 mt 
(0) s
1941 4015 mt 1990 4015 L
6936 4015 mt 6886 4015 L
1840 4059 mt 
(2) s
1941 3590 mt 1990 3590 L
6936 3590 mt 6886 3590 L
1840 3634 mt 
(4) s
1941 3165 mt 1990 3165 L
6936 3165 mt 6886 3165 L
1840 3209 mt 
(6) s
1941 4653 mt 6936 4653 L
1941 2953 mt 6936 2953 L
1941 4653 mt 1941 2953 L
6936 4653 mt 6936 2953 L
gs 1941 2953 4996 1701 rc
/c9 { 0.000000 1.000000 0.000000 sr} bdef
c9
1 4 2 -8 2 0 2 8 2 0 2 -8 2 8 2 -8 
2 8 2 0 2 -8 2 8 2 0 2 -17 2 17 2 0 
2 -8 2 8 2 0 2 0 2 0 2 -8 2 8 2 0 
2 0 2 0 2 0 2 -25 2 17 2 8 2 -8 2 8 
2 0 2 -17 2 9 2 25 2 -17 2 0 2 26 2 -26 
2 9 2 -9 2 0 2 0 2 0 2 0 2 0 2 0 
2 9 2 -26 2 9 2 8 2 0 2 9 2 -9 2 17 
2 -17 2 0 2 0 2 0 2 0 2 0 2 0 2 -17 
2 17 2 -8 2 8 2 0 2 0 2 0 2 0 2 -8 
2 8 2 0 2 -8 2 0 2 8 2 -17 2 17 2 -8 
2 8 2 0 2 0 2 -8 2 8 2 0 2 -8 2 8 
2 -8 2 8 2 0 2 -17 2 17 2 -8 2 8 2 0 
2 0 2 -8 2 8 2 -8 2 8 2 0 2 -8 2 8 
2 0 2 -25 2 25 2 0 2 -8 2 8 2 0 2 -8 
2 8 2 -8 2 8 2 0 2 -8 2 8 2 0 2 -17 
2 17 2 -8 2 0 2 8 2 0 2 0 2 0 2 -8 
2 8 2 0 2 0 2 0 2 0 2 -17 2 17 2 -8 
2 0 2 8 2 0 2 0 2 0 2 -8 2 8 2 0 
2 -8 2 8 2 0 2 -17 2 17 2 -8 2 0 2 8 
2 0 2 0 2 0 2 -8 2 8 2 0 2 0 2 0 
2 0 2 -17 2 17 2 -8 2 0 2 8 2 0 2 0 
2 0 2 -8 2 8 2 0 2 -8 2 8 2 0 2 -17 
2 17 2 0 2 0 2 0 2 0 2 0 2 9 2 -17 
2 8 2 0 2 -8 2 8 2 0 2 -17 2 17 2 0 
2 0 2 0 2 0 2 0 2 0 2 0 2 0 2 0 
2 -8 2 8 2 9 2 -26 2 17 2 0 2 0 2 0 
2 0 2 -8 2 8 2 -8 2 8 2 0 2 -8 2 8 
2 9 2 -26 2 17 2 0 2 -8 2 -9 2 -17 2 26 
2 8 2 -8 2 8 2 0 2 -8 2 8 2 9 2 -26 
2 17 2 0 2 -8 2 17 2 -9 2 -17 2 17 2 -8 
2 0 2 8 2 -8 2 8 2 0 2 -17 2 17 2 -8 
2 0 2 8 2 0 2 -17 2 17 2 -8 2 0 2 8 
2 -8 2 8 2 9 2 -26 2 17 2 -8 2 0 2 8 
2 0 2 -8 2 8 2 -8 2 0 2 8 2 -8 2 8 
2 9 2 -26 2 9 2 0 2 0 2 8 2 0 2 -8 
2 8 2 -8 2 8 2 0 2 0 2 0 2 0 2 -25 
2 17 2 0 2 0 2 8 2 -8 2 -9 2 17 2 9 
2 -9 2 0 2 26 6340 4066 300 MP stroke
2 -26 2 9 2 -9 2 0 2 -8 2 8 2 0 2 -8 
2 8 2 0 2 -17 2 17 2 0 2 0 2 9 2 -9 
2 17 2 -17 2 -8 2 8 2 0 2 -8 2 8 2 0 
2 -17 2 17 2 -8 2 8 2 0 2 0 2 0 2 0 
2 -8 2 8 2 0 2 -8 2 8 2 0 2 -17 2 17 
2 -8 2 8 2 0 2 0 2 -8 2 8 2 0 2 -8 
2 8 2 0 2 0 2 0 2 -17 2 17 2 0 2 0 
2 0 2 0 2 0 2 0 2 -8 2 8 2 0 2 -8 
2 8 2 0 2 -17 2 17 2 -8 2 0 2 8 2 0 
2 -8 2 8 2 -8 2 8 2 0 2 -8 2 8 2 0 
2 -25 2 25 2 -8 2 0 2 8 2 0 2 0 2 0 
2 -8 2 8 2 0 2 0 2 0 2 0 2 -17 2 17 
2 -8 2 8 2 0 2 0 2 0 2 0 2 -8 2 8 
2 0 2 -8 2 8 2 0 2 -17 2 17 2 -8 2 8 
2 0 2 0 2 0 2 0 2 -8 2 8 2 0 2 -8 
2 8 2 0 2 -17 2 17 2 -8 2 8 2 0 2 0 
2 0 2 0 2 -8 2 8 2 0 2 -8 2 8 2 0 
2 -17 2 17 2 -8 2 0 2 17 2 -9 2 0 2 9 
2 -17 2 8 2 0 2 -8 2 8 2 0 2 -17 2 17 
2 0 2 0 2 0 2 0 2 0 2 9 2 -9 2 0 
2 0 2 -8 2 8 2 9 2 -26 2 17 2 0 2 0 
2 9 2 -9 2 -8 2 8 2 0 2 -8 2 8 2 -8 
2 8 2 9 2 -34 2 25 2 0 2 -17 2 0 2 -17 
2 26 2 8 2 -8 2 8 2 0 2 0 2 0 2 0 
2 -17 2 17 2 0 2 0 2 0 2 0 2 -17 2 17 
2 -8 1 8 2 0 2 -8 2 8 2 0 2 -25 2 25 
2 0 2 -8 2 8 2 0 2 -17 2 17 2 -8 2 0 
2 8 2 -8 2 8 2 0 2 -8 2 8 2 0 2 -8 
2 8 2 0 2 -8 2 8 2 -8 2 0 2 8 2 -8 
2 8 2 0 2 -17 2 17 2 0 2 -8 2 8 2 0 
2 -8 2 8 2 -8 2 0 2 8 2 0 2 0 2 0 
2 -25 2 17 2 8 2 -8 2 8 2 -8 2 -9 2 17 
2 9 2 -9 2 0 2 26 2 -34 2 17 2 -9 2 -8 
2 0 2 8 2 0 2 0 2 0 2 0 2 -17 2 17 
2 0 2 0 2 9 2 -9 2 17 2 -17 2 -8 2 8 
2 0 2 -8 2 8 2 0 2 -17 2 17 2 -8 2 8 
2 0 2 0 2 0 2 0 2 -8 2 8 2 0 2 -8 
2 0 2 8 2 -17 5743 4109 300 MP stroke
2 17 2 0 2 0 2 0 2 0 2 -8 2 8 2 0 
2 -8 2 8 2 0 2 0 2 0 2 -17 2 17 2 -8 
2 8 2 0 2 0 2 -8 2 8 2 -8 2 8 2 0 
2 -8 2 8 2 0 2 -25 2 25 2 -8 2 0 2 8 
2 -8 2 8 2 0 2 0 2 0 2 0 2 -8 2 8 
2 0 2 -17 2 9 2 0 2 8 2 0 2 0 2 -8 
2 8 2 0 2 0 2 0 2 -8 2 8 2 0 2 -17 
2 17 2 -8 2 0 2 8 2 0 2 0 2 0 2 -8 
2 8 2 0 2 -8 2 8 2 0 2 -17 2 17 2 -8 
2 8 2 0 2 -8 2 8 2 0 2 -8 2 8 2 0 
2 -8 2 8 2 0 2 -17 2 17 2 0 2 -8 2 8 
2 0 2 0 2 0 2 -8 2 8 2 0 2 0 2 0 
2 0 2 -17 2 17 2 0 2 0 2 0 2 0 2 0 
2 0 2 -8 2 8 2 0 2 -8 2 8 2 0 2 -17 
2 17 2 0 2 0 2 0 2 0 2 0 2 9 2 -17 
2 8 2 0 2 -8 2 8 2 0 2 -17 2 17 2 0 
2 0 2 9 2 -9 2 -8 2 17 2 -17 2 8 2 0 
2 -8 2 8 2 9 2 -34 2 25 2 0 2 -8 2 -9 
2 -17 2 26 2 8 2 -8 2 8 2 0 2 -8 2 8 
2 0 2 -17 2 17 2 0 2 -8 2 8 2 0 2 -8 
2 8 2 -8 2 8 2 0 2 -8 2 8 2 9 2 -26 
2 17 2 0 2 0 2 0 2 0 2 -17 2 17 2 -8 
2 8 2 0 2 -8 2 8 2 9 2 -17 2 8 2 0 
2 0 2 0 2 0 2 -8 2 8 2 -8 2 8 2 0 
2 0 2 0 2 9 2 -26 2 17 2 0 2 0 2 0 
2 0 2 -8 2 8 2 -8 2 8 2 0 2 -8 2 8 
2 0 2 -25 2 25 2 0 2 0 2 0 2 0 2 -17 
2 17 2 0 2 -8 2 8 2 17 2 -34 2 17 2 0 
2 0 2 -8 2 0 2 8 2 0 2 0 2 0 2 -17 
2 9 2 0 2 8 2 9 2 -9 2 9 2 -9 2 -8 
2 8 2 0 2 0 2 0 2 0 2 -17 2 17 2 0 
2 0 2 0 2 0 2 0 2 0 2 -8 2 8 2 0 
2 -8 2 8 2 0 2 -17 2 17 2 -8 2 8 2 0 
2 0 2 0 2 9 2 -9 2 0 2 0 2 0 2 0 
2 0 2 -17 2 17 2 0 2 0 2 0 2 0 2 0 
2 9 2 -9 2 0 2 0 2 0 2 0 2 0 2 -17 
2 17 2 0 2 0 2 9 2 -9 2 0 2 17 2 -17 
2 0 2 9 2 -9 5145 4092 300 MP stroke
2 0 2 9 2 -17 2 8 2 0 2 0 2 9 2 -9 
2 0 2 9 2 -9 2 0 2 0 2 0 2 9 2 0 
2 -17 2 8 2 0 2 0 2 17 2 -17 2 0 2 17 
2 -17 2 9 2 0 2 -9 2 9 2 -9 2 -8 2 8 
2 0 2 0 2 9 2 -9 2 0 2 9 2 -9 2 0 
2 9 2 -9 2 0 2 0 2 -17 2 17 2 0 2 0 
2 0 2 0 2 0 2 0 2 0 2 0 2 0 2 -8 
2 8 2 0 2 -25 2 25 2 -8 2 0 2 8 2 -8 
2 0 2 8 2 -17 2 9 2 0 2 -17 2 17 2 -9 
2 -17 2 17 2 -8 2 0 2 8 2 -8 2 0 2 17 
2 -26 2 9 2 0 2 -9 2 9 2 8 2 -25 2 8 
2 0 2 0 2 9 2 -9 2 -8 2 8 2 -8 2 0 
2 8 2 -8 2 8 2 0 2 -25 2 25 2 -8 1 -9 
2 0 2 -17 2 17 2 17 2 -8 2 0 2 8 2 -8 
2 8 2 0 2 -25 2 25 2 0 2 0 2 9 2 -9 
2 0 2 9 2 -9 2 0 2 17 2 -17 2 17 2 17 
2 -34 2 26 2 0 2 0 2 8 2 0 2 -8 2 17 
2 -9 2 9 2 17 2 -17 2 17 2 0 2 -17 2 17 
2 0 2 0 2 17 2 -9 2 0 2 17 2 -8 2 0 
2 17 2 -9 2 9 2 8 2 -17 2 9 2 8 2 0 
2 17 2 -8 2 0 2 17 2 -9 2 0 2 9 2 0 
2 0 2 8 2 -17 2 9 2 8 2 0 2 9 2 0 
2 -9 2 9 2 8 2 -8 2 8 2 17 2 -34 2 26 
2 -9 2 0 2 0 2 0 2 9 2 -9 2 17 2 0 
2 -17 2 9 2 0 2 0 2 25 2 -25 2 25 2 -8 
2 -17 2 8 2 9 2 -17 2 17 2 0 2 -17 2 17 
2 -9 2 0 2 9 2 -9 2 0 2 9 2 -9 2 0 
2 0 2 0 2 9 2 -9 2 -17 2 17 2 -8 2 0 
2 8 2 -8 2 0 2 8 2 -17 2 0 2 0 2 0 
2 0 2 0 2 -25 2 17 2 -9 2 0 2 0 2 0 
2 -8 2 17 2 -17 2 0 2 0 2 -9 2 0 2 0 
2 -25 2 8 2 -8 2 0 2 8 2 -8 2 0 2 8 
2 -17 2 0 2 0 2 -8 2 8 2 -8 2 -17 2 8 
2 -8 2 0 2 0 2 0 2 0 2 0 2 -17 2 8 
2 -8 2 -9 2 0 2 0 2 -17 2 17 2 -8 2 -9 
2 9 2 -9 2 -8 2 8 2 -17 2 0 2 0 2 0 
2 0 2 0 2 -25 2 8 2 -8 2 0 2 8 2 -8 
2 0 2 0 2 -9 4548 4160 300 MP stroke
2 0 2 0 2 -17 2 0 2 9 2 -17 2 8 2 -8 
2 0 2 8 2 -8 2 0 2 0 2 -17 2 0 2 0 
2 -9 2 9 2 -9 2 -25 2 17 2 -9 2 0 2 9 
2 -17 2 0 2 8 2 -17 2 0 2 0 2 -8 2 8 
2 -8 2 -26 2 17 2 -8 2 0 2 8 2 -8 2 -9 
2 9 2 -9 2 0 2 0 2 -17 2 17 2 -8 2 -26 
2 9 2 0 2 0 2 8 2 -8 2 -17 2 17 2 -17 
2 0 2 8 2 -17 2 9 2 0 2 -26 2 9 2 -9 
2 -8 2 8 2 -8 2 0 2 8 2 -17 2 0 2 9 
2 -9 2 0 2 0 2 -34 2 26 2 -9 2 -8 2 17 
2 -9 2 -17 2 17 2 -17 2 0 2 0 2 -8 2 8 
2 0 2 -25 2 8 2 -8 2 -9 2 17 2 -8 2 -17 
2 25 2 -17 2 0 2 9 2 -17 2 0 2 17 2 -26 
2 17 2 0 2 0 2 9 2 -9 2 0 2 17 2 -17 
2 0 2 9 2 -17 2 17 2 0 2 -17 2 17 2 0 
2 0 2 25 2 -17 2 -8 2 17 2 -26 2 -8 2 8 
2 -25 2 34 2 25 2 -59 2 25 2 0 2 -8 2 8 
2 -8 2 -9 2 17 2 0 2 -8 2 0 2 8 2 -17 
2 26 2 -17 2 8 2 -8 2 0 2 8 2 -17 2 9 
2 17 2 -34 2 25 2 -8 2 0 2 17 2 -26 2 17 
2 0 2 -8 2 8 2 0 2 -17 2 9 2 8 2 -25 
2 25 2 0 2 -8 2 8 2 -8 2 0 2 17 2 -17 
2 8 2 0 2 -17 2 9 2 8 2 -17 2 17 2 -8 
2 0 2 17 2 -17 2 0 2 17 2 -17 2 8 2 0 
2 -17 2 9 2 8 2 -25 2 25 2 -8 2 0 2 17 
2 -17 2 0 2 17 2 -17 2 8 2 0 2 -17 2 9 
2 8 2 -25 2 25 2 -8 2 0 2 17 2 -17 2 0 
2 17 2 -17 2 0 2 8 2 -17 2 17 2 0 2 -25 
2 25 2 -8 2 0 2 17 2 -17 2 0 2 17 2 -17 
2 0 2 8 2 -17 2 17 2 0 2 -25 2 25 2 -8 
2 0 2 17 2 -17 2 0 2 17 2 -17 2 8 2 9 
2 -26 2 17 2 0 2 -25 2 25 2 -8 2 0 2 8 
2 -17 2 9 2 17 2 -17 2 8 2 0 2 -17 2 17 
2 0 2 -25 2 25 2 -8 2 0 2 17 2 -26 2 9 
2 17 2 -17 2 8 2 0 2 -17 2 17 2 0 2 -17 
2 17 2 -8 2 0 2 17 2 -17 2 0 2 17 2 -17 
2 8 2 0 2 -17 2 17 2 0 2 -25 2 25 2 -8 
2 0 2 17 2 -26 3950 4449 300 MP stroke
2 9 2 17 2 -26 2 17 2 0 1 -25 2 17 2 17 
2 -34 2 25 2 0 2 -17 2 26 2 -17 2 -9 2 26 
2 -17 2 8 2 0 2 -17 2 9 2 17 2 -34 2 25 
2 0 2 -8 2 17 2 -17 2 -9 2 26 2 -17 2 8 
2 0 2 -17 2 9 2 17 2 -34 2 25 2 -8 2 -9 
2 26 2 -17 2 -9 2 26 2 -17 2 8 2 0 2 -17 
2 9 2 17 2 -34 2 25 2 0 2 -17 2 26 2 -17 
2 -9 2 26 2 -17 2 0 2 8 2 -25 2 17 2 17 
2 -26 2 17 2 0 2 -8 2 17 2 -17 2 0 2 17 
2 -17 2 8 2 0 2 -17 2 17 2 9 2 -34 2 25 
2 -8 2 0 2 17 2 -17 2 -9 2 26 2 -17 2 8 
2 0 2 -8 2 0 2 8 2 -25 2 25 2 0 2 -8 
2 17 2 -17 2 -9 2 26 2 -17 2 0 2 8 2 -8 
2 -9 2 26 2 -17 2 8 2 -8 2 8 2 0 2 -25 
2 17 2 17 2 -26 2 17 2 -8 2 0 2 17 2 -26 
2 17 2 0 2 0 2 -8 2 0 2 0 2 8 2 0 
2 -25 2 25 2 -8 2 0 2 8 2 -8 2 8 2 9 
2 -17 2 8 2 -8 2 -9 2 9 2 8 2 -25 2 25 
2 -8 2 0 2 17 2 -17 2 0 2 17 2 -17 2 8 
2 0 2 -17 2 17 2 0 2 -17 2 17 2 0 2 -8 
2 17 2 -17 2 0 2 17 2 -17 2 8 2 0 2 -17 
2 17 2 0 2 -25 2 25 2 -8 2 0 2 17 2 -26 
2 9 2 17 2 -17 2 8 2 0 2 -25 2 25 2 0 
2 -25 2 25 2 -8 2 0 2 17 2 -26 2 9 2 17 
2 -17 2 8 2 0 2 -17 2 17 2 0 2 -25 2 25 
2 -8 2 0 2 8 2 -8 2 0 2 17 2 -17 2 8 
2 9 2 -26 2 17 2 0 2 -17 2 17 2 -8 2 0 
2 17 2 -17 2 0 2 17 2 -17 2 8 2 0 2 -17 
2 17 2 0 2 -25 2 25 2 -8 2 0 2 17 2 -17 
2 0 2 17 2 -17 2 8 2 0 2 -17 2 17 2 0 
2 -25 2 34 2 -17 2 0 2 17 2 -26 2 9 2 17 
2 -17 2 8 2 0 2 -17 2 17 2 0 2 -25 2 25 
2 -8 2 0 2 8 2 -17 2 9 2 17 2 -26 2 17 
2 0 2 -25 2 25 2 9 2 -34 2 25 2 -8 2 -9 
2 26 2 -26 2 0 2 26 2 -17 2 8 2 0 2 -17 
2 9 2 8 2 -25 2 17 2 8 2 -8 2 17 2 -17 
2 -9 2 26 2 -17 2 0 2 8 2 -17 2 9 2 8 
2 -25 2 25 2 -8 3353 4440 300 MP stroke
2 -9 2 26 2 -17 2 -9 2 26 2 -17 2 0 2 8 
2 -17 2 9 2 8 2 -25 2 25 2 0 2 -17 2 17 
2 -17 2 -8 2 34 2 -17 2 0 2 8 2 -25 2 17 
2 8 2 -17 2 17 2 0 2 -8 2 17 2 -17 2 -9 
2 26 2 -17 2 0 2 8 2 -17 2 17 2 9 2 -34 
2 25 2 0 2 -8 2 17 2 -17 2 -9 2 26 2 -9 
2 -8 2 8 2 -8 2 0 2 8 2 -25 2 25 2 0 
2 -8 2 8 2 -8 2 -9 2 26 2 -9 2 -8 2 8 
2 0 2 -17 2 26 2 -17 2 8 2 -8 2 8 2 9 
2 -26 2 9 2 17 2 -34 2 25 2 -8 2 -9 2 26 
2 -26 2 17 2 0 2 0 2 -8 2 0 2 0 2 8 
2 0 2 -25 2 25 2 -8 2 0 2 8 2 -8 2 0 
2 17 2 -17 2 8 2 -8 2 -9 2 9 2 8 2 -17 
2 17 2 -8 2 0 2 17 2 -26 2 9 2 17 2 -17 
2 8 2 0 2 -17 2 17 2 0 2 -25 2 25 2 -8 
2 0 2 17 2 -26 2 9 2 17 2 -17 2 8 2 0 
2 -17 2 17 2 0 2 -17 2 17 2 -8 2 0 2 8 
2 -17 2 9 2 17 2 -17 2 8 2 0 2 -17 2 9 
2 8 2 -25 2 25 2 -8 2 0 2 17 2 -26 2 9 
2 17 2 -17 2 8 2 0 2 -17 2 17 2 0 2 -17 
2 17 2 -8 2 0 2 17 2 -17 2 0 2 17 2 -17 
2 8 2 0 2 -17 2 17 2 0 2 -25 2 25 2 -8 
2 0 2 17 2 -26 2 9 2 17 2 -17 2 8 2 0 
2 -17 2 9 2 8 2 -25 2 25 2 -8 2 0 2 17 
2 -26 2 9 2 17 2 -17 2 8 2 0 2 -17 2 17 
2 0 2 -25 2 25 2 -8 2 0 2 17 1 -17 2 0 
2 17 2 -17 2 8 2 0 2 -17 2 17 2 0 2 -25 
2 25 2 -8 2 0 2 17 2 -17 2 0 2 17 2 -17 
2 0 2 0 2 -17 2 25 2 9 2 -34 2 25 2 0 
2 -8 2 17 2 -17 2 -9 2 26 2 -17 2 0 2 8 
2 -17 2 9 2 17 2 -34 2 25 2 0 2 -8 2 17 
2 -17 2 -9 2 26 2 -17 2 8 2 0 2 -17 2 9 
2 17 2 -34 2 25 2 -8 2 0 2 17 2 -17 2 -9 
2 26 2 -17 2 0 2 8 2 -17 2 9 2 17 2 -34 
2 25 2 -8 2 -9 2 26 2 -17 2 -9 2 26 2 -17 
2 0 2 8 2 -25 2 17 2 17 2 -26 2 17 2 -8 
2 0 2 8 2 -8 2 0 2 17 2 -17 2 0 2 8 
2 -17 2 9 2 17 2756 4423 300 MP stroke
2 -34 2 25 2 0 2 -8 2 17 2 -17 2 0 2 17 
2 -17 2 8 2 0 2 -8 2 8 2 0 2 -25 2 25 
2 0 2 -8 2 8 2 -8 2 -9 2 17 2 -8 2 0 
2 0 2 8 2 -17 2 26 2 -17 2 8 2 -8 2 0 
2 8 2 -17 2 9 2 8 2 -25 2 25 2 -8 2 0 
2 17 2 -26 2 17 2 0 2 -8 2 0 2 8 2 -17 
2 9 2 8 2 -25 2 25 2 0 2 -8 2 8 2 -8 
2 0 2 17 2 -17 2 8 2 0 2 -17 2 9 2 8 
2 -25 2 25 2 -8 2 0 2 17 2 -26 2 9 2 17 
2 -17 2 8 2 0 2 -17 2 17 2 0 2 -25 2 25 
2 -8 2 0 2 17 2 -26 2 9 2 17 2 -17 2 8 
2 0 2 -17 2 17 2 0 2 -25 2 25 2 -8 2 0 
2 17 2 -17 2 0 2 17 2 -17 2 8 2 0 2 -17 
2 17 2 0 2 -25 2 25 2 -8 2 0 2 17 2 -17 
2 0 2 17 2 -17 2 8 2 0 2 -17 2 17 2 0 
2 -25 2 25 2 -8 2 0 2 17 2 -26 2 9 2 17 
2 -17 2 8 2 0 2 -17 2 17 2 0 2 -25 2 25 
2 -8 2 0 2 17 2 -26 2 9 2 17 2 -17 2 0 
2 8 2 -17 2 17 2 0 2 -25 2 25 2 -8 2 0 
2 17 2 -17 2 0 2 17 2 -17 2 8 2 0 2 -17 
2 17 2 0 2 -17 2 17 2 -8 2 0 2 17 2 -17 
2 0 2 17 2 -17 2 8 2 0 2 -17 2 17 2 0 
2 -25 2 25 2 -8 2 0 2 17 2 -26 2 9 2 17 
2 -26 2 17 2 0 2 -25 2 25 2 0 2 -25 2 25 
2 -8 2 0 2 8 2 -8 2 -9 2 26 2 -17 2 0 
2 17 2 -26 2 9 2 8 2 -25 2 25 2 0 2 -8 
2 8 2 -8 2 -9 2 26 2 -17 2 0 2 8 2 -17 
2 9 2 8 2 -25 2 25 2 -8 2 -9 2 26 2 -17 
2 -9 2 26 2 -17 2 0 2 8 2 -17 2 9 2 17 
2 -34 2 25 2 0 2 -8 2 17 2 -26 2 0 2 26 
2 -17 2 0 2 8 2 -25 2 17 2 8 2 -17 2 17 
2 -8 2 -9 2 26 2 -17 2 0 2 17 2 -17 2 0 
2 8 2 -17 2 17 2 0 2 -25 2 25 2 -8 2 0 
2 8 2 -8 2 0 2 17 2 -9 2 0 2 0 2 -8 
2 0 2 8 2 -25 2 25 2 -8 2 0 2 8 2 -8 
2 -9 2 26 2 -9 2 -8 2 8 2 -8 2 -9 2 26 
2 -17 2 8 2 -8 2 8 2 0 2 -17 2 9 2 17 
2 -34 2 25 2 0 2158 4432 300 MP stroke
2 -8 2 17 2 -17 2 8 2 9 2 -9 2 -8 2 0 
2 0 2 8 2 0 2 -25 2 25 2 -8 2 0 2 8 
2 -8 2 0 2 17 2 -17 2 8 2 0 2 -17 2 9 
2 8 2 -17 2 17 2 -8 2 0 2 17 2 -26 2 9 
2 17 2 -17 2 8 2 0 2 -25 2 25 2 0 2 -25 
2 25 2 -8 2 0 2 17 2 -17 2 0 2 17 2 -17 
2 8 2 0 2 -17 2 17 2 0 2 -25 2 25 2 -8 
2 0 2 17 2 -26 2 9 2 17 2 -17 2 8 2 0 
2 -17 2 17 2 0 2 -25 2 25 2 -8 2 0 2 17 
2 -26 2 9 2 17 2 -17 2 8 2 0 2 -17 2 17 
2 0 2 -25 2 25 2 -8 2 0 2 17 2 -17 2 0 
2 17 2 -17 2 0 2 8 2 -17 2 17 2 0 2 -25 
2 25 2 -8 2 0 2 17 2 -26 2 9 2 17 2 -17 
2 8 2 0 2 -17 2 17 1 0 1941 4432 110 MP stroke
gr

c9
1 sg
0 1700 4996 0 0 -1700 8513 4653 4 MP
PP
-4996 0 0 1700 4996 0 0 -1700 8513 4653 5 MP stroke
4 w
DO
SO
6 w
0 sg
8513 4653 mt 13509 4653 L
8513 2953 mt 13509 2953 L
8513 4653 mt 8513 2953 L
13509 4653 mt 13509 2953 L
8513 4653 mt 13509 4653 L
8513 4653 mt 8513 2953 L
8513 4653 mt 8513 4603 L
8513 2953 mt 8513 3002 L
8360 4798 mt 
(-2.5) s
9012 4653 mt 9012 4603 L
9012 2953 mt 9012 3002 L
8909 4798 mt 
(-2) s
9512 4653 mt 9512 4603 L
9512 2953 mt 9512 3002 L
9359 4798 mt 
(-1.5) s
10011 4653 mt 10011 4603 L
10011 2953 mt 10011 3002 L
9908 4798 mt 
(-1) s
10511 4653 mt 10511 4603 L
10511 2953 mt 10511 3002 L
10358 4798 mt 
(-0.5) s
11011 4653 mt 11011 4603 L
11011 2953 mt 11011 3002 L
10978 4798 mt 
(0) s
11510 4653 mt 11510 4603 L
11510 2953 mt 11510 3002 L
11427 4798 mt 
(0.5) s
12010 4653 mt 12010 4603 L
12010 2953 mt 12010 3002 L
11977 4798 mt 
(1) s
12509 4653 mt 12509 4603 L
12509 2953 mt 12509 3002 L
12426 4798 mt 
(1.5) s
13009 4653 mt 13009 4603 L
13009 2953 mt 13009 3002 L
12976 4798 mt 
(2) s
13509 4653 mt 13509 4603 L
13509 2953 mt 13509 3002 L
13426 4798 mt 
(2.5) s
13192 5000 mt 
(x 10) s
%%IncludeResource: font Helvetica
/Helvetica /ISOLatin1Encoding 80 FMSR

13418 4926 mt 
(-5) s
8513 4440 mt 8562 4440 L
13509 4440 mt 13459 4440 L
%%IncludeResource: font Helvetica
/Helvetica /ISOLatin1Encoding 120 FMSR

8412 4484 mt 
(0) s
8513 4015 mt 8562 4015 L
13509 4015 mt 13459 4015 L
8412 4059 mt 
(2) s
8513 3590 mt 8562 3590 L
13509 3590 mt 13459 3590 L
8412 3634 mt 
(4) s
8513 3165 mt 8562 3165 L
13509 3165 mt 13459 3165 L
8412 3209 mt 
(6) s
8513 4653 mt 13509 4653 L
8513 2953 mt 13509 2953 L
8513 4653 mt 8513 2953 L
13509 4653 mt 13509 2953 L
gs 8513 2953 4997 1701 rc
c9
1 0 2 0 2 -8 2 0 2 8 2 -8 2 0 2 8 
2 0 2 9 2 -9 2 -8 2 8 2 0 2 0 2 0 
2 -8 2 0 2 8 2 -8 2 0 2 8 2 -8 2 17 
2 -9 2 -8 2 17 2 0 2 -9 2 9 2 -26 2 9 
2 8 2 -8 2 0 2 8 2 -8 2 8 2 0 2 -8 
2 8 2 0 2 0 2 0 2 -8 2 0 2 8 2 -8 
2 8 2 0 2 -8 2 17 2 -17 2 0 2 8 2 0 
2 0 2 0 2 -8 2 8 2 -8 2 8 2 9 2 -9 
2 9 2 8 2 -25 2 17 2 -17 2 25 2 -17 2 9 
2 8 2 -25 2 8 2 -8 2 8 2 9 2 0 2 0 
2 -17 2 8 2 -8 2 0 2 8 2 -8 2 0 2 0 
2 17 2 -9 2 0 2 0 2 9 2 0 2 -17 2 0 
2 8 2 -8 2 8 2 0 2 -8 2 17 2 -17 2 0 
2 17 2 -9 2 0 2 9 2 -17 2 0 2 0 2 0 
2 8 2 -8 2 0 2 17 2 -9 2 0 2 -8 2 0 
2 17 2 -9 2 -8 2 0 2 8 2 -8 2 8 2 -8 
2 8 2 0 2 0 2 -8 2 8 2 0 2 0 2 0 
2 -8 2 0 2 8 2 -8 2 8 2 0 2 0 2 0 
2 0 2 -8 2 8 2 0 2 0 2 0 2 0 2 -8 
2 8 2 -8 2 8 2 -8 2 0 2 8 2 0 2 -8 
2 8 2 0 2 0 2 0 2 -8 2 0 2 0 2 0 
2 8 2 -8 2 8 2 0 2 0 2 -8 2 8 2 0 
2 0 2 0 2 -8 2 0 2 8 2 -8 2 8 2 0 
2 0 2 0 2 0 2 -8 2 8 2 0 2 0 2 0 
2 -8 2 0 2 8 2 -8 2 8 2 0 2 -8 2 8 
2 -8 2 0 2 17 2 -9 2 0 2 0 2 -8 2 0 
2 0 2 0 2 8 2 -8 2 0 2 8 2 -8 2 8 
2 9 2 -17 2 17 2 0 2 -17 2 0 2 0 2 0 
2 8 2 0 2 -8 2 17 2 -9 2 0 2 0 2 0 
2 9 2 -9 2 -8 2 0 2 8 2 -8 2 8 2 -8 
2 0 2 17 2 -9 2 -8 2 8 2 0 2 0 2 0 
2 -17 2 9 2 0 2 -9 2 -17 2 -17 2 34 2 26 
2 -9 2 -8 2 8 2 0 2 0 2 0 2 -8 2 0 
2 8 2 -8 2 8 2 0 2 0 2 9 2 -9 2 -8 
2 8 2 0 2 0 2 9 2 -17 2 0 2 8 2 -8 
2 8 2 0 2 -8 2 25 2 -17 2 -8 2 17 2 -9 
2 0 2 9 2 -26 2 9 2 8 2 -8 2 8 2 -8 
2 0 2 17 2 -17 12913 3760 300 MP stroke
2 0 2 8 2 9 2 0 2 0 2 -17 2 0 2 0 
2 0 2 8 2 0 2 -8 2 8 2 -8 2 0 2 8 
2 0 2 0 2 -8 2 0 2 0 2 8 2 0 2 9 
2 0 2 8 2 0 2 -25 2 17 2 -17 2 25 2 -25 
2 17 2 8 2 -25 2 8 2 -8 2 8 2 0 2 9 
2 0 2 -17 2 8 2 -8 2 0 2 8 2 0 2 -8 
2 0 2 17 2 -17 2 17 2 -17 2 17 2 -9 2 -8 
2 0 2 8 2 -8 2 8 2 -8 2 0 2 17 2 -9 
2 -8 2 17 2 -9 2 0 2 9 2 -17 2 0 2 0 
2 0 2 8 2 0 2 -8 2 17 2 -9 2 0 2 -8 
2 0 2 17 2 -9 2 -8 2 0 2 8 2 -8 2 8 
2 -8 2 8 2 0 2 0 2 -8 2 8 2 0 2 0 
2 0 2 0 2 -8 2 8 2 -8 2 8 2 0 2 0 
2 0 2 0 2 -8 2 8 2 0 2 0 2 0 2 -8 
2 0 2 8 2 -8 2 8 2 -8 2 8 2 0 2 0 
2 -8 2 8 2 0 2 0 2 0 2 0 2 -8 2 8 
2 -8 2 8 2 -8 2 8 2 0 2 0 2 -8 2 8 
2 0 2 0 2 0 2 -8 2 0 2 8 2 -8 2 8 
2 -8 2 8 2 0 2 0 2 -8 2 8 2 0 2 0 
2 0 2 -8 2 0 2 0 2 0 2 8 2 -8 2 0 
2 8 2 0 2 -8 2 8 2 0 2 9 2 -9 2 -8 
2 0 2 0 2 0 2 8 2 -8 2 8 2 0 2 0 
2 -8 2 17 2 -17 2 17 2 0 2 -17 2 0 2 8 
2 -8 2 8 2 -8 2 0 2 17 2 -9 2 -8 2 17 
2 -9 2 0 2 0 2 -8 2 0 2 8 2 -8 2 8 
2 -8 2 0 2 17 2 -9 2 -8 2 17 2 -9 2 0 
2 0 2 -8 2 0 2 0 2 -9 2 -17 2 -17 2 34 
2 26 2 -9 2 -8 2 8 2 0 2 0 2 0 2 -8 
2 0 2 8 2 -8 2 8 2 0 2 0 2 9 2 -9 
2 -8 2 8 2 0 2 0 2 9 2 -17 2 0 2 8 
2 -8 2 8 2 0 2 -8 2 17 2 -9 2 -8 2 17 
2 -9 2 0 2 9 2 -26 2 9 2 8 2 -8 2 8 
2 -8 2 0 2 17 2 -9 2 -8 2 17 2 -9 2 9 
2 -9 2 -8 2 0 2 8 2 -8 2 8 2 0 2 -8 
2 8 2 -8 2 8 2 0 2 9 2 -9 2 -8 2 8 
2 0 2 0 2 0 2 9 2 0 2 8 2 0 2 -25 
2 17 2 -17 2 17 2 -17 2 17 2 8 2 -25 2 8 
2 -8 2 17 2 0 12315 3743 300 MP stroke
2 -9 2 0 2 -8 2 0 2 0 2 0 2 8 2 0 
2 -17 2 9 2 17 2 -17 2 8 2 0 2 0 2 9 
2 -17 2 0 2 8 2 -8 2 8 2 -8 2 0 2 17 
2 -17 2 0 2 8 1 0 2 0 2 9 2 -17 2 0 
2 8 2 0 2 0 2 0 2 -8 2 17 2 0 2 -9 
2 -8 2 0 2 17 2 -9 2 -8 2 0 2 8 2 -8 
2 8 2 -8 2 0 2 8 2 0 2 -8 2 8 2 0 
2 0 2 0 2 -8 2 0 2 8 2 -8 2 8 2 -8 
2 8 2 0 2 0 2 -8 2 8 2 0 2 0 2 0 
2 -8 2 0 2 8 2 -8 2 8 2 -8 2 8 2 0 
2 0 2 -8 2 8 2 0 2 0 2 0 2 0 2 0 
2 0 2 -8 2 8 2 0 2 -8 2 8 2 0 2 -8 
2 8 2 0 2 0 2 0 2 -8 2 0 2 8 2 -8 
2 8 2 -8 2 8 2 9 2 -9 2 -8 2 8 2 0 
2 0 2 0 2 -8 2 0 2 8 2 -8 2 8 2 -8 
2 0 2 8 2 0 2 -8 2 8 2 0 2 0 2 0 
2 0 2 -8 2 8 2 -8 2 8 2 0 2 0 2 0 
2 0 2 0 2 9 2 -9 2 17 2 -8 2 -17 2 0 
2 0 2 0 2 17 2 -9 2 -8 2 17 2 -9 2 0 
2 0 2 -8 2 17 2 -9 2 -8 2 0 2 8 2 -8 
2 8 2 0 2 -8 2 17 2 -9 2 -8 2 8 2 0 
2 0 2 9 2 -17 2 0 2 0 2 -9 2 -17 2 -17 
2 34 2 26 2 -9 2 -8 2 17 2 -9 2 9 2 0 
2 -17 2 0 2 8 2 -8 2 8 2 0 2 0 2 9 
2 -9 2 -8 2 17 2 -9 2 0 2 9 2 -17 2 0 
2 8 2 -8 2 8 2 0 2 0 2 9 2 -9 2 -8 
2 17 2 0 2 -9 2 9 2 -17 2 0 2 8 2 -8 
2 8 2 0 2 -8 2 17 2 -9 2 0 2 0 2 0 
2 9 2 0 2 -17 2 0 2 8 2 0 2 0 2 0 
2 -8 2 8 2 0 2 0 2 0 2 0 2 0 2 -8 
2 8 2 0 2 0 2 -8 2 17 2 -9 2 17 2 0 
2 -17 2 9 2 -17 2 25 2 -17 2 9 2 8 2 -25 
2 8 2 0 2 9 2 -9 2 9 2 0 2 -17 2 8 
2 -8 2 0 2 8 2 0 2 -8 2 0 2 25 2 -17 
2 9 2 -9 2 0 2 9 2 -9 2 -8 2 8 2 0 
2 9 2 -9 2 0 2 9 2 -9 2 0 2 9 2 -9 
2 17 2 -8 2 -17 2 0 2 8 2 -8 2 17 2 -9 
2 -8 2 17 2 -9 11718 3752 300 MP stroke
2 0 2 9 2 -9 2 0 2 17 2 -25 2 8 2 0 
2 0 2 0 2 0 2 0 2 9 2 0 2 -9 2 0 
2 0 2 9 2 0 2 -9 2 -8 2 8 2 0 2 9 
2 -9 2 0 2 0 2 0 2 0 2 9 2 0 2 0 
2 0 2 -9 2 -8 2 8 2 0 2 0 2 0 2 0 
2 9 2 -9 2 0 2 9 2 0 2 -9 2 0 2 0 
2 0 2 0 2 0 2 0 2 0 2 0 2 0 2 0 
2 0 2 9 2 0 2 0 2 0 2 -9 2 0 2 0 
2 0 2 0 2 0 2 0 2 9 2 -9 2 0 2 9 
2 0 2 0 2 -9 2 0 2 0 2 0 2 0 2 0 
2 0 2 0 2 9 2 -9 2 0 2 9 2 0 2 0 
2 0 2 -9 2 0 2 0 2 0 2 9 2 -9 2 9 
2 0 2 -9 2 0 2 9 2 -9 2 17 2 -8 2 -17 
2 8 2 9 2 -9 2 9 2 -9 2 -8 2 17 2 -9 
2 0 2 9 2 -9 2 9 2 0 2 -9 2 0 2 9 
2 -9 2 0 2 0 2 0 2 9 2 0 2 -9 2 9 
2 0 2 0 2 0 2 -17 2 0 2 8 2 -8 2 -17 
2 -26 2 34 2 34 2 -17 2 0 2 9 2 0 2 -9 
2 9 2 -17 2 0 2 8 2 -8 2 0 2 8 2 -8 
2 17 2 -17 2 0 2 0 2 0 2 0 2 0 2 -17 
2 0 2 8 2 -8 2 0 2 0 2 -9 2 9 2 -9 
2 -8 2 8 2 0 2 0 2 0 2 -25 2 0 2 0 
2 -9 2 9 2 -9 2 0 2 0 2 0 2 -8 2 0 
2 0 2 0 2 0 2 -17 2 0 2 -9 2 0 2 0 
2 0 2 -8 2 8 2 -8 2 -9 2 0 2 -8 2 0 
2 0 2 0 2 0 2 -9 2 -8 2 8 2 -8 2 0 
2 -9 2 -8 2 8 2 -8 2 0 2 0 2 0 2 0 
2 -17 2 0 2 -9 2 9 2 -9 2 0 2 9 2 -17 
2 0 2 -9 2 -8 2 8 2 0 2 -17 2 9 2 8 
2 -17 2 0 2 0 2 0 2 0 2 -8 2 -9 2 0 
2 -8 2 8 2 -8 2 0 2 0 2 -9 2 -8 2 8 
2 -8 2 8 2 -8 2 -9 2 -8 2 0 2 0 2 0 
2 0 2 -17 2 8 2 0 2 -8 2 -9 2 0 2 0 
2 9 2 -17 2 0 2 0 2 -9 2 0 2 0 2 -8 
2 -9 2 0 2 0 2 0 2 0 2 -8 2 8 2 -8 
2 -9 2 0 2 -17 2 9 2 0 2 -9 2 0 2 0 
2 -8 2 8 2 -17 2 0 2 9 2 -9 2 -8 2 0 
2 -9 2 9 2 -9 11120 4160 300 MP stroke
2 0 2 -8 2 0 2 -9 2 9 2 -17 2 8 2 0 
2 -8 2 0 2 0 2 -17 2 17 2 -9 2 -17 2 9 
2 -9 2 0 2 0 2 -8 2 -9 2 17 2 -25 2 8 
2 -8 2 -9 2 9 2 -9 2 0 2 0 2 0 2 -8 
2 0 2 -9 2 0 2 9 2 -26 2 9 2 -9 2 0 
2 0 2 0 2 -8 2 0 2 0 2 -9 2 0 2 -8 
2 0 2 17 2 -17 2 0 2 0 2 -17 1 8 2 -8 
2 -17 2 8 2 0 2 -8 2 8 2 -8 2 -9 2 9 
2 -9 2 0 2 0 2 -17 2 17 2 -8 2 -9 2 0 
2 0 2 -8 2 8 2 -17 2 0 2 9 2 -17 2 -9 
2 9 2 -9 2 0 2 0 2 -8 2 0 2 -9 2 -8 
2 8 2 -8 2 0 2 8 2 -8 2 0 2 0 2 -9 
2 9 2 0 2 -17 2 8 2 0 2 -8 2 8 2 -8 
2 -9 2 17 2 -8 2 8 2 0 2 -8 2 0 2 8 
2 -17 2 17 2 0 2 -8 2 8 2 0 2 -8 2 17 
2 -9 2 0 2 9 2 -17 2 8 2 0 2 -17 2 26 
2 0 2 -9 2 9 2 0 2 0 2 25 2 -25 2 0 
2 0 2 -26 2 17 2 -17 2 -17 2 51 2 0 2 -25 
2 8 2 -8 2 -9 2 17 2 -8 2 0 2 0 2 -9 
2 9 2 0 2 -17 2 17 2 8 2 -8 2 0 2 0 
2 -9 2 9 2 8 2 0 2 0 2 -17 2 9 2 0 
2 -9 2 9 2 8 2 -8 2 0 2 8 2 -8 2 8 
2 -17 2 0 2 9 2 -9 2 17 2 -8 2 -9 2 17 
2 -17 2 9 2 8 2 -25 2 25 2 -8 2 -26 2 34 
2 9 2 -17 2 8 2 -8 2 -9 2 26 2 -17 2 0 
2 0 2 0 2 8 2 -8 2 -17 2 17 2 8 2 -8 
2 8 2 -8 2 0 2 17 2 -9 2 -8 2 8 2 -17 
2 17 2 -8 2 -9 2 17 2 0 2 -8 2 8 2 -17 
2 0 2 26 2 -17 2 8 2 0 2 -17 2 17 2 0 
2 -17 2 9 2 8 2 -8 2 8 2 -8 2 -9 2 26 
2 -17 2 8 2 0 2 -17 2 17 2 -8 2 -9 2 17 
2 0 2 -8 2 8 2 -8 2 -9 2 26 2 -17 2 8 
2 0 2 -17 2 17 2 -8 2 -9 2 9 2 0 2 0 
2 8 2 -8 2 0 2 17 2 -17 2 8 2 0 2 -17 
2 17 2 -8 2 -17 2 17 2 8 2 -8 2 8 2 -8 
2 -9 2 26 2 -17 2 0 2 0 2 -9 2 17 2 0 
2 -25 2 25 2 0 2 -8 2 8 2 -8 2 0 2 17 
2 -17 2 8 2 -8 10523 4440 300 MP stroke
2 -9 2 17 2 0 2 -25 2 25 2 0 2 -8 2 8 
2 -8 2 0 2 17 2 -17 2 0 2 0 2 0 2 8 
2 -8 2 -9 2 17 2 -8 2 0 2 8 2 -8 2 0 
2 17 2 -17 2 8 2 0 2 -17 2 17 2 -8 2 -9 
2 17 2 0 2 -8 2 8 2 -17 2 0 2 17 2 -8 
2 0 2 8 2 -17 2 9 2 0 2 -9 2 9 2 8 
2 -8 2 8 2 -8 2 -9 2 17 2 -8 2 0 2 8 
2 -8 2 0 2 0 2 -9 2 9 2 8 2 -8 2 8 
2 -8 2 -9 2 17 2 -8 2 0 2 8 2 -17 2 9 
2 0 2 -9 2 9 2 8 2 -17 2 17 2 -8 2 -9 
2 17 2 -8 2 0 2 8 2 -17 2 9 2 8 2 -17 
2 9 2 8 2 -17 2 17 2 -17 2 0 2 26 2 -26 
2 9 2 8 2 -17 2 9 2 0 2 -17 2 17 2 8 
2 -8 2 8 2 -8 2 -9 2 17 2 -8 2 0 2 0 
2 -9 2 17 2 -8 2 -17 2 8 2 17 2 -8 2 8 
2 -8 2 0 2 0 2 8 2 0 2 -8 2 -9 2 9 
2 0 2 -9 2 9 2 0 2 0 2 8 2 -8 2 0 
2 8 2 -8 2 0 2 8 2 -17 2 17 2 -8 2 -9 
2 17 2 -17 2 9 2 8 2 -25 2 25 2 -8 2 -26 
2 34 2 9 2 -17 2 8 2 -8 2 -9 2 26 2 -17 
2 8 2 0 2 -8 2 8 2 -8 2 -17 2 17 2 8 
2 -8 2 8 2 -8 2 -9 2 26 2 -17 2 0 2 8 
2 -17 2 17 2 -8 2 -17 2 25 2 0 2 -8 2 8 
2 -8 2 -9 2 26 2 -17 2 0 2 8 2 -8 2 8 
2 -8 2 -9 2 9 2 8 2 -8 2 8 2 -8 2 0 
2 17 2 -9 2 0 2 0 2 -8 2 8 2 -8 2 -9 
2 17 2 0 2 -8 2 8 2 -8 2 -9 2 26 2 -17 
2 0 2 8 2 -17 2 17 2 0 2 -17 2 17 2 0 
2 -8 2 8 2 -8 2 -9 2 26 2 -17 2 8 2 0 
2 -17 2 17 2 -8 2 -9 2 9 2 8 2 -8 2 8 
2 -8 2 -9 2 26 2 -17 2 8 2 0 2 -8 2 8 
2 -8 2 -17 2 17 2 8 2 -8 2 8 2 -8 2 0 
2 17 2 -17 2 0 2 0 2 0 2 8 2 -8 2 -9 
2 9 2 0 2 0 2 8 2 -17 2 9 2 17 2 -17 
2 8 2 0 2 -8 2 8 2 -8 2 -17 2 25 2 -8 
2 0 2 17 2 -26 2 0 2 26 2 -17 2 8 2 -8 
2 -9 2 17 2 -8 2 -9 2 9 2 0 2 0 2 8 
2 -17 2 0 2 17 9925 4432 300 MP stroke
2 -8 2 0 2 8 2 -17 2 9 2 0 2 -9 2 9 
2 8 2 -17 2 17 2 -8 2 -9 2 26 2 -17 2 0 
2 8 2 -17 2 9 2 8 2 -17 2 17 2 0 2 -8 
2 8 2 -8 2 -9 2 26 2 -17 2 0 2 8 2 -17 
2 9 2 0 2 -9 2 9 2 8 2 -8 2 8 2 -8 
2 -9 2 17 2 -8 2 0 2 8 2 -17 2 9 2 0 
2 -17 2 17 2 0 2 -9 2 17 2 -8 2 -9 2 26 
2 -26 2 9 2 8 2 -17 2 9 2 0 2 -17 2 17 
2 8 2 -17 2 17 2 -8 2 -9 2 17 2 -8 2 0 
2 8 2 -17 2 17 2 -8 2 -17 2 17 2 8 2 -8 
2 8 1 -8 2 0 2 0 2 8 2 0 2 0 2 -8 
2 0 2 0 2 -9 2 17 2 0 2 -8 2 0 2 0 
2 0 2 8 2 -8 2 0 2 8 2 -17 2 17 2 -8 
2 -9 2 17 2 -8 2 0 2 8 2 -25 2 25 2 -8 
2 -26 2 34 2 9 2 -17 2 8 2 -17 2 0 2 26 
2 -17 2 8 2 0 2 -8 2 8 2 -8 2 -17 2 17 
2 8 2 -8 2 8 2 -8 2 0 2 17 2 -17 2 0 
2 8 2 -17 2 17 2 0 2 -17 2 17 2 0 2 -8 
2 8 2 -8 2 -9 2 26 2 -17 2 8 2 0 2 -17 
2 17 2 -8 2 -9 2 9 2 8 2 -8 2 8 2 -8 
2 0 2 17 2 -9 2 0 2 0 2 -8 2 8 2 -8 
2 -9 2 17 2 -8 2 0 2 8 2 -8 2 0 2 17 
2 -17 2 8 2 0 2 -8 2 8 2 -8 2 -9 2 17 
2 0 2 -8 2 8 2 -8 2 0 2 17 2 -17 2 8 
2 -8 2 -9 2 17 2 0 2 -17 2 9 2 0 2 0 
2 8 2 -8 2 0 2 17 2 -17 2 0 2 8 2 -8 
2 8 2 0 2 -17 2 9 2 8 2 -8 2 8 2 -8 
2 -9 2 26 2 -17 2 8 2 0 2 -17 2 17 2 -8 
2 -9 2 17 2 0 2 -8 2 8 2 -8 2 0 2 17 
2 -9 2 0 2 0 2 -17 2 17 2 0 2 -17 2 17 
2 0 2 -8 2 17 2 -17 2 0 2 17 2 -9 2 0 
2 0 2 -8 2 17 2 -17 2 -9 2 9 2 0 2 0 
2 8 2 -17 2 0 2 17 2 0 2 -8 2 8 2 -17 
2 9 2 0 2 -9 2 9 2 8 2 -8 2 8 2 -8 
2 -9 2 26 2 -9 2 -8 2 8 2 -17 2 9 2 0 
2 -9 2 9 2 8 2 -8 2 8 2 -8 2 -9 2 17 
2 -8 2 0 2 8 2 -17 2 9 2 0 2 -9 2 9 
2 8 2 -8 2 8 9328 4432 300 MP stroke
2 -8 2 -9 2 17 2 -8 2 0 2 0 2 -9 2 9 
2 0 2 -9 2 9 2 0 2 -9 2 17 2 -8 2 -9 
2 26 2 -26 2 0 2 17 2 -17 2 17 2 -8 2 -17 
2 17 2 0 2 0 2 8 2 -8 2 -9 2 17 2 -8 
2 0 2 8 2 -8 2 0 2 0 2 -9 2 9 2 8 
2 -8 2 8 2 -8 2 0 2 8 2 0 2 -8 2 8 
2 -8 2 0 2 0 2 -9 2 9 2 8 2 -8 2 0 
2 8 2 -8 2 8 2 -8 2 0 2 8 2 -17 2 17 
2 -8 2 -9 2 17 2 -17 2 9 2 8 2 -25 2 25 
2 -8 2 -26 2 34 2 9 2 -26 2 26 2 -17 2 -9 
2 26 2 -17 2 8 2 0 2 -8 2 8 2 0 2 -17 
2 9 2 8 2 -8 2 8 2 -8 2 0 2 17 2 -17 
2 8 2 0 2 -17 2 17 2 -8 2 -9 2 9 2 0 
2 0 2 8 2 -8 2 -9 2 26 2 -17 2 8 2 0 
2 -8 2 8 2 0 2 -25 2 17 2 0 2 0 2 8 
2 -8 2 0 2 17 2 -9 2 0 2 0 2 -17 2 17 
2 0 2 -17 2 17 2 -8 2 0 2 8 2 -8 2 -9 
2 26 2 -17 2 0 2 8 2 -17 2 17 2 -8 2 -17 
2 25 2 0 2 -8 2 8 2 -8 2 -9 2 26 2 -17 
2 8 2 0 2 -17 2 17 2 0 2 -17 2 9 2 0 
2 0 2 8 2 -8 2 0 2 17 2 -17 2 8 2 0 
2 -8 2 8 2 -8 2 -9 2 9 2 8 2 -8 2 8 
2 -8 2 -9 2 26 2 -17 2 8 2 0 2 -8 2 8 
2 -8 2 -17 2 17 2 8 2 -8 2 8 2 -8 2 0 
2 17 2 -17 2 8 2 -8 2 0 2 8 2 -8 2 -17 
2 17 2 0 2 0 2 8 2 -17 2 9 2 17 2 -17 
2 8 2 -8 2 -9 2 17 2 -8 2 -9 2 9 2 0 
2 -9 2 26 2 -17 2 -9 2 17 2 -8 2 0 2 0 
2 -9 2 9 2 0 2 -17 2 17 2 0 2 0 2 8 
2 -8 2 -9 2 26 2 -17 2 0 2 8 2 -17 2 9 
2 0 2 -9 2 9 2 8 2 -8 2 8 2 -8 2 -9 
2 17 2 -8 2 0 2 8 2 -17 2 9 2 0 2 -17 
2 17 2 8 2 -8 2 8 2 -8 2 -9 2 17 2 -8 
2 0 2 0 2 -9 2 9 2 0 2 -17 2 25 2 0 
2 -17 2 17 2 -8 2 -9 2 26 2 -26 2 9 2 8 
2 -17 2 9 2 0 2 -17 2 17 2 8 2 -8 2 8 
2 -8 2 -9 2 26 2 -17 2 0 2 0 2 -9 2 9 
2 0 2 -17 2 8 8730 4449 300 MP stroke
2 17 2 -8 2 0 2 0 2 -9 2 17 2 0 2 0 
2 0 2 -8 2 0 2 0 2 -9 2 9 2 8 2 -8 
2 8 2 0 2 -8 2 8 2 -8 2 0 2 0 2 -9 
2 17 2 -8 2 -9 2 17 2 -17 2 9 2 8 2 -25 
2 25 2 -8 2 -26 2 34 2 9 2 -17 2 8 2 -8 
2 -9 2 26 2 -17 2 0 2 8 2 -17 2 17 2 0 
2 -17 2 9 2 8 2 -8 2 8 2 -8 2 -9 2 26 
2 -17 2 8 2 0 2 -17 2 17 2 -8 2 -9 2 9 
2 8 2 -8 2 17 2 -17 2 -9 2 26 2 -17 2 8 
2 0 2 -8 2 8 2 0 2 -17 2 9 2 0 2 0 
2 8 2 -8 2 -9 2 26 2 -17 2 8 2 0 2 -8 
2 8 2 -8 2 -9 2 9 2 8 2 -8 2 8 2 -8 
2 0 2 17 2 -17 2 0 2 8 2 -8 2 8 2 -8 
2 -17 2 17 2 8 2 -8 1 8 8513 4432 110 MP stroke
gr

c9
1 sg
0 1700 4995 0 0 -1700 1941 7015 4 MP
PP
-4995 0 0 1700 4995 0 0 -1700 1941 7015 5 MP stroke
4 w
DO
SO
6 w
0 sg
1941 7015 mt 6936 7015 L
1941 5315 mt 6936 5315 L
1941 7015 mt 1941 5315 L
6936 7015 mt 6936 5315 L
1941 7015 mt 6936 7015 L
1941 7015 mt 1941 5315 L
1941 7015 mt 1941 6965 L
1941 5315 mt 1941 5364 L
1788 7160 mt 
(-2.5) s
2440 7015 mt 2440 6965 L
2440 5315 mt 2440 5364 L
2337 7160 mt 
(-2) s
2940 7015 mt 2940 6965 L
2940 5315 mt 2940 5364 L
2787 7160 mt 
(-1.5) s
3439 7015 mt 3439 6965 L
3439 5315 mt 3439 5364 L
3336 7160 mt 
(-1) s
3939 7015 mt 3939 6965 L
3939 5315 mt 3939 5364 L
3786 7160 mt 
(-0.5) s
4438 7015 mt 4438 6965 L
4438 5315 mt 4438 5364 L
4405 7160 mt 
(0) s
4938 7015 mt 4938 6965 L
4938 5315 mt 4938 5364 L
4855 7160 mt 
(0.5) s
5437 7015 mt 5437 6965 L
5437 5315 mt 5437 5364 L
5404 7160 mt 
(1) s
5937 7015 mt 5937 6965 L
5937 5315 mt 5937 5364 L
5854 7160 mt 
(1.5) s
6436 7015 mt 6436 6965 L
6436 5315 mt 6436 5364 L
6403 7160 mt 
(2) s
6935 7015 mt 6935 6965 L
6935 5315 mt 6935 5364 L
6852 7160 mt 
(2.5) s
6619 7362 mt 
(x 10) s
%%IncludeResource: font Helvetica
/Helvetica /ISOLatin1Encoding 80 FMSR

6845 7288 mt 
(-5) s
1941 6802 mt 1990 6802 L
6936 6802 mt 6886 6802 L
%%IncludeResource: font Helvetica
/Helvetica /ISOLatin1Encoding 120 FMSR

1840 6846 mt 
(0) s
1941 6377 mt 1990 6377 L
6936 6377 mt 6886 6377 L
1840 6421 mt 
(2) s
1941 5952 mt 1990 5952 L
6936 5952 mt 6886 5952 L
1840 5996 mt 
(4) s
1941 5527 mt 1990 5527 L
6936 5527 mt 6886 5527 L
1840 5571 mt 
(6) s
1941 7015 mt 6936 7015 L
1941 5315 mt 6936 5315 L
1941 7015 mt 1941 5315 L
6936 7015 mt 6936 5315 L
gs 1941 5315 4996 1701 rc
/c10 { 0.000000 0.000000 1.000000 sr} bdef
c10
1 19 2 -34 2 12 2 -4 2 0 2 9 2 -9 2 -4 
2 4 2 -4 2 8 2 -4 2 -4 2 13 2 -5 2 -4 
2 9 2 -13 2 13 2 0 2 -17 2 0 2 8 2 -8 
2 12 2 0 2 -8 2 13 2 -5 2 -8 2 0 2 0 
2 13 2 0 2 -13 2 -4 2 8 2 -4 2 8 2 -4 
2 -4 2 8 2 5 2 -13 2 8 2 -4 2 0 2 9 
2 -9 2 -8 2 8 2 -8 2 12 2 -4 2 -4 2 8 
2 0 2 -12 2 12 2 -4 2 0 2 9 2 -9 2 -8 
2 4 2 -4 2 12 2 -4 2 -4 2 8 2 5 2 -13 
2 8 2 -4 2 0 2 9 2 -9 2 -8 2 8 2 -8 
2 12 2 -4 2 -4 2 13 2 -5 2 -8 2 8 2 -4 
2 0 2 9 2 -9 2 -4 2 4 2 -8 2 12 2 -4 
2 -4 2 13 2 -5 2 -8 2 13 2 -13 2 13 2 0 
2 -17 2 4 2 4 2 -4 2 8 2 0 2 -8 2 13 
2 -5 2 -8 2 0 2 0 2 13 2 0 2 -9 2 -4 
2 4 2 -8 2 17 2 -9 2 0 2 9 2 -5 2 -4 
2 9 2 -13 2 13 2 0 2 -13 2 4 2 0 2 -4 
2 13 2 -5 2 -8 2 13 2 0 2 -9 2 4 2 -4 
2 9 2 0 2 -17 2 0 2 12 2 -8 2 8 2 0 
2 -4 2 13 2 -4 2 -17 2 12 2 -4 2 -4 2 13 
2 -22 2 5 2 8 2 -4 2 -4 2 -17 2 4 2 34 
2 -9 2 -12 2 12 2 0 2 -4 2 9 2 -22 2 5 
2 8 2 -8 2 8 2 9 2 -9 2 13 2 -9 2 -12 
2 12 2 -4 2 0 2 9 2 -22 2 5 2 4 2 -4 
2 8 2 4 2 -4 2 13 2 -9 2 -12 2 17 2 -5 
2 -8 2 17 2 -30 2 -4 2 21 2 -8 2 8 2 0 
2 -8 2 17 2 -5 2 -12 2 12 2 -4 2 0 2 4 
2 -17 2 5 2 8 2 -8 2 8 2 0 2 -8 2 12 
2 -4 2 -8 2 4 2 0 2 4 2 0 2 4 2 0 
2 -12 2 4 2 4 2 -4 2 4 2 4 2 -8 2 17 
2 -17 2 25 2 -8 2 -13 2 26 2 -47 2 17 2 0 
2 8 2 -4 2 0 2 9 2 -26 2 13 2 -4 2 0 
2 12 2 -4 2 0 2 -8 2 29 2 -25 2 13 2 -17 
2 17 2 0 2 -17 2 0 2 4 2 -4 2 12 2 -4 
2 -8 2 17 2 -5 2 -12 2 12 2 -8 2 0 2 13 
2 -17 2 0 2 4 2 -4 2 8 2 0 2 -8 2 12 
2 0 2 -8 2 0 2 0 2 8 2 5 2 -13 2 -4 
2 4 2 -4 2 8 6340 6288 300 MP stroke
2 0 2 -8 2 12 2 -4 2 -8 2 12 2 -8 2 4 
2 9 2 -13 2 -4 2 8 2 -8 2 8 2 0 2 -8 
2 12 2 -4 2 -8 2 8 2 0 2 0 2 9 2 -13 
2 -4 2 4 2 -4 2 8 2 0 2 -8 2 12 2 0 
2 -12 2 8 2 -4 2 0 2 8 2 -8 2 -4 2 4 
2 -4 2 8 2 0 2 -8 2 12 2 0 2 -12 2 8 
2 -4 2 4 2 9 2 -9 2 -8 2 4 2 -4 2 12 
2 -8 2 0 2 8 2 -4 2 -4 2 13 2 -13 2 8 
2 5 2 -17 2 0 2 4 2 -4 2 12 2 -4 2 -4 
2 13 2 -5 2 -8 2 0 2 0 2 13 2 0 2 -9 
2 -8 2 8 2 -8 2 12 2 -4 2 -4 2 13 2 -9 
2 -4 2 13 2 -13 2 13 2 0 2 -17 2 4 2 4 
2 -8 2 12 2 -4 2 -8 2 17 2 -5 2 -8 2 8 
2 -4 2 4 2 5 2 -17 2 0 2 8 2 -4 2 4 
2 4 2 -8 2 13 2 0 2 -17 2 12 2 -4 2 -4 
2 8 2 -17 2 5 2 4 2 -4 2 0 2 -22 2 9 
2 30 2 -9 2 -8 2 12 2 -4 2 -4 2 13 2 -22 
2 5 2 4 2 -4 2 8 2 4 2 -8 2 13 2 -9 
2 -8 2 8 2 0 2 -4 2 8 2 -17 2 0 2 13 
2 -8 2 8 2 4 2 -8 2 13 2 -9 2 -8 2 12 
2 -4 2 0 2 13 2 -26 2 -8 2 17 2 -4 2 8 
2 0 2 -8 2 17 2 -9 2 -8 2 8 2 0 2 0 
2 4 2 -21 2 9 2 4 2 -4 2 8 2 0 2 -8 
2 12 2 -4 2 -8 2 4 2 0 2 0 2 0 2 8 
2 0 2 -12 2 0 2 8 2 -4 2 4 2 9 2 -13 
2 13 1 -17 2 29 2 -12 2 -9 2 21 2 -42 2 17 
2 -4 2 8 2 0 2 -4 2 8 2 -21 2 9 2 0 
2 0 2 12 2 -4 2 -4 2 -9 2 34 2 -25 2 13 
2 -13 2 8 2 5 2 -17 2 0 2 8 2 -8 2 12 
2 -4 2 -8 2 17 2 -9 2 -8 2 12 2 -8 2 0 
2 13 2 -17 2 0 2 4 2 -4 2 8 2 0 2 -8 
2 17 2 -5 2 -8 2 0 2 0 2 8 2 5 2 -13 
2 -4 2 4 2 -4 2 8 2 0 2 -4 2 8 2 -4 
2 -8 2 12 2 -8 2 4 2 9 2 -13 2 -4 2 4 
2 -4 2 8 2 0 2 -4 2 8 2 0 2 -12 2 12 
2 -8 2 4 2 9 2 -13 2 -4 2 4 2 -4 2 8 
2 0 2 -4 2 8 2 0 2 -12 2 12 2 -8 2 4 
2 9 2 -9 2 -8 5743 6296 300 MP stroke
2 4 2 -4 2 8 2 0 2 -4 2 8 2 0 2 -12 
2 12 2 -8 2 4 2 9 2 -13 2 -4 2 4 2 -4 
2 12 2 -8 2 0 2 8 2 -4 2 -4 2 8 2 -8 
2 13 2 0 2 -17 2 4 2 4 2 -8 2 12 2 -4 
2 -8 2 12 2 -4 2 -4 2 0 2 0 2 13 2 0 
2 -9 2 -4 2 0 2 -4 2 12 2 -4 2 -4 2 8 
2 -4 2 -4 2 13 2 -13 2 13 2 0 2 -17 2 4 
2 4 2 -8 2 17 2 -5 2 -12 2 17 2 -5 2 -12 
2 17 2 -9 2 -4 2 13 2 -17 2 0 2 8 2 -8 
2 8 2 4 2 -8 2 13 2 -5 2 -12 2 8 2 0 
2 -4 2 8 2 -17 2 5 2 8 2 -8 2 0 2 -22 
2 9 2 30 2 -5 2 -12 2 12 2 -4 2 0 2 9 
2 -17 2 0 2 8 2 -8 2 8 2 4 2 -4 2 13 
2 -9 2 -8 2 8 2 -4 2 0 2 9 2 -17 2 0 
2 12 2 -4 2 4 2 5 2 -5 2 9 2 -4 2 -13 
2 13 2 0 2 0 2 12 2 -29 2 0 2 17 2 -5 
2 5 2 0 2 -5 2 13 2 -4 2 -9 2 9 2 0 
2 -4 2 8 2 -17 2 4 2 5 2 0 2 4 2 4 
2 -8 2 12 2 -8 2 -4 2 4 2 0 2 0 2 0 
2 4 2 4 2 -8 2 -4 2 8 2 -4 2 0 2 13 
2 -13 2 8 2 -8 2 13 2 0 2 -9 2 21 2 -42 
2 13 2 0 2 8 2 0 2 -4 2 4 2 -21 2 13 
2 -5 2 0 2 5 2 4 2 -9 2 -4 2 26 2 -22 
2 -4 2 0 2 9 2 0 2 -9 2 -8 2 4 2 -4 
2 8 2 0 2 -8 2 8 2 -4 2 -9 2 5 2 -5 
2 0 2 5 2 -9 2 -4 2 4 2 -4 2 4 2 -4 
2 -4 2 4 2 0 2 -13 2 9 2 -5 2 0 2 9 
2 -13 2 -4 2 0 2 -4 2 4 2 0 2 -4 2 4 
2 -4 2 -9 2 13 2 -13 2 9 2 0 2 -17 2 4 
2 0 2 -9 2 13 2 -4 2 -13 2 17 2 -8 2 -9 
2 9 2 -9 2 0 2 17 2 -21 2 4 2 0 2 0 
2 4 2 0 2 -4 2 13 2 -4 2 -5 2 0 2 0 
2 13 2 4 2 -4 2 -8 2 8 2 0 2 9 2 0 
2 0 2 4 2 4 2 -4 2 13 2 -5 2 5 2 8 
2 -4 2 0 2 8 2 -4 2 13 2 0 2 0 2 8 
2 5 2 -5 2 13 2 -4 2 4 2 9 2 0 2 -5 
2 9 2 -4 2 12 2 0 2 0 2 13 2 4 2 -4 
2 9 2 0 2 4 5145 6224 300 MP stroke
2 4 2 0 2 0 2 4 2 0 2 13 2 0 2 0 
2 13 2 -4 2 0 2 12 2 -8 2 13 2 4 2 -13 
2 9 2 4 2 -4 2 12 2 0 2 -4 2 13 2 0 
2 0 2 0 2 0 2 4 2 4 2 -8 2 0 2 13 
2 -9 2 9 2 0 2 0 2 17 2 -5 2 -12 2 12 
2 -4 2 0 2 9 2 -17 2 0 2 8 2 -8 2 -9 
2 -21 2 25 2 34 2 -4 2 -8 2 8 2 -4 2 0 
2 4 2 -17 2 9 2 8 2 -8 2 4 2 4 2 -4 
2 21 2 -13 2 -8 2 8 2 0 2 0 2 0 2 -17 
2 9 2 8 2 -8 2 4 2 4 2 -4 2 17 2 -13 
2 -4 2 9 2 -5 2 0 2 9 2 -26 2 0 2 17 
2 -4 2 4 2 0 2 -4 2 17 2 -8 2 -9 2 9 
2 -5 2 0 2 5 2 -17 2 8 2 4 2 0 1 0 
2 0 2 -4 2 13 2 -9 2 0 2 0 2 0 2 5 
2 -5 2 0 2 5 2 -9 2 4 2 0 2 0 2 5 
2 12 2 -21 2 9 2 -9 2 13 2 -9 2 0 2 17 
2 -29 2 12 2 -4 2 4 2 0 2 0 2 0 2 -17 
2 9 2 -4 2 0 2 4 2 0 2 -4 2 -5 2 26 
2 -21 2 0 2 -5 2 0 2 5 2 -9 2 -4 2 0 
2 -4 2 4 2 -9 2 0 2 5 2 -9 2 -4 2 4 
2 -13 2 9 2 0 2 -17 2 0 2 0 2 -9 2 9 
2 -9 2 -8 2 13 2 -13 2 -9 2 9 2 -13 2 0 
2 9 2 -22 2 0 2 0 2 -4 2 0 2 0 2 -8 
2 8 2 -8 2 -5 2 -8 2 0 2 8 2 0 2 -17 
2 -4 2 0 2 -8 2 8 2 -8 2 0 2 0 2 -5 
2 -12 2 8 2 -8 2 0 2 0 2 -9 2 -8 2 0 
2 -5 2 5 2 -5 2 -8 2 4 2 -4 2 -9 2 5 
2 -9 2 0 2 4 2 -8 2 -9 2 0 2 -4 2 4 
2 -8 2 -4 2 4 2 -9 2 -4 2 9 2 -13 2 4 
2 0 2 -17 2 0 2 0 2 -8 2 8 2 -8 2 -5 
2 5 2 -5 2 -12 2 -5 2 0 2 5 2 0 2 -9 
2 -8 2 0 2 -5 2 5 2 -9 2 -4 2 8 2 -8 
2 -4 2 0 2 -9 2 9 2 0 2 -22 2 0 2 5 
2 -13 2 4 2 -4 2 -9 2 13 2 -13 2 -4 2 4 
2 -8 2 -4 2 8 2 -17 2 0 2 0 2 -13 2 13 
2 -8 2 -13 2 13 2 -9 2 -13 2 13 2 -13 2 0 
2 5 2 -22 2 0 2 5 2 -9 2 4 2 0 2 -12 
2 12 2 -8 2 -13 4548 6560 300 MP stroke
2 9 2 -5 2 -8 2 8 2 -17 2 -4 2 4 2 -12 
2 -5 2 -8 2 4 2 17 2 -13 2 -8 2 4 2 -4 
2 -4 2 4 2 -17 2 0 2 0 2 -9 2 9 2 0 
2 -9 2 9 2 -9 2 -12 2 8 2 -4 2 -9 2 5 
2 -22 2 0 2 5 2 -9 2 4 2 0 2 -8 2 8 
2 -8 2 -13 2 13 2 -9 2 -4 2 13 2 -30 2 -8 
2 17 2 -17 2 8 2 0 2 -13 2 9 2 -4 2 -13 
2 8 2 -4 2 -8 2 4 2 -17 2 -4 2 4 2 -9 
2 5 2 0 2 -13 2 13 2 -5 2 -8 2 0 2 0 
2 -9 2 5 2 -5 2 0 2 -12 2 -9 2 0 2 0 
2 -13 2 13 2 -4 2 -4 2 0 2 -5 2 0 2 5 
2 -5 2 -12 2 12 2 -4 2 9 2 -5 2 -4 2 13 
2 -17 2 8 2 9 2 -17 2 13 2 0 2 -22 2 26 
2 21 2 -25 2 8 2 0 2 4 2 13 2 -8 2 -5 
2 -4 2 -25 2 17 2 -17 2 -9 2 38 2 13 2 -34 
2 4 2 -8 2 8 2 5 2 -13 2 4 2 4 2 -12 
2 12 2 0 2 -17 2 17 2 0 2 -8 2 8 2 -4 
2 -8 2 21 2 -21 2 8 2 4 2 -8 2 8 2 0 
2 -17 2 22 2 0 2 -13 2 8 2 -8 2 -4 2 21 
2 -17 2 4 2 4 2 -12 2 12 2 0 2 -17 2 17 
2 0 2 -8 2 13 2 -9 2 -8 2 17 2 -13 2 4 
2 4 2 -8 2 8 2 0 2 -17 2 17 2 0 2 -8 
2 8 2 -8 2 0 2 17 2 -21 2 8 2 4 2 -12 
2 12 2 0 2 -17 2 22 2 -5 2 -4 2 9 2 -9 
2 -8 2 21 2 -21 2 8 2 4 2 -12 2 12 2 0 
2 -17 2 22 2 -5 2 -8 2 13 2 -9 2 -8 2 21 
2 -17 2 4 2 4 2 -8 2 8 2 0 2 -17 2 22 
2 -5 2 -8 2 13 2 -13 2 0 2 17 2 -21 2 8 
2 4 2 -8 2 8 2 -4 2 -13 2 17 2 0 2 -8 
2 13 2 -13 2 0 2 17 2 -17 2 4 2 4 2 -12 
2 12 2 -4 2 -13 2 17 2 0 2 -8 2 8 2 -8 
2 -9 2 17 2 -12 2 4 2 8 2 -12 2 8 2 0 
2 -8 2 17 2 0 2 -13 2 8 2 -4 2 -8 2 12 
2 -12 2 0 2 12 2 -12 2 8 2 4 2 -12 2 17 
2 0 2 -13 2 8 2 -4 2 -8 2 12 2 -12 2 0 
2 12 2 -12 2 8 2 4 2 -12 2 17 2 0 2 -13 
2 8 2 -4 2 -8 2 12 2 -12 2 0 2 12 2 -12 
2 8 2 4 2 -17 3950 6811 300 MP stroke
2 22 2 -5 2 -12 2 12 2 -8 1 -9 2 17 2 -17 
2 0 2 17 2 -12 2 8 2 4 2 -17 2 17 2 0 
2 -8 2 8 2 -8 2 -4 2 12 2 -17 2 9 2 8 
2 -12 2 8 2 0 2 -13 2 17 2 0 2 -8 2 8 
2 -4 2 -4 2 4 2 4 2 5 2 -5 2 -8 2 0 
2 4 2 -8 2 12 2 0 2 -4 2 0 2 0 2 0 
2 4 2 -4 2 -13 2 17 2 -8 2 8 2 -8 2 -4 
2 12 2 -17 2 9 2 8 2 -17 2 13 2 0 2 -25 
2 29 2 17 2 -21 2 -4 2 0 2 8 2 5 2 -5 
2 -4 2 4 2 -8 2 8 2 -4 2 -8 2 12 2 0 
2 -4 2 9 2 -13 2 8 2 0 2 -8 2 4 2 4 
2 -12 2 12 2 0 2 -17 2 17 2 0 2 -8 2 8 
2 -4 2 -4 2 17 2 -17 2 4 2 4 2 -8 2 8 
2 0 2 -17 2 22 2 0 2 -13 2 8 2 -4 2 -8 
2 21 2 -17 2 4 2 4 2 -8 2 8 2 0 2 -17 
2 17 2 0 2 -4 2 4 2 -4 2 -8 2 17 2 -13 
2 4 2 4 2 -8 2 8 2 0 2 -17 2 22 2 -5 
2 -8 2 8 2 -8 2 0 2 13 2 -17 2 8 2 4 
2 -12 2 12 2 0 2 -17 2 22 2 -5 2 -8 2 13 
2 -13 2 0 2 17 2 -17 2 4 2 4 2 -8 2 8 
2 -4 2 -13 2 22 2 -5 2 -4 2 4 2 -8 2 0 
2 17 2 -17 2 4 2 4 2 -12 2 12 2 0 2 -17 
2 22 2 -5 2 -4 2 4 2 -8 2 0 2 13 2 -13 
2 4 2 4 2 -8 2 8 2 0 2 -17 2 17 2 0 
2 -8 2 13 2 -13 2 0 2 13 2 -13 2 4 2 4 
2 -12 2 12 2 -4 2 -13 2 22 2 -5 2 -8 2 8 
2 -8 2 -9 2 17 2 -12 2 4 2 8 2 -12 2 8 
2 0 2 -8 2 12 2 0 2 -8 2 8 2 -4 2 -8 
2 12 2 -12 2 0 2 12 2 -8 2 4 2 4 2 -12 
2 17 2 -5 2 -8 2 8 2 -4 2 -8 2 12 2 -12 
2 4 2 8 2 -12 2 8 2 0 2 -8 2 17 2 -5 
2 -8 2 8 2 -4 2 -8 2 12 2 -12 2 4 2 8 
2 -12 2 4 2 8 2 -17 2 22 2 -5 2 -12 2 12 
2 -8 2 -9 2 17 2 -17 2 0 2 17 2 -12 2 8 
2 0 2 -13 2 17 2 5 2 -13 2 8 2 -4 2 -8 
2 12 2 -17 2 9 2 8 2 -8 2 4 2 0 2 -13 
2 17 2 0 2 -4 2 4 2 -4 2 -4 2 4 2 4 
2 5 2 -5 2 -8 3353 6802 300 MP stroke
2 4 2 0 2 -8 2 12 2 0 2 -4 2 4 2 -4 
2 0 2 4 2 -4 2 -13 2 17 2 -12 2 12 2 -4 
2 -13 2 17 2 -17 2 9 2 8 2 -17 2 13 2 0 
2 -21 2 25 2 17 2 -21 2 0 2 -4 2 8 2 5 
2 -9 2 0 2 4 2 -8 2 8 2 -4 2 -8 2 12 
2 0 2 -4 2 4 2 -8 2 8 2 5 2 -13 2 4 
2 4 2 -8 2 8 2 0 2 -17 2 22 2 -5 2 -8 
2 8 2 -4 2 -8 2 21 2 -17 2 4 2 4 2 -8 
2 8 2 0 2 -17 2 17 2 0 2 -8 2 8 2 -8 
2 0 2 17 2 -17 2 4 2 4 2 -8 2 8 2 0 
2 -17 2 17 2 0 2 -4 2 4 2 -4 2 -4 2 13 
2 -13 2 4 2 4 2 -12 2 12 2 0 2 -17 2 17 
2 0 2 -8 2 8 2 -4 2 -4 2 17 2 -17 2 4 
2 4 2 -12 2 12 2 0 2 -17 2 17 2 0 2 -8 
2 8 2 -4 2 -8 2 21 2 -17 2 4 2 4 2 -8 
2 8 2 0 2 -17 2 17 2 0 2 -8 2 8 2 -8 
2 0 2 17 2 -17 2 8 2 0 2 -8 2 8 2 -4 
2 -13 2 17 2 0 2 -8 2 8 2 -8 2 0 2 17 
2 -17 2 4 2 4 2 -8 2 8 2 -4 2 -13 2 22 
2 -5 2 -4 2 4 2 -8 2 0 2 17 2 -17 2 4 
2 4 2 -8 2 8 2 -4 2 -13 2 17 2 0 2 -8 
2 13 2 -17 2 -5 2 17 2 -8 2 0 2 8 2 -12 
2 8 2 0 2 -8 2 17 2 0 2 -13 2 8 2 -4 
2 -8 2 12 2 -12 2 4 2 8 2 -8 2 4 2 0 
2 -8 2 12 2 0 2 -8 2 8 2 -4 2 -8 2 12 
2 -12 2 4 2 8 2 -12 2 8 2 0 1 -8 2 12 
2 5 2 -17 2 12 2 -4 2 -8 2 12 2 -12 2 4 
2 8 2 -12 2 4 2 8 2 -17 2 22 2 -5 2 -12 
2 12 2 -8 2 -9 2 17 2 -17 2 0 2 17 2 -12 
2 8 2 0 2 -13 2 17 2 0 2 -8 2 8 2 -8 
2 -4 2 12 2 -12 2 4 2 8 2 -12 2 8 2 0 
2 -13 2 13 2 4 2 -8 2 8 2 -4 2 -8 2 8 
2 4 2 5 2 -5 2 -12 2 8 2 0 2 -8 2 12 
2 0 2 -4 2 0 2 0 2 -4 2 8 2 -4 2 -13 
2 17 2 -8 2 8 2 -4 2 -13 2 17 2 -17 2 13 
2 4 2 -17 2 13 2 0 2 -21 2 25 2 17 2 -17 
2 -8 2 0 2 4 2 9 2 -5 2 -4 2 4 2 -8 
2 8 2 -4 2 -4 2756 6802 300 MP stroke
2 8 2 0 2 -4 2 9 2 -17 2 12 2 5 2 -13 
2 4 2 4 2 -8 2 8 2 0 2 -17 2 17 2 0 
2 -8 2 13 2 -13 2 -4 2 21 2 -17 2 4 2 4 
2 -8 2 8 2 -4 2 -13 2 17 2 0 2 -4 2 4 
2 -4 2 -8 2 21 2 -17 2 4 2 4 2 -8 2 8 
2 0 2 -17 2 17 2 0 2 -8 2 8 2 -8 2 -4 
2 21 2 -17 2 4 2 4 2 -12 2 12 2 0 2 -17 
2 17 2 0 2 -8 2 8 2 -8 2 0 2 17 2 -17 
2 4 2 4 2 -12 2 12 2 0 2 -17 2 22 2 -5 
2 -8 2 8 2 -4 2 -4 2 13 2 -13 2 4 2 4 
2 -8 2 8 2 0 2 -17 2 17 2 0 2 -4 2 4 
2 -4 2 -4 2 17 2 -17 2 4 2 4 2 -8 2 8 
2 0 2 -17 2 17 2 0 2 -4 2 4 2 -8 2 0 
2 17 2 -17 2 4 2 4 2 -8 2 8 2 0 2 -17 
2 17 2 0 2 -8 2 8 2 -8 2 0 2 13 2 -13 
2 4 2 4 2 -12 2 12 2 -4 2 -13 2 17 2 0 
2 -12 2 12 2 -12 2 -5 2 17 2 -8 2 0 2 8 
2 -12 2 4 2 4 2 -8 2 12 2 0 2 -8 2 8 
2 -4 2 -8 2 12 2 -12 2 4 2 8 2 -12 2 8 
2 0 2 -8 2 12 2 0 2 -8 2 8 2 -4 2 -8 
2 12 2 -17 2 9 2 8 2 -12 2 8 2 4 2 -17 
2 17 2 0 2 -12 2 12 2 -4 2 -8 2 12 2 -12 
2 4 2 8 2 -12 2 4 2 4 2 -13 2 17 2 0 
2 -12 2 12 2 -8 2 -9 2 17 2 -17 2 0 2 17 
2 -12 2 8 2 0 2 -13 2 17 2 0 2 -8 2 8 
2 -4 2 -8 2 12 2 -17 2 9 2 8 2 -12 2 8 
2 0 2 -13 2 17 2 0 2 -8 2 4 2 0 2 -4 
2 4 2 4 2 5 2 -5 2 -12 2 8 2 0 2 -8 
2 12 2 0 2 -4 2 0 2 0 2 0 2 4 2 -4 
2 -13 2 17 2 -8 2 8 2 -4 2 -13 2 17 2 -17 
2 13 2 4 2 -17 2 13 2 0 2 -21 2 25 2 17 
2 -21 2 0 2 -4 2 8 2 5 2 -5 2 -4 2 4 
2 -8 2 8 2 -4 2 -4 2 4 2 4 2 -4 2 4 
2 -12 2 12 2 5 2 -13 2 4 2 4 2 -12 2 12 
2 -4 2 -13 2 17 2 0 2 -8 2 8 2 -4 2 -8 
2 17 2 -13 2 4 2 4 2 -8 2 8 2 0 2 -17 
2 17 2 0 2 -8 2 8 2 -8 2 0 2 13 2 -17 
2 8 2 4 2 -12 2158 6806 300 MP stroke
2 12 2 0 2 -17 2 17 2 0 2 -8 2 8 2 -8 
2 -4 2 21 2 -21 2 8 2 4 2 -8 2 8 2 -4 
2 -13 2 17 2 0 2 -4 2 4 2 -8 2 0 2 13 
2 -13 2 4 2 4 2 -8 2 8 2 0 2 -17 2 17 
2 0 2 -8 2 13 2 -9 2 -8 2 17 2 -13 2 4 
2 4 2 -12 2 12 2 0 2 -17 2 17 2 0 2 -4 
2 4 2 -4 2 -4 2 13 2 -13 2 4 2 4 2 -12 
2 12 2 -4 2 -13 2 17 2 0 2 -4 2 9 2 -13 
2 0 2 17 2 -17 2 4 2 4 2 -12 2 12 2 0 
2 -17 2 17 2 0 2 -8 2 8 2 -8 2 0 2 13 
2 -13 2 4 2 4 2 -12 2 12 2 0 2 -17 2 17 
2 0 2 -8 2 8 2 -12 2 0 2 12 2 -8 2 0 
2 8 2 -12 2 8 2 0 2 -13 2 17 2 0 2 -12 
2 12 2 -4 2 -8 2 12 1 -8 1941 6802 110 MP stroke
gr

c10
1 sg
0 1700 4996 0 0 -1700 8513 7015 4 MP
PP
-4996 0 0 1700 4996 0 0 -1700 8513 7015 5 MP stroke
4 w
DO
SO
6 w
0 sg
8513 7015 mt 13509 7015 L
8513 5315 mt 13509 5315 L
8513 7015 mt 8513 5315 L
13509 7015 mt 13509 5315 L
8513 7015 mt 13509 7015 L
8513 7015 mt 8513 5315 L
8513 7015 mt 8513 6965 L
8513 5315 mt 8513 5364 L
8360 7160 mt 
(-2.5) s
9012 7015 mt 9012 6965 L
9012 5315 mt 9012 5364 L
8909 7160 mt 
(-2) s
9512 7015 mt 9512 6965 L
9512 5315 mt 9512 5364 L
9359 7160 mt 
(-1.5) s
10011 7015 mt 10011 6965 L
10011 5315 mt 10011 5364 L
9908 7160 mt 
(-1) s
10511 7015 mt 10511 6965 L
10511 5315 mt 10511 5364 L
10358 7160 mt 
(-0.5) s
11011 7015 mt 11011 6965 L
11011 5315 mt 11011 5364 L
10978 7160 mt 
(0) s
11510 7015 mt 11510 6965 L
11510 5315 mt 11510 5364 L
11427 7160 mt 
(0.5) s
12010 7015 mt 12010 6965 L
12010 5315 mt 12010 5364 L
11977 7160 mt 
(1) s
12509 7015 mt 12509 6965 L
12509 5315 mt 12509 5364 L
12426 7160 mt 
(1.5) s
13009 7015 mt 13009 6965 L
13009 5315 mt 13009 5364 L
12976 7160 mt 
(2) s
13509 7015 mt 13509 6965 L
13509 5315 mt 13509 5364 L
13426 7160 mt 
(2.5) s
13192 7362 mt 
(x 10) s
%%IncludeResource: font Helvetica
/Helvetica /ISOLatin1Encoding 80 FMSR

13418 7288 mt 
(-5) s
8513 6802 mt 8562 6802 L
13509 6802 mt 13459 6802 L
%%IncludeResource: font Helvetica
/Helvetica /ISOLatin1Encoding 120 FMSR

8412 6846 mt 
(0) s
8513 6377 mt 8562 6377 L
13509 6377 mt 13459 6377 L
8412 6421 mt 
(2) s
8513 5952 mt 8562 5952 L
13509 5952 mt 13459 5952 L
8412 5996 mt 
(4) s
8513 5527 mt 8562 5527 L
13509 5527 mt 13459 5527 L
8412 5571 mt 
(6) s
8513 7015 mt 13509 7015 L
8513 5315 mt 13509 5315 L
8513 7015 mt 8513 5315 L
13509 7015 mt 13509 5315 L
gs 8513 5315 4997 1701 rc
c10
1 -17 2 34 2 0 2 17 2 0 2 0 2 34 2 -34 
2 -17 2 8 2 9 2 -9 2 9 2 -26 2 -25 2 34 
2 8 2 0 2 9 2 -9 2 9 2 17 2 -34 2 8 
2 9 2 0 2 0 2 -26 2 -34 2 43 2 0 2 8 
2 9 2 -17 2 17 2 17 2 -34 2 17 2 0 2 -9 
2 -8 2 0 2 -34 2 34 2 0 2 0 2 8 2 0 
2 9 2 17 2 -17 2 -17 2 8 2 9 2 8 2 -34 
2 -25 2 34 2 0 2 8 2 9 2 -9 2 9 2 17 
2 -34 2 8 2 9 2 -9 2 9 2 -26 2 -25 2 34 
2 0 2 8 2 9 2 -17 2 17 2 17 2 -34 2 0 
2 17 2 0 2 0 2 -26 2 -25 2 34 2 0 2 8 
2 9 2 -17 2 17 2 17 2 -34 2 8 2 9 2 0 
2 0 2 -26 2 -25 2 34 2 0 2 8 2 9 2 -17 
2 17 2 17 2 -34 2 8 2 9 2 -9 2 9 2 -26 
2 -34 2 51 2 -8 2 8 2 9 2 -9 2 9 2 17 
2 -26 2 0 2 9 2 0 2 0 2 -26 2 -25 2 34 
2 0 2 8 2 9 2 -17 2 17 2 17 2 -34 2 17 
2 0 2 -9 2 0 2 -17 2 -25 2 34 2 0 2 8 
2 9 2 -17 2 17 2 17 2 -34 2 8 2 9 2 -17 
2 17 2 -17 2 -34 2 34 2 8 2 0 2 9 2 -9 
2 0 2 26 2 -26 2 0 2 9 2 -9 2 9 2 -26 
2 -42 2 42 2 0 2 -34 2 -17 2 -42 2 119 2 17 
2 -34 2 8 2 9 2 -9 2 9 2 -17 2 -34 2 34 
2 8 2 0 2 9 2 0 2 0 2 8 2 -25 2 8 
2 9 2 0 2 0 2 -17 2 -34 2 34 2 8 2 0 
2 9 2 -9 2 9 2 8 2 -25 2 8 2 9 2 -9 
2 9 2 -17 2 -26 2 26 2 0 2 8 2 9 2 0 
2 0 2 17 2 -26 2 0 2 9 2 -9 2 9 2 -17 
2 -34 2 34 2 8 2 0 2 9 2 0 2 0 2 25 
2 -34 2 0 2 9 2 0 2 0 2 -9 2 -51 2 43 
2 8 2 9 2 25 2 -17 2 9 2 -9 2 -8 2 -26 
2 0 2 51 2 -85 2 94 2 -60 2 9 2 8 2 0 
2 9 2 0 2 0 2 -9 2 -42 2 34 2 8 2 9 
2 0 2 0 2 17 2 -9 2 -8 2 -17 2 0 2 17 
2 0 2 -26 2 -34 2 43 2 0 2 8 2 9 2 -9 
2 9 2 17 2 -34 2 8 2 9 2 0 2 0 2 -26 
2 -34 2 43 2 0 2 8 2 0 2 -8 2 17 2 17 
2 -34 2 8 2 9 12913 5425 300 MP stroke
2 -9 2 -8 2 0 2 -34 2 34 2 0 2 0 2 17 
2 -9 2 9 2 17 2 -17 2 -17 2 0 2 17 2 0 
2 -26 2 -34 2 43 2 0 2 8 2 9 2 -17 2 17 
2 17 2 -34 2 8 2 9 2 -9 2 9 2 -26 2 -25 
2 34 2 0 2 8 2 9 2 -17 2 17 2 17 2 -34 
2 8 2 9 2 0 2 0 2 -17 2 -43 2 43 2 0 
2 8 2 0 2 -8 2 17 2 17 2 -34 2 8 2 9 
2 -9 2 9 2 -26 2 -25 2 34 2 0 2 8 2 9 
2 -17 2 17 2 17 2 -34 2 8 2 9 2 0 2 0 
2 -26 2 -25 2 34 2 0 2 8 2 9 2 -17 2 17 
2 17 2 -34 2 8 2 9 2 0 2 0 2 -26 2 -34 
2 43 2 0 2 8 2 9 2 -17 2 17 2 17 2 -34 
2 17 2 -9 2 0 2 -8 2 -9 2 -25 2 34 2 0 
2 8 2 9 2 -17 2 17 2 17 2 -43 2 17 2 9 
2 -17 2 17 2 -26 2 -25 2 42 2 0 2 0 2 9 
2 -9 2 9 2 17 2 -26 2 0 2 9 2 -9 2 9 
2 -26 2 -42 2 42 2 -8 2 -26 2 -17 2 -42 2 119 
2 17 2 -34 2 8 2 9 2 -9 2 9 2 -17 2 -43 
2 43 2 8 2 0 2 9 2 0 2 0 2 17 2 -34 
2 8 2 9 2 -9 2 9 2 -17 2 -34 2 34 2 0 
2 8 2 9 2 -9 2 0 2 26 2 -26 2 0 2 9 
2 -9 2 9 2 -9 2 -34 2 26 2 8 2 0 2 9 
2 -9 2 9 2 17 2 -34 2 0 2 17 2 -9 2 9 
2 -17 2 -34 2 34 2 0 2 8 2 9 2 0 2 0 
2 17 2 -26 2 0 2 9 2 0 2 0 2 -9 2 -51 
2 43 2 8 2 9 2 17 2 0 2 0 2 -9 2 -8 
2 -17 2 -9 2 51 2 -85 2 94 2 -60 2 9 2 8 
2 -8 2 17 2 0 2 0 2 -17 2 -43 2 43 2 8 
2 9 2 0 2 0 2 25 2 -25 2 0 2 -17 2 0 
2 17 2 0 2 -26 2 -34 2 43 2 0 2 8 2 9 
2 -17 2 17 2 17 2 -34 2 8 2 9 2 0 2 0 
2 -26 2 -34 2 43 2 0 2 8 2 9 2 -17 2 17 
2 17 2 -34 2 8 2 9 2 -9 2 -8 2 -9 2 -25 
2 34 2 0 2 8 2 9 2 -9 2 9 2 17 2 -17 
2 -17 2 8 2 9 2 0 2 -26 2 -34 2 43 2 0 
2 8 2 9 2 -17 2 17 2 17 2 -34 2 8 2 9 
2 0 2 0 2 -26 2 -34 2 43 2 0 2 8 2 9 
2 -17 2 17 2 17 12315 5408 300 MP stroke
2 -34 2 0 2 17 2 0 2 0 2 -26 2 -34 2 43 
2 0 2 8 2 9 2 -17 2 17 2 17 2 -34 2 8 
2 9 2 -9 2 9 2 -26 2 -25 2 34 2 0 2 17 
2 0 2 -17 2 17 1 17 2 -34 2 8 2 9 2 0 
2 0 2 -26 2 -34 2 43 2 0 2 17 2 0 2 -17 
2 17 2 17 2 -34 2 8 2 9 2 0 2 0 2 -26 
2 -25 2 34 2 0 2 8 2 9 2 -17 2 17 2 17 
2 -34 2 17 2 -9 2 0 2 -8 2 0 2 -34 2 34 
2 0 2 8 2 9 2 -17 2 17 2 17 2 -34 2 17 
2 0 2 -17 2 17 2 -26 2 -25 2 34 2 8 2 0 
2 9 2 -9 2 9 2 17 2 -26 2 0 2 9 2 -9 
2 9 2 -26 2 -42 2 42 2 -8 2 -26 2 -25 2 -34 
2 119 2 17 2 -34 2 8 2 9 2 -9 2 9 2 -26 
2 -25 2 34 2 0 2 8 2 9 2 -9 2 9 2 17 
2 -34 2 8 2 9 2 -9 2 9 2 -17 2 -34 2 34 
2 8 2 0 2 9 2 -9 2 9 2 17 2 -34 2 8 
2 9 2 -9 2 9 2 -9 2 -34 2 26 2 0 2 8 
2 9 2 -9 2 9 2 25 2 -42 2 8 2 9 2 -9 
2 9 2 -17 2 -43 2 43 2 8 2 0 2 9 2 0 
2 0 2 25 2 -34 2 0 2 9 2 0 2 0 2 -9 
2 -51 2 43 2 8 2 9 2 25 2 -8 2 0 2 -9 
2 -8 2 -26 2 0 2 51 2 -85 2 94 2 -51 2 0 
2 8 2 0 2 9 2 0 2 0 2 -17 2 -43 2 51 
2 0 2 9 2 0 2 -9 2 34 2 -8 2 -34 2 8 
2 9 2 -9 2 9 2 -17 2 -34 2 34 2 8 2 0 
2 9 2 -9 2 9 2 17 2 -17 2 -17 2 8 2 9 
2 8 2 -25 2 -34 2 34 2 0 2 8 2 9 2 -17 
2 17 2 25 2 -42 2 17 2 0 2 -9 2 -8 2 0 
2 -34 2 42 2 -8 2 8 2 9 2 -9 2 9 2 25 
2 -25 2 -17 2 8 2 9 2 8 2 -34 2 -25 2 42 
2 -8 2 8 2 9 2 -9 2 9 2 25 2 -34 2 0 
2 9 2 0 2 0 2 -17 2 -34 2 42 2 0 2 0 
2 9 2 -17 2 17 2 25 2 -42 2 17 2 0 2 0 
2 0 2 -17 2 -34 2 42 2 0 2 9 2 0 2 -9 
2 17 2 17 2 -34 2 9 2 0 2 0 2 0 2 -17 
2 -34 2 42 2 0 2 9 2 0 2 -9 2 9 2 25 
2 -34 2 9 2 0 2 0 2 0 2 -17 2 -34 2 42 
2 0 2 9 2 0 11718 5425 300 MP stroke
2 -9 2 17 2 17 2 -42 2 17 2 0 2 0 2 0 
2 -17 2 -34 2 42 2 0 2 9 2 0 2 -9 2 17 
2 17 2 -34 2 9 2 0 2 0 2 -9 2 -8 2 -26 
2 34 2 0 2 9 2 0 2 -17 2 25 2 17 2 -25 
2 0 2 0 2 -9 2 17 2 -17 2 -34 2 34 2 9 
2 0 2 0 2 0 2 0 2 25 2 -25 2 -9 2 9 
2 0 2 0 2 -26 2 -34 2 34 2 0 2 -25 2 -17 
2 -43 2 119 2 17 2 -25 2 0 2 8 2 -8 2 8 
2 -17 2 -34 2 34 2 0 2 9 2 8 2 -8 2 8 
2 17 2 -25 2 0 2 8 2 -8 2 8 2 -17 2 -34 
2 43 2 0 2 0 2 0 2 0 2 0 2 25 2 -25 
2 0 2 17 2 -17 2 8 2 -8 2 -26 2 26 2 0 
2 0 2 8 2 -8 2 8 2 26 2 -34 2 0 2 8 
2 -8 2 8 2 -8 2 -43 2 43 2 0 2 0 2 8 
2 -8 2 17 2 17 2 -34 2 0 2 8 2 -8 2 0 
2 0 2 -43 2 43 2 0 2 0 2 17 2 -9 2 9 
2 0 2 -17 2 -9 2 0 2 43 2 -77 2 77 2 -43 
2 -8 2 17 2 -9 2 9 2 -17 2 17 2 -9 2 -51 
2 34 2 0 2 9 2 0 2 0 2 17 2 -9 2 -25 
2 -9 2 0 2 -17 2 17 2 -17 2 -34 2 26 2 -9 
2 0 2 0 2 -8 2 0 2 17 2 -43 2 9 2 -17 
2 0 2 -17 2 8 2 -42 2 25 2 -8 2 0 2 0 
2 -17 2 8 2 9 2 -34 2 0 2 0 2 -26 2 26 
2 -26 2 -34 2 26 2 -17 2 0 2 17 2 -26 2 9 
2 8 2 -42 2 0 2 8 2 -17 2 9 2 -9 2 -51 
2 34 2 -8 2 -9 2 17 2 -25 2 0 2 17 2 -34 
2 -17 2 0 2 0 2 8 2 -17 2 -51 2 34 2 -8 
2 0 2 0 2 -17 2 8 2 9 2 -34 2 0 2 0 
2 -17 2 8 2 -8 2 -51 2 25 2 -8 2 0 2 8 
2 -17 2 0 2 17 2 -42 2 8 2 -8 2 -9 2 -17 
2 17 2 -51 2 26 2 -9 2 0 2 9 2 -26 2 0 
2 26 2 -34 2 -17 2 -9 2 9 2 8 2 -17 2 -51 
2 34 2 -17 2 0 2 0 2 -8 2 8 2 9 2 -34 
2 0 2 -9 2 -8 2 -9 2 0 2 -42 2 34 2 -17 
2 0 2 8 2 -25 2 8 2 17 2 -51 2 9 2 0 
2 -17 2 8 2 -8 2 -51 2 34 2 -9 2 0 2 0 
2 -17 2 9 2 8 2 -42 2 17 2 -9 2 -25 2 17 
2 -17 2 -51 2 34 11120 6292 300 MP stroke
2 -9 2 0 2 17 2 -25 2 0 2 17 2 -43 2 0 
2 0 2 -17 2 17 2 -17 2 -42 2 34 2 -17 2 -17 
2 -9 2 -17 2 26 2 17 2 -34 2 -9 2 9 2 -17 
2 0 2 0 2 -60 2 43 2 -9 2 0 2 17 2 -17 
2 -17 2 17 2 -34 2 0 2 0 2 -25 2 17 2 -17 
2 -34 2 25 2 -8 2 0 2 8 2 -25 2 -9 2 17 
2 -34 2 0 2 9 2 -26 2 17 2 -8 1 -51 2 25 
2 0 2 -8 2 8 2 -17 2 0 2 17 2 -34 2 -8 
2 8 2 -17 2 0 2 -8 2 -51 2 34 2 -9 2 -8 
2 17 2 -17 2 0 2 8 2 -34 2 -8 2 8 2 -17 
2 0 2 0 2 -42 2 34 2 -9 2 0 2 9 2 -26 
2 -8 2 34 2 -26 2 -17 2 9 2 0 2 -26 2 26 
2 -9 2 0 2 9 2 -9 2 9 2 -26 2 17 2 9 
2 -43 2 43 2 0 2 -17 2 42 2 -34 2 9 2 25 
2 -25 2 0 2 8 2 -17 2 9 2 0 2 -34 2 42 
2 0 2 9 2 17 2 -9 2 17 2 26 2 -43 2 0 
2 -25 2 -17 2 17 2 -43 2 17 2 77 2 -68 2 8 
2 9 2 -26 2 17 2 34 2 -34 2 0 2 9 2 -26 
2 26 2 -9 2 -34 2 43 2 -17 2 0 2 17 2 -26 
2 17 2 34 2 -34 2 0 2 9 2 -34 2 34 2 -9 
2 -34 2 43 2 -17 2 8 2 9 2 -26 2 17 2 34 
2 -34 2 9 2 0 2 -26 2 26 2 -9 2 -34 2 43 
2 -17 2 8 2 9 2 -26 2 17 2 34 2 -34 2 9 
2 0 2 -26 2 26 2 -9 2 -34 2 43 2 -17 2 8 
2 9 2 -26 2 26 2 25 2 -34 2 9 2 0 2 -34 
2 34 2 -9 2 -34 2 43 2 -17 2 8 2 9 2 -26 
2 26 2 25 2 -34 2 9 2 0 2 -34 2 34 2 -9 
2 -34 2 43 2 -17 2 8 2 9 2 -26 2 17 2 34 
2 -34 2 0 2 9 2 -26 2 26 2 -9 2 -34 2 43 
2 -17 2 8 2 9 2 -26 2 26 2 25 2 -34 2 9 
2 0 2 -26 2 26 2 -9 2 -34 2 43 2 -17 2 8 
2 9 2 -34 2 34 2 25 2 -42 2 8 2 9 2 -34 
2 34 2 -9 2 -42 2 51 2 -9 2 -8 2 17 2 -17 
2 8 2 34 2 -34 2 0 2 9 2 -26 2 17 2 0 
2 -42 2 42 2 -8 2 8 2 9 2 -17 2 8 2 34 
2 -34 2 0 2 0 2 -25 2 25 2 0 2 -42 2 42 
2 -8 2 0 2 17 2 -26 2 17 2 34 2 -34 2 0 
2 0 2 -25 2 25 10523 6794 300 MP stroke
2 0 2 -34 2 34 2 -8 2 0 2 17 2 -26 2 9 
2 42 2 -42 2 0 2 17 2 -34 2 17 2 17 2 -43 
2 43 2 -9 2 -8 2 17 2 -17 2 8 2 34 2 -34 
2 0 2 0 2 -25 2 25 2 0 2 -42 2 51 2 -17 
2 8 2 9 2 -17 2 8 2 34 2 -25 2 -9 2 9 
2 -17 2 8 2 9 2 -43 2 34 2 0 2 -8 2 17 
2 -17 2 0 2 34 2 -17 2 -17 2 8 2 0 2 -17 
2 26 2 -17 2 8 2 0 2 0 2 9 2 -34 2 17 
2 17 2 -51 2 51 2 -17 2 0 2 34 2 -43 2 26 
2 17 2 -34 2 17 2 0 2 -34 2 34 2 -9 2 -34 
2 43 2 -17 2 8 2 9 2 -26 2 17 2 34 2 -34 
2 0 2 9 2 -26 2 26 2 -9 2 -34 2 43 2 -17 
2 8 2 9 2 -26 2 17 2 34 2 -34 2 9 2 0 
2 -26 2 26 2 -9 2 -34 2 43 2 -17 2 0 2 17 
2 -26 2 17 2 34 2 -34 2 9 2 0 2 -26 2 26 
2 -9 2 -34 2 43 2 -17 2 8 2 9 2 -26 2 26 
2 25 2 -34 2 9 2 0 2 -34 2 34 2 -9 2 -34 
2 43 2 -17 2 8 2 9 2 -26 2 26 2 25 2 -34 
2 0 2 9 2 -26 2 26 2 -9 2 -34 2 43 2 -9 
2 0 2 9 2 -26 2 17 2 34 2 -34 2 9 2 0 
2 -26 2 26 2 -9 2 -34 2 34 2 -8 2 8 2 9 
2 -26 2 26 2 25 2 -34 2 0 2 9 2 -26 2 26 
2 -9 2 -34 2 43 2 -17 2 8 2 9 2 -26 2 26 
2 25 2 -34 2 9 2 0 2 -26 2 17 2 0 2 -25 
2 34 2 -17 2 8 2 9 2 -26 2 26 2 25 2 -42 
2 17 2 0 2 -34 2 34 2 -9 2 -34 2 43 2 -17 
2 8 2 9 2 -34 2 34 2 25 2 -51 2 17 2 0 
2 -25 2 34 2 -9 2 -34 2 34 2 -8 2 0 2 17 
2 -17 2 8 2 34 2 -34 2 0 2 9 2 -34 2 25 
2 0 2 -42 2 42 2 -8 2 8 2 9 2 -17 2 0 
2 42 2 -34 2 0 2 0 2 -25 2 25 2 0 2 -34 
2 34 2 -8 2 0 2 17 2 -26 2 17 2 34 2 -42 
2 8 2 9 2 -34 2 17 2 8 2 -42 2 42 2 -8 
2 8 2 9 2 -17 2 0 2 42 2 -42 2 8 2 9 
2 -34 2 8 2 17 2 -34 2 43 2 -17 2 0 2 17 
2 -17 2 8 2 34 2 -34 2 0 2 9 2 -34 2 25 
2 0 2 -42 2 51 2 -17 2 0 2 17 2 -17 2 8 
2 34 2 -34 2 0 9925 6794 300 MP stroke
2 0 2 -8 2 8 2 9 2 -43 2 34 2 -8 2 0 
2 17 2 -17 2 8 2 34 2 -25 2 -17 2 8 2 0 
2 -17 2 26 2 -17 2 8 2 0 2 0 2 9 2 -34 
2 25 2 0 2 -42 2 51 2 -9 2 -8 2 34 2 -43 
2 26 2 17 2 -26 2 0 2 9 2 -34 2 34 2 -9 
2 -34 2 43 2 -17 2 0 2 17 2 -34 2 34 2 25 
2 -34 2 0 2 9 2 -34 2 25 2 0 2 -34 2 43 
2 -17 2 8 2 9 2 -26 2 26 2 25 2 -42 2 17 
2 0 2 -34 2 34 2 -9 2 -34 2 43 2 -17 2 8 
2 9 2 -26 2 26 2 25 2 -34 2 0 2 9 2 -34 
2 34 1 -9 2 -34 2 43 2 -17 2 8 2 9 2 -26 
2 17 2 34 2 -42 2 17 2 0 2 -34 2 34 2 -9 
2 -34 2 43 2 -17 2 8 2 9 2 -26 2 26 2 25 
2 -34 2 9 2 0 2 -26 2 26 2 -9 2 -34 2 43 
2 -9 2 0 2 9 2 -26 2 26 2 25 2 -34 2 9 
2 -9 2 -25 2 34 2 -9 2 -34 2 43 2 -17 2 8 
2 9 2 -26 2 26 2 25 2 -34 2 9 2 0 2 -34 
2 34 2 -9 2 -34 2 43 2 -17 2 8 2 9 2 -26 
2 26 2 25 2 -34 2 9 2 0 2 -26 2 26 2 -9 
2 -34 2 43 2 -17 2 8 2 9 2 -26 2 26 2 25 
2 -42 2 17 2 -9 2 -17 2 26 2 -9 2 -34 2 43 
2 -17 2 8 2 9 2 -34 2 25 2 34 2 -42 2 17 
2 -9 2 -25 2 34 2 -9 2 -42 2 42 2 0 2 -8 
2 17 2 -17 2 8 2 34 2 -34 2 0 2 9 2 -26 
2 17 2 0 2 -42 2 42 2 0 2 0 2 9 2 -17 
2 8 2 34 2 -34 2 0 2 9 2 -34 2 25 2 0 
2 -42 2 42 2 0 2 -8 2 17 2 -17 2 8 2 34 
2 -34 2 0 2 9 2 -34 2 25 2 0 2 -42 2 51 
2 -17 2 0 2 17 2 -26 2 9 2 42 2 -42 2 0 
2 17 2 -34 2 17 2 8 2 -34 2 34 2 0 2 -8 
2 17 2 -17 2 8 2 34 2 -34 2 0 2 9 2 -34 
2 25 2 0 2 -42 2 51 2 -9 2 -8 2 17 2 -17 
2 17 2 25 2 -25 2 -9 2 0 2 0 2 0 2 9 
2 -34 2 34 2 -17 2 0 2 17 2 -17 2 0 2 42 
2 -25 2 -17 2 8 2 0 2 -17 2 26 2 -17 2 0 
2 8 2 0 2 9 2 -34 2 17 2 8 2 -42 2 51 
2 -17 2 0 2 34 2 -51 2 34 2 25 2 -34 2 9 
2 0 2 -34 2 34 9328 6785 300 MP stroke
2 -9 2 -34 2 43 2 -17 2 8 2 9 2 -26 2 26 
2 25 2 -34 2 9 2 0 2 -34 2 34 2 -9 2 -25 
2 34 2 -17 2 8 2 9 2 -26 2 26 2 25 2 -42 
2 17 2 0 2 -26 2 26 2 -9 2 -34 2 43 2 -17 
2 8 2 9 2 -26 2 26 2 25 2 -34 2 9 2 0 
2 -26 2 26 2 -9 2 -34 2 43 2 -17 2 8 2 9 
2 -26 2 26 2 25 2 -42 2 17 2 0 2 -34 2 25 
2 0 2 -34 2 43 2 -17 2 8 2 9 2 -26 2 26 
2 25 2 -42 2 17 2 0 2 -26 2 26 2 -9 2 -34 
2 43 2 -17 2 8 2 9 2 -26 2 26 2 25 2 -42 
2 8 2 9 2 -34 2 34 2 -9 2 -34 2 43 2 -17 
2 8 2 9 2 -26 2 26 2 25 2 -42 2 17 2 0 
2 -26 2 26 2 -9 2 -34 2 34 2 -8 2 8 2 9 
2 -34 2 25 2 34 2 -34 2 9 2 0 2 -26 2 26 
2 -9 2 -34 2 43 2 -17 2 8 2 9 2 -26 2 26 
2 25 2 -42 2 17 2 0 2 -34 2 34 2 -9 2 -34 
2 43 2 -17 2 8 2 9 2 -34 2 34 2 25 2 -42 
2 17 2 -9 2 -25 2 34 2 -17 2 -34 2 42 2 0 
2 0 2 9 2 -26 2 26 2 25 2 -34 2 0 2 9 
2 -34 2 25 2 0 2 -42 2 42 2 -8 2 8 2 9 
2 -17 2 8 2 34 2 -34 2 0 2 9 2 -34 2 25 
2 0 2 -42 2 51 2 -9 2 0 2 9 2 -17 2 8 
2 34 2 -34 2 0 2 9 2 -34 2 25 2 0 2 -42 
2 42 2 0 2 -8 2 17 2 -17 2 0 2 42 2 -34 
2 -8 2 17 2 -34 2 17 2 8 2 -34 2 43 2 -9 
2 -8 2 17 2 -17 2 17 2 25 2 -34 2 0 2 9 
2 -34 2 25 2 0 2 -42 2 51 2 -17 2 0 2 17 
2 -17 2 17 2 25 2 -25 2 -9 2 9 2 -9 2 0 
2 9 2 -34 2 25 2 0 2 -8 2 17 2 -17 2 8 
2 34 2 -25 2 -17 2 8 2 0 2 -17 2 26 2 -17 
2 0 2 8 2 0 2 9 2 -34 2 17 2 8 2 -42 
2 51 2 -17 2 0 2 34 2 -51 2 34 2 17 2 -34 
2 17 2 0 2 -34 2 34 2 -9 2 -34 2 43 2 -17 
2 8 2 9 2 -26 2 26 2 25 2 -34 2 9 2 0 
2 -26 2 26 2 -9 2 -34 2 43 2 -17 2 8 2 9 
2 -26 2 17 2 34 2 -34 2 9 2 0 2 -26 2 26 
2 -9 2 -34 2 43 2 -17 2 8 2 9 2 -26 2 26 
2 25 2 -34 2 9 8730 6785 300 MP stroke
2 0 2 -26 2 26 2 -9 2 -34 2 34 2 -8 2 8 
2 9 2 -26 2 26 2 25 2 -42 2 8 2 9 2 -26 
2 26 2 -17 2 -26 2 43 2 -17 2 8 2 9 2 -26 
2 26 2 25 2 -34 2 9 2 0 2 -34 2 34 2 -9 
2 -34 2 43 2 -17 2 8 2 9 2 -26 2 26 2 25 
2 -34 2 9 2 0 2 -26 2 26 2 -9 2 -34 2 43 
2 -17 2 8 2 9 2 -26 2 26 2 25 2 -42 2 17 
2 0 2 -26 2 26 2 -9 2 -34 2 43 2 -17 2 8 
2 9 2 -26 2 26 2 25 2 -34 2 9 2 0 2 -26 
2 26 2 -9 2 -34 2 43 2 -17 2 8 2 9 2 -26 
2 26 2 25 2 -42 2 17 2 0 2 -26 2 26 2 -17 
2 -26 2 43 2 -17 2 8 2 9 2 -34 2 34 2 25 
2 -42 2 17 2 0 2 -34 2 34 2 -9 2 -42 2 42 
2 -8 2 8 2 9 2 -26 1 26 8513 6785 110 MP stroke
gr

c10

end %%Color Dict

eplot
%%EndObject

epage
end

showpage

%%Trailer
%%EOF
