%!PS-Adobe-3.0 EPSF-3.0
%%Creator: MATLAB, The MathWorks, Inc. Version 8.3.0.532 (R2014a). Operating System: Linux 3.19.0-31-generic #36-Ubuntu SMP Wed Oct 7 15:04:02 UTC 2015 x86_64.
%%Title: /home/nicolai/Desktop/led_r_no.eps
%%CreationDate: 10/31/2015  19:44:58
%%DocumentNeededFonts: Helvetica
%%DocumentProcessColors: Cyan Magenta Yellow Black
%%LanguageLevel: 2
%%Pages: 1
%%BoundingBox:    81   227   529   564
%%EndComments

%%BeginProlog
% MathWorks dictionary
/MathWorks 160 dict begin
% definition operators
/bdef {bind def} bind def
/ldef {load def} bind def
/xdef {exch def} bdef
/xstore {exch store} bdef
% operator abbreviations
/c  /clip ldef
/cc /concat ldef
/cp /closepath ldef
/gr /grestore ldef
/gs /gsave ldef
/mt /moveto ldef
/np /newpath ldef
/cm /currentmatrix ldef
/sm /setmatrix ldef
/rm /rmoveto ldef
/rl /rlineto ldef
/s {show newpath} bdef
/sc {setcmykcolor} bdef
/sr /setrgbcolor ldef
/sg /setgray ldef
/w /setlinewidth ldef
/j /setlinejoin ldef
/cap /setlinecap ldef
/rc {rectclip} bdef
/rf {rectfill} bdef
% page state control
/pgsv () def
/bpage {/pgsv save def} bdef
/epage {pgsv restore} bdef
/bplot /gsave ldef
/eplot {stroke grestore} bdef
% orientation switch
/portraitMode 0 def /landscapeMode 1 def /rotateMode 2 def
% coordinate system mappings
/dpi2point 0 def
% font control
/FontSize 0 def
/FMS {/FontSize xstore findfont [FontSize 0 0 FontSize neg 0 0]
  makefont setfont} bdef
/reencode {exch dup where {pop load} {pop StandardEncoding} ifelse
  exch dup 3 1 roll findfont dup length dict begin
  { 1 index /FID ne {def}{pop pop} ifelse } forall
  /Encoding exch def currentdict end definefont pop} bdef
/isroman {findfont /CharStrings get /Agrave known} bdef
/FMSR {3 1 roll 1 index dup isroman {reencode} {pop pop} ifelse
  exch FMS} bdef
/csm {1 dpi2point div -1 dpi2point div scale neg translate
 dup landscapeMode eq {pop -90 rotate}
  {rotateMode eq {90 rotate} if} ifelse} bdef
% line types: solid, dotted, dashed, dotdash
/SO { [] 0 setdash } bdef
/DO { [.5 dpi2point mul 4 dpi2point mul] 0 setdash } bdef
/DA { [6 dpi2point mul] 0 setdash } bdef
/DD { [.5 dpi2point mul 4 dpi2point mul 6 dpi2point mul 4
  dpi2point mul] 0 setdash } bdef
% macros for lines and objects
/L {lineto stroke} bdef
/MP {3 1 roll moveto 1 sub {rlineto} repeat} bdef
/AP {{rlineto} repeat} bdef
/PDlw -1 def
/W {/PDlw currentlinewidth def setlinewidth} def
/PP {closepath eofill} bdef
/DP {closepath stroke} bdef
/MR {4 -2 roll moveto dup  0 exch rlineto exch 0 rlineto
  neg 0 exch rlineto closepath} bdef
/FR {MR stroke} bdef
/PR {MR fill} bdef
/L1i {{currentfile picstr readhexstring pop} image} bdef
/tMatrix matrix def
/MakeOval {newpath tMatrix currentmatrix pop translate scale
0 0 1 0 360 arc tMatrix setmatrix} bdef
/FO {MakeOval stroke} bdef
/PO {MakeOval fill} bdef
/PD {currentlinewidth 2 div 0 360 arc fill
   PDlw -1 eq not {PDlw w /PDlw -1 def} if} def
/FA {newpath tMatrix currentmatrix pop translate scale
  0 0 1 5 -2 roll arc tMatrix setmatrix stroke} bdef
/PA {newpath tMatrix currentmatrix pop	translate 0 0 moveto scale
  0 0 1 5 -2 roll arc closepath tMatrix setmatrix fill} bdef
/FAn {newpath tMatrix currentmatrix pop translate scale
  0 0 1 5 -2 roll arcn tMatrix setmatrix stroke} bdef
/PAn {newpath tMatrix currentmatrix pop translate 0 0 moveto scale
  0 0 1 5 -2 roll arcn closepath tMatrix setmatrix fill} bdef
/vradius 0 def /hradius 0 def /lry 0 def
/lrx 0 def /uly 0 def /ulx 0 def /rad 0 def
/MRR {/vradius xdef /hradius xdef /lry xdef /lrx xdef /uly xdef
  /ulx xdef newpath tMatrix currentmatrix pop ulx hradius add uly
  vradius add translate hradius vradius scale 0 0 1 180 270 arc 
  tMatrix setmatrix lrx hradius sub uly vradius add translate
  hradius vradius scale 0 0 1 270 360 arc tMatrix setmatrix
  lrx hradius sub lry vradius sub translate hradius vradius scale
  0 0 1 0 90 arc tMatrix setmatrix ulx hradius add lry vradius sub
  translate hradius vradius scale 0 0 1 90 180 arc tMatrix setmatrix
  closepath} bdef
/FRR {MRR stroke } bdef
/PRR {MRR fill } bdef
/MlrRR {/lry xdef /lrx xdef /uly xdef /ulx xdef /rad lry uly sub 2 div def
  newpath tMatrix currentmatrix pop ulx rad add uly rad add translate
  rad rad scale 0 0 1 90 270 arc tMatrix setmatrix lrx rad sub lry rad
  sub translate rad rad scale 0 0 1 270 90 arc tMatrix setmatrix
  closepath} bdef
/FlrRR {MlrRR stroke } bdef
/PlrRR {MlrRR fill } bdef
/MtbRR {/lry xdef /lrx xdef /uly xdef /ulx xdef /rad lrx ulx sub 2 div def
  newpath tMatrix currentmatrix pop ulx rad add uly rad add translate
  rad rad scale 0 0 1 180 360 arc tMatrix setmatrix lrx rad sub lry rad
  sub translate rad rad scale 0 0 1 0 180 arc tMatrix setmatrix
  closepath} bdef
/FtbRR {MtbRR stroke } bdef
/PtbRR {MtbRR fill } bdef
/stri 6 array def /dtri 6 array def
/smat 6 array def /dmat 6 array def
/tmat1 6 array def /tmat2 6 array def /dif 3 array def
/asub {/ind2 exch def /ind1 exch def dup dup
  ind1 get exch ind2 get sub exch } bdef
/tri_to_matrix {
  2 0 asub 3 1 asub 4 0 asub 5 1 asub
  dup 0 get exch 1 get 7 -1 roll astore } bdef
/compute_transform {
  dmat dtri tri_to_matrix tmat1 invertmatrix 
  smat stri tri_to_matrix tmat2 concatmatrix } bdef
/ds {stri astore pop} bdef
/dt {dtri astore pop} bdef
/db {2 copy /cols xdef /rows xdef mul dup 3 mul string
  currentfile 
  3 index 0 eq {/ASCIIHexDecode filter}
  {/ASCII85Decode filter 3 index 2 eq {/RunLengthDecode filter} if }
  ifelse exch readstring pop
  dup 0 3 index getinterval /rbmap xdef
  dup 2 index dup getinterval /gbmap xdef
  1 index dup 2 mul exch getinterval /bbmap xdef pop pop}bdef
/it {gs np dtri aload pop moveto lineto lineto cp c
  cols rows 8 compute_transform 
  rbmap gbmap bbmap true 3 colorimage gr}bdef
/il {newpath moveto lineto stroke}bdef
currentdict end def
%%EndProlog

%%BeginSetup
MathWorks begin

0 cap

end
%%EndSetup

%%Page: 1 1
%%BeginPageSetup
%%PageBoundingBox:    81   227   529   564
MathWorks begin
bpage
%%EndPageSetup

%%BeginObject: obj1
bplot

/dpi2point 12 def
portraitMode 0972 6768 csm

    0     0  5376  4033 rc
85 dict begin %Colortable dictionary
/c0 { 0.000000 0.000000 0.000000 sr} bdef
/c1 { 1.000000 1.000000 1.000000 sr} bdef
/c2 { 0.900000 0.000000 0.000000 sr} bdef
/c3 { 0.000000 0.820000 0.000000 sr} bdef
/c4 { 0.000000 0.000000 0.800000 sr} bdef
/c5 { 0.910000 0.820000 0.320000 sr} bdef
/c6 { 1.000000 0.260000 0.820000 sr} bdef
/c7 { 0.000000 0.820000 0.820000 sr} bdef
c0
1 j
1 sg
   0    0 5377 4034 rf
6 w
0 3288 4166 0 0 -3288 699 3589 4 MP
PP
-4166 0 0 3288 4166 0 0 -3288 699 3589 5 MP stroke
4 w
DO
SO
6 w
0 sg
 699 3589 mt 4865 3589 L
 699  301 mt 4865  301 L
 699 3589 mt  699  301 L
4865 3589 mt 4865  301 L
 699 3589 mt 4865 3589 L
 699 3589 mt  699  301 L
 699 3589 mt  699 3547 L
 699  302 mt  699  343 L
%%IncludeResource: font Helvetica
/Helvetica /ISOLatin1Encoding 120 FMSR

 546 3734 mt 
(-2.5) s
1115 3589 mt 1115 3547 L
1115  302 mt 1115  343 L
1012 3734 mt 
(-2) s
1532 3589 mt 1532 3547 L
1532  302 mt 1532  343 L
1379 3734 mt 
(-1.5) s
1948 3589 mt 1948 3547 L
1948  302 mt 1948  343 L
1845 3734 mt 
(-1) s
2365 3589 mt 2365 3547 L
2365  302 mt 2365  343 L
2212 3734 mt 
(-0.5) s
2782 3589 mt 2782 3547 L
2782  302 mt 2782  343 L
2749 3734 mt 
(0) s
3198 3589 mt 3198 3547 L
3198  302 mt 3198  343 L
3115 3734 mt 
(0.5) s
3615 3589 mt 3615 3547 L
3615  302 mt 3615  343 L
3582 3734 mt 
(1) s
4031 3589 mt 4031 3547 L
4031  302 mt 4031  343 L
3948 3734 mt 
(1.5) s
4448 3589 mt 4448 3547 L
4448  302 mt 4448  343 L
4415 3734 mt 
(2) s
4864 3589 mt 4864 3547 L
4864  302 mt 4864  343 L
4781 3734 mt 
(2.5) s
4548 3936 mt 
(x 10) s
%%IncludeResource: font Helvetica
/Helvetica /ISOLatin1Encoding 80 FMSR

4774 3862 mt 
(-5) s
 699 3589 mt  740 3589 L
4865 3589 mt 4823 3589 L
%%IncludeResource: font Helvetica
/Helvetica /ISOLatin1Encoding 120 FMSR

 528 3633 mt 
(-1) s
 699 3260 mt  740 3260 L
4865 3260 mt 4823 3260 L
 428 3304 mt 
(-0.5) s
 699 2931 mt  740 2931 L
4865 2931 mt 4823 2931 L
 598 2975 mt 
(0) s
 699 2602 mt  740 2602 L
4865 2602 mt 4823 2602 L
 498 2646 mt 
(0.5) s
 699 2274 mt  740 2274 L
4865 2274 mt 4823 2274 L
 598 2318 mt 
(1) s
 699 1945 mt  740 1945 L
4865 1945 mt 4823 1945 L
 498 1989 mt 
(1.5) s
 699 1616 mt  740 1616 L
4865 1616 mt 4823 1616 L
 598 1660 mt 
(2) s
 699 1288 mt  740 1288 L
4865 1288 mt 4823 1288 L
 498 1332 mt 
(2.5) s
 699  959 mt  740  959 L
4865  959 mt 4823  959 L
 598 1003 mt 
(3) s
 699  630 mt  740  630 L
4865  630 mt 4823  630 L
 498  674 mt 
(3.5) s
 699  302 mt  740  302 L
4865  302 mt 4823  302 L
 598  346 mt 
(4) s
 699 3589 mt 4865 3589 L
 699  301 mt 4865  301 L
 699 3589 mt  699  301 L
4865 3589 mt 4865  301 L
gs 699 302 4167 3288 rc
/c8 { 1.000000 0.000000 0.000000 sr} bdef
c8
1 -32 2 -26 2 26 1 0 2 0 2 0 1 -52 2 0 
2 52 1 -26 2 26 2 0 1 0 2 53 2 -53 1 -26 
2 26 2 0 1 -26 2 52 2 -78 1 -27 2 79 2 -26 
1 26 2 0 2 0 1 26 2 -26 2 -26 1 26 2 0 
2 0 1 0 2 -52 2 0 1 52 2 -26 2 26 1 0 
2 0 2 26 1 -26 2 0 2 0 1 0 2 0 2 0 
1 0 2 0 2 0 1 -26 2 26 2 0 1 0 2 53 
2 -53 1 0 2 0 2 0 1 0 2 0 2 -26 1 -53 
2 79 2 -26 1 26 2 0 2 0 1 0 2 -52 2 0 
1 52 2 -26 2 26 1 26 2 -78 2 105 1 26 2 -105 
2 26 1 0 2 0 2 26 1 -52 2 0 2 26 1 -26 
2 26 2 0 1 -26 2 52 2 -26 1 0 2 0 2 0 
1 0 2 26 2 -52 1 0 2 26 2 -26 1 26 2 0 
2 -26 1 52 2 -26 2 -26 1 26 2 0 2 0 1 0 
2 -26 2 0 1 26 2 -26 2 26 1 0 2 -26 2 52 
1 -26 2 0 2 0 1 0 2 0 2 26 1 -52 2 0 
2 26 1 -26 2 26 2 0 1 -26 2 52 2 -26 1 0 
2 0 2 0 1 0 2 0 2 -26 1 0 2 26 2 -26 
1 26 2 0 2 -26 1 52 2 -26 2 -26 1 26 2 0 
2 0 1 0 2 -26 2 0 1 26 2 -26 2 26 1 0 
2 -26 2 52 1 -26 2 -26 2 26 1 0 2 -26 2 52 
1 -52 2 0 2 26 1 0 2 0 2 0 1 -26 2 26 
2 0 1 0 2 0 2 0 1 0 2 0 2 0 1 -26 
2 26 2 -26 1 26 2 0 2 -26 1 26 2 26 2 -26 
1 0 2 0 2 0 1 0 2 -26 2 0 1 26 2 -26 
2 26 1 0 2 -26 2 52 1 -26 2 -26 2 26 1 0 
2 0 2 0 1 -26 2 0 2 26 1 -26 2 26 2 0 
1 -26 2 52 2 -26 1 0 2 0 2 0 1 0 2 0 
2 -26 1 0 2 26 2 -26 1 26 2 0 2 0 1 53 
2 -53 2 0 1 0 2 0 2 0 1 0 2 -52 2 26 
1 26 2 -26 2 -26 1 -27 2 53 2 79 1 -53 2 -26 
2 26 1 0 2 0 2 0 1 -52 2 26 2 26 1 -26 
2 26 2 0 1 0 2 53 2 -53 1 0 2 0 2 0 
1 0 2 0 2 -52 1 0 2 52 2 -26 1 26 2 0 
2 0 1 53 2 -53 2 -26 1 26 2 0 2 0 1 26 
2 -78 2 -27 1 79 2 -26 2 26 1 0 2 -26 2 52 
1 -26 2 -26 2 26 1 0 2 0 2 0 1 -52 2 0 
2 52 1 -26 2 26 4368 2379 300 MP stroke
2 0 1 -26 2 52 2 -26 1 0 2 0 2 0 1 0 
2 -26 2 26 1 0 2 0 2 -26 1 26 2 0 2 0 
1 53 2 -53 2 0 1 0 2 0 2 0 1 0 2 -26 
2 -53 1 79 2 0 2 0 1 0 2 0 2 0 1 -79 
2 53 2 26 1 -26 2 26 2 26 1 -78 2 105 2 26 
1 -105 2 26 2 0 1 0 2 26 2 -52 1 0 2 26 
2 -26 1 26 2 0 2 -26 1 52 2 -26 2 0 1 0 
2 0 2 0 1 26 2 -52 2 0 1 26 2 -26 2 26 
1 0 2 -26 2 52 1 -26 2 -26 2 26 1 0 2 0 
2 26 1 -52 2 0 2 26 1 -26 2 26 2 0 1 -26 
2 52 2 -26 1 -26 2 26 2 0 1 0 2 0 2 -26 
1 0 2 26 2 -26 1 26 2 0 2 -26 1 52 2 -26 
2 -26 1 26 2 0 2 0 1 0 2 -26 2 0 1 26 
2 -26 2 26 1 0 2 -26 2 52 1 -26 2 0 2 0 
1 0 2 0 2 0 1 -52 2 26 2 26 1 -26 2 26 
2 0 1 -26 2 26 2 0 1 -26 2 26 2 0 1 0 
2 26 2 -52 1 0 2 26 2 -26 1 26 2 0 2 -26 
1 26 2 0 2 0 1 0 2 -26 2 26 1 26 2 -26 
2 -26 1 26 2 -26 2 26 1 -26 2 26 2 0 1 0 
2 0 2 0 1 0 2 0 2 0 1 -26 2 0 2 26 
1 -26 2 26 2 0 1 -26 2 52 2 -26 1 0 2 0 
2 0 1 0 2 0 2 -26 1 0 2 26 2 -26 1 26 
2 0 2 -26 1 52 2 -26 2 0 1 0 2 0 2 0 
1 0 2 -52 2 26 1 26 2 -26 2 26 1 0 2 0 
2 26 1 -26 2 -26 2 26 1 0 2 0 2 0 1 -26 
2 0 2 26 1 -26 2 -26 2 -27 1 53 2 52 2 -26 
1 -26 2 26 2 0 1 -26 2 26 2 -52 1 0 2 52 
2 -26 1 26 2 0 2 0 1 53 2 -53 2 -26 1 26 
2 0 2 0 1 0 2 -52 2 26 1 26 2 0 2 0 
1 0 2 0 2 26 1 -26 2 -26 2 26 1 0 2 0 
2 26 1 -78 2 -27 2 79 1 -26 2 26 2 0 1 -26 
2 52 2 -26 1 -26 2 26 2 0 1 0 2 0 2 -52 
1 26 2 26 2 -26 1 26 2 0 2 0 1 26 2 -26 
2 -26 1 26 2 0 2 0 1 0 2 0 2 0 1 0 
2 0 2 0 1 0 2 0 2 53 1 -53 2 0 2 0 
1 0 2 0 2 0 1 0 2 -79 2 79 1 0 2 0 
2 0 1 0 2 0 2 -52 1 26 2 26 2 -26 1 26 
2 0 2 -52 1 78 3870 2353 300 MP stroke
2 53 2 -105 1 26 2 0 2 0 1 26 2 -52 2 0 
1 26 2 -26 2 26 1 0 2 -26 2 52 1 -26 2 0 
2 0 1 0 2 0 2 0 1 -26 2 0 2 26 1 -26 
2 26 2 0 1 -26 2 52 2 -26 1 0 2 0 2 0 
1 -26 2 52 2 -52 1 0 2 26 2 0 1 0 2 0 
2 -26 1 52 2 -26 2 -26 1 26 2 0 2 0 1 0 
2 -26 2 0 1 26 2 -26 2 26 1 0 2 -26 2 52 
1 -26 2 0 2 0 1 0 2 0 2 26 1 -52 2 0 
2 26 1 -26 2 26 2 0 1 -26 2 26 2 0 1 0 
2 0 2 0 1 0 2 0 2 -26 1 0 2 26 2 -26 
1 26 2 0 2 -26 1 52 2 -26 2 0 1 0 2 0 
2 0 1 26 2 -52 2 0 1 26 2 0 2 0 1 0 
2 -26 2 52 1 -26 2 0 2 -26 1 26 2 0 2 0 
1 -26 2 0 2 26 1 -26 2 26 2 0 1 0 2 0 
2 0 1 0 2 0 2 0 1 0 2 0 2 -26 1 0 
2 26 2 -26 1 26 2 0 2 -26 1 52 2 -26 2 0 
1 0 2 0 2 0 1 26 2 -52 2 26 1 0 2 -26 
2 26 1 0 2 -26 2 26 1 0 2 0 2 0 1 0 
2 0 2 0 1 -52 2 26 2 26 1 0 2 0 2 0 
1 0 2 53 2 -53 1 0 2 0 2 0 1 0 2 0 
2 -52 1 26 2 26 2 -26 1 -26 2 -27 2 53 1 79 
2 -53 2 -26 1 26 2 0 2 0 1 0 2 -52 2 26 
1 26 2 0 2 0 1 0 2 0 2 26 1 -26 2 -26 
2 26 1 0 2 0 2 0 1 -52 2 26 2 26 1 -26 
2 26 2 0 1 0 2 53 2 -53 1 0 2 0 2 0 
1 0 2 26 2 -78 1 -27 2 79 2 -26 1 26 2 0 
2 -26 1 52 2 -26 2 -26 1 26 2 0 2 0 1 0 
2 -52 2 26 1 26 2 -26 2 26 1 0 2 -26 2 26 
1 0 2 -26 2 26 1 0 2 0 2 0 1 0 2 0 
2 0 1 -26 2 26 2 0 1 0 2 53 2 -53 1 0 
2 -26 2 26 1 0 2 -26 2 26 1 -79 2 79 2 -26 
1 26 2 0 2 0 1 0 2 -52 2 26 1 26 2 -26 
2 26 1 0 2 0 2 0 1 79 2 -79 2 26 1 -26 
2 0 2 0 1 -26 2 0 2 26 1 0 2 0 2 0 
1 -26 2 26 2 0 1 0 2 0 2 0 1 0 2 0 
2 0 1 -26 2 26 2 -26 1 26 2 0 2 -26 1 26 
2 0 2 0 1 0 2 0 2 0 1 0 2 -26 2 0 
1 26 2 -26 2 26 3371 2379 300 MP stroke
1 0 2 -26 2 26 1 0 2 0 2 0 1 0 2 0 
2 26 1 -52 2 0 2 26 1 -26 2 26 2 0 1 -26 
2 52 2 -26 1 -26 2 26 2 0 1 0 2 0 2 -26 
1 0 2 26 2 -26 1 26 2 0 2 -26 1 52 2 -26 
2 -26 1 26 2 0 2 0 1 0 2 -26 2 0 1 26 
2 -26 2 26 1 0 2 -26 2 52 1 -26 2 -26 2 26 
1 0 2 0 2 26 1 -52 2 0 2 26 1 -26 2 26 
2 0 1 -26 2 26 2 0 1 0 2 0 2 0 1 0 
2 0 2 0 1 -26 2 26 2 0 1 0 2 0 2 0 
1 0 2 0 2 0 1 0 2 0 2 0 1 0 2 0 
2 -26 1 26 2 0 2 0 1 0 2 -26 2 52 1 0 
2 -52 2 26 1 0 2 0 2 26 1 -26 2 0 2 0 
1 0 2 0 2 0 1 0 2 26 2 0 1 -26 2 26 
2 -26 1 0 2 0 2 -26 1 26 2 0 2 0 1 0 
2 0 2 0 1 53 2 -27 2 -26 1 0 2 0 2 0 
1 26 2 -52 2 0 1 26 2 -26 2 0 1 -26 2 52 
2 53 1 -27 2 -26 2 0 1 0 2 0 2 0 1 -26 
2 0 2 26 1 0 2 0 2 0 1 0 2 53 2 -53 
1 0 2 0 2 0 1 0 2 0 2 -52 1 26 2 26 
2 0 1 0 2 0 2 0 1 26 2 -26 2 -26 1 26 
2 0 2 0 1 0 2 -79 2 -26 1 79 2 -26 2 26 
1 26 2 -52 2 52 1 0 2 -52 2 26 1 0 2 0 
2 0 1 -79 2 26 2 27 1 0 2 26 2 0 1 -53 
2 79 2 -52 1 -27 2 27 2 0 1 0 2 -27 2 27 
1 26 2 -53 2 0 1 27 2 0 2 0 1 52 2 -52 
2 0 1 -27 2 27 2 -27 1 -26 2 53 2 -53 1 26 
2 -26 2 53 1 0 2 -27 2 27 1 -53 2 0 2 26 
1 0 2 0 2 27 1 -27 2 27 2 78 1 -105 2 53 
2 -26 1 0 2 52 2 -79 1 27 2 26 2 -26 1 26 
2 26 2 -26 1 26 2 0 2 0 1 0 2 0 2 0 
1 53 2 -53 2 0 1 26 2 0 2 27 1 0 2 -27 
2 53 1 0 2 0 2 0 1 0 2 26 2 0 1 -26 
2 0 2 26 1 0 2 27 2 0 1 0 2 26 2 0 
1 0 2 26 2 -26 1 26 2 0 2 -52 1 26 2 26 
2 -26 1 26 2 0 2 0 1 26 2 -26 2 0 1 0 
2 0 2 26 1 0 2 -26 2 0 1 0 2 0 2 26 
1 -26 2 0 2 26 1 0 2 -26 2 26 1 -26 2 0 
2 26 1 -26 2 0 2873 2195 300 MP stroke
2 0 1 0 2 0 2 0 1 -26 2 26 2 0 1 -26 
2 26 2 -26 1 0 2 0 2 -53 1 0 2 27 2 -27 
1 27 2 -27 2 -26 1 53 2 -27 2 -26 1 0 2 0 
2 0 1 0 2 -53 2 0 1 0 2 -26 2 26 1 0 
2 -26 2 26 1 0 2 -52 2 26 1 -26 2 0 2 26 
1 -79 2 0 2 0 1 -26 2 26 2 0 1 -26 2 26 
2 -26 1 -26 2 26 2 -26 1 -27 2 27 1 -53 2 0 
2 0 1 0 2 0 2 0 1 -53 2 53 2 0 1 -53 
2 27 2 -27 1 -26 2 0 2 -26 1 -26 2 26 2 -26 
1 0 2 26 2 -26 1 26 2 -26 2 -53 1 0 2 0 
2 0 1 0 2 -79 2 0 1 26 2 -26 2 0 1 0 
2 0 2 53 1 -53 2 -26 2 0 1 0 2 -27 2 27 
1 -105 2 26 2 26 1 -26 2 26 2 0 1 -26 2 79 
2 -27 1 -52 2 26 2 0 1 -26 2 26 2 -52 1 26 
2 26 2 -26 1 26 2 0 2 0 1 53 2 0 2 -53 
1 0 2 0 2 -26 1 52 2 -52 2 0 1 52 2 27 
2 -27 1 27 2 -53 2 -26 1 52 2 -78 2 -27 1 132 
2 -27 2 -52 1 -26 2 0 2 26 1 -26 2 26 2 0 
1 -26 2 52 2 26 1 -52 2 0 2 0 1 -26 2 26 
2 26 1 26 2 -52 2 0 1 0 2 0 2 0 1 52 
2 -26 2 -26 1 0 2 0 2 0 1 0 2 0 2 -26 
1 26 2 0 2 26 1 -26 2 -26 2 26 1 -26 2 0 
2 26 1 -26 2 26 2 0 1 -53 2 79 2 79 1 -105 
2 0 2 0 1 0 2 26 2 0 1 -52 2 26 2 0 
1 26 2 -26 2 -26 1 26 2 26 2 -26 1 26 2 -52 
2 26 1 26 2 -52 2 26 1 26 2 -26 2 26 1 -26 
2 -26 2 52 1 26 2 -52 2 26 1 -26 2 -26 2 52 
1 -52 2 26 2 26 1 -26 2 26 2 -26 1 -26 2 78 
2 0 1 -52 2 26 2 -26 1 -26 2 78 2 -78 1 26 
2 0 2 0 1 26 2 -26 2 -26 1 52 2 0 2 -26 
1 26 2 -26 2 0 1 52 2 -78 2 26 1 26 2 -52 
2 52 1 -26 2 -26 2 78 1 -26 2 -26 2 26 1 -26 
2 -26 2 52 1 -26 2 -26 2 52 1 -26 2 26 2 -26 
1 -26 2 52 2 0 1 -26 2 26 2 -26 1 -26 2 78 
2 -78 1 26 2 0 2 0 1 26 2 -26 2 -26 1 52 
2 26 2 -52 1 26 2 -26 2 0 1 52 2 -78 2 26 
1 0 2 -26 2 52 1 -26 2 -26 2 52 1 26 2 -52 
2 26 1 -26 2 -26 2375 2957 300 MP stroke
2 78 1 -78 2 26 2 0 1 0 2 26 2 -26 1 -26 
2 78 2 0 1 -52 2 26 2 -26 1 0 2 52 2 -78 
1 0 2 26 2 0 1 26 2 -26 2 -26 1 52 2 0 
2 -52 1 52 2 -52 2 0 1 26 2 -26 2 0 1 26 
2 -26 2 26 1 0 2 0 2 52 1 0 2 -52 2 26 
1 -26 2 -26 2 26 1 -26 2 0 2 52 1 -26 2 0 
2 0 1 -26 2 78 2 0 1 -52 2 0 2 0 1 0 
2 0 2 -26 1 0 2 26 2 -26 1 26 2 0 2 -26 
1 78 2 -26 2 -26 1 26 2 -26 2 -26 1 26 2 -26 
2 26 1 0 2 -26 2 26 1 0 2 -26 2 78 1 0 
2 -52 2 26 1 -26 2 -26 2 52 1 -52 2 -27 2 53 
1 -26 2 26 2 0 1 -26 2 52 2 0 1 -26 2 26 
2 -26 1 -26 2 26 2 -26 1 0 2 26 2 -26 1 26 
2 0 2 -26 1 52 2 26 2 -52 1 0 2 0 2 0 
1 0 2 26 2 26 1 -52 2 0 2 0 1 0 2 0 
2 52 1 -26 2 -26 2 0 1 0 2 0 2 0 1 0 
2 -26 2 26 1 0 2 26 2 -26 1 -26 2 26 2 -26 
1 0 2 26 2 -26 1 26 2 0 2 -53 1 105 2 53 
2 -105 1 0 2 0 2 26 1 0 2 -26 2 0 1 26 
2 -26 2 26 1 -26 2 -26 2 52 1 0 2 -26 2 26 
1 -52 2 52 2 0 1 -52 2 26 2 0 1 0 2 26 
2 -26 1 -26 2 52 2 26 1 -52 2 26 2 -26 1 0 
2 52 2 -78 1 26 2 26 2 -26 1 26 2 -26 2 -26 
1 52 2 26 2 -52 1 26 2 -26 2 0 1 26 2 -52 
2 26 1 0 2 0 2 26 1 -26 2 -26 2 52 1 26 
2 -52 2 26 1 -26 2 0 2 26 1 -52 2 0 2 52 
1 -26 2 0 2 0 1 -26 2 52 2 26 1 -52 2 26 
2 -52 1 26 2 52 2 -52 1 0 2 26 2 -26 1 26 
2 -26 2 -26 1 52 2 0 2 -26 1 26 2 -26 2 0 
1 52 2 -78 2 26 1 26 2 -26 2 26 1 -26 2 -26 
2 78 1 -26 2 -26 2 26 1 -26 2 0 2 52 1 -78 
2 26 2 26 1 -52 2 52 2 -26 1 -26 2 52 2 26 
1 -52 2 26 2 -26 1 0 2 52 2 -78 1 26 2 26 
2 -26 1 26 2 -26 2 -26 1 52 2 26 2 -52 1 26 
2 -26 2 0 1 26 2 -52 2 26 1 0 2 0 2 26 
1 -26 2 -26 2 52 1 0 2 -26 2 26 1 -52 2 0 
2 52 1 -52 2 0 2 26 1 -26 2 26 2 0 1 -26 
2 78 2 0 1 -52 1877 2931 300 MP stroke
2 26 2 -26 1 -26 2 26 2 -26 1 0 2 26 2 -26 
1 26 2 26 2 -52 1 78 2 0 2 -52 1 26 2 -52 
2 26 1 0 2 -26 2 0 1 26 2 -26 2 26 1 0 
2 -26 2 78 1 0 2 -52 2 0 1 0 2 -26 2 52 
1 -52 2 0 2 26 1 -26 2 26 2 0 1 0 2 52 
2 -26 1 -52 2 52 2 -26 1 -26 2 52 2 -52 1 -27 
2 79 2 -52 1 52 2 -26 2 -26 1 52 2 26 2 -52 
1 26 2 -26 2 -26 1 26 2 -26 2 0 1 26 2 0 
2 0 1 0 2 -26 2 52 1 26 2 -52 2 0 1 0 
2 0 2 0 1 0 2 52 2 -52 1 -26 2 26 2 0 
1 -26 2 78 2 -26 1 -26 2 0 2 0 1 0 2 0 
2 0 1 -53 2 79 2 -26 1 26 2 -26 2 -26 1 26 
2 -26 2 0 1 52 2 -52 2 26 1 0 2 -53 2 79 
1 53 2 -79 2 0 1 0 2 0 2 26 1 -26 2 0 
2 26 1 -26 2 26 2 -26 1 -26 2 52 2 0 1 -26 
2 26 2 -52 1 26 2 26 2 -26 1 0 2 26 2 -26 
1 26 2 -26 2 -26 1 78 2 0 2 -52 1 26 2 -26 
2 -26 1 78 2 -78 2 26 1 26 2 -26 2 26 1 -26 
2 -26 2 52 1 0 2 -26 2 26 1 -26 2 0 2 26 
1 -52 2 26 2 26 1 -26 2 26 2 -26 1 -26 2 52 
2 0 1 -26 2 26 2 -26 1 0 2 26 2 -52 1 0 
2 26 2 0 1 26 2 -26 2 -26 1 78 2 -26 2 -26 
1 26 2 -26 2 0 1 26 2 -52 2 26 1 26 2 -26 
2 26 1 -26 2 -26 2 78 1 0 2 -52 2 26 1 -26 
2 0 2 52 1 -78 2 26 2 0 1 -26 2 52 2 -26 
1 -26 2 52 2 26 1 -52 2 26 2 -26 1 -26 2 78 
2 -78 1 26 2 26 2 -52 1 26 2 26 2 -52 1 78 
2 -26 2 -26 1 26 2 -26 2 0 1 26 2 -26 2 0 
1 0 2 0 2 26 1 -26 2 -26 2 78 1 -26 2 -26 
2 26 1 -26 2 0 2 26 1 -52 2 26 2 0 1 0 
2 26 2 -26 1 -26 2 78 2 -26 1 -26 2 26 2 -26 
1 -26 2 52 2 -52 1 0 2 26 2 0 1 0 2 0 
2 0 1 52 2 -26 2 -52 1 52 2 -26 2 -26 1 52 
2 -52 2 0 1 26 2 0 2 0 1 0 2 0 2 52 
1 0 2 -52 2 26 1 -26 2 0 2 26 1 -52 2 26 
2 0 1 -26 2 26 2 0 1 -26 2 78 2 0 1 -52 
2 26 2 -26 1 -26 2 26 2 -26 1 0 2 26 2 0 
1 0 2 0 2 -26 1378 2957 300 MP stroke
1 78 2 -26 2 -52 1 52 2 -26 2 -26 1 52 2 -52 
2 0 1 26 2 0 2 0 1 0 2 -26 2 52 1 0 
2 -26 2 26 1 -26 2 -26 2 26 1 -26 2 0 2 26 
1 0 2 0 2 0 1 -26 2 52 2 26 1 -52 2 26 
2 -26 1 0 2 0 2 26 1 26 2 -52 2 0 1 0 
2 0 2 -26 1 78 2 -26 2 -26 1 0 2 0 2 26 
1 -26 2 0 2 -26 1 52 2 -26 2 26 1 -26 2 -26 
2 26 1 -26 2 0 2 26 1 -26 2 26 2 0 1 -53 
2 79 2 53 1 -53 2 -26 2 0 1 26 2 0 2 -26 
1 0 2 0 2 -26 1 52 2 -26 2 -26 1 26 2 52 
2 -52 1 26 2 -52 2 52 1 -26 2 0 2 0 1 0 
2 0 2 26 1 0 2 -52 2 78 1 -26 2 -26 2 26 
1 -26 2 0 2 52 1 -52 2 0 2 0 1 0 2 26 
2 -26 1 -26 2 78 2 0 1 -52 2 26 2 -26 1 0 
2 52 2 -78 1 26 2 0 2 -26 1 52 2 -26 2 -26 
1 52 2 26 2 -52 1 26 2 -26 2 -26 1 52 2 -52 
2 26 1 26 2 -26 2 26 1 -26 2 -26 2 52 1 0 
2 -26 2 26 1 -26 2 0 2 52 1 -78 2 26 2 26 
1 -26 2 26 2 -26 1 -26 2 52 2 26 1 -52 2 26 
2 -26 1 0 2 26 2 -52 1 26 2 26 2 -26 1 26 
2 -26 2 -26 1 78 2 -26 2 -26 1 26 2 -26 2 -26 
1 78 2 -52 2 0 1 0 2 0 2 26 1 -26 2 -26 
2 78 1 0 2 -52 2 26 1 -26 2 0 2 52 1 -78 
2 26 2 0 1 -26 2 52 2 -26 1 -26 2 52 2 26 
1 -52 2 26 2 -26 1 -26 2 78 2 -52 1 0 2 0 
2 -26 1 52 2 -26 2 -26 1 78 2 -26 2 -26 1 26 
2 -52 2 0 1 26 2 -26 2 0 1 26 2 0 2 0 
1 0 2 -26 2 78 1 0 2 -52 2 26 1 -26 2 0 
2 0 1 -26 2 0 2 52 1 -52 2 26 2 0 1 -26 
2 78 2 -26 1 -26 2 26 2 -26 1 -26 2 26 2 -26 
1 0 2 26 2 -26 1 26 2 0 2 -26 1 78 2 0 
2 -52 1 26 2 -26 2 -26 1 52 2 -52 2 0 1 26 
2 -26 2 26 1 0 2 -26 2 78 1 -26 2 -26 2 26 
1 -52 2 0 2 52 1 -52 2 0 2 52 1 -52 2 26 
2 0 1 -26 2 52 2 0 1 -26 2 26 2 -26 1 -26 
2 26 2 -26 1 26 2 0 2 0 1 0 2 0 2 -26 
1 52 2 26 2 -52 1 0 2 0 2 0 1 0 2 26 
2 26 1 -52 2 -26 880 2957 300 MP stroke
2 26 1 0 2 0 2 52 1 -26 2 -26 2 26 1 -26 
2 0 2 0 1 0 2 -26 2 26 1 -26 2 26 2 0 
1 -26 2 26 2 -26 1 26 2 0 2 -26 1 26 2 0 
2 -53 1 79 2 53 2 -79 1 0 2 -26 2 26 1 26 
2 -26 2 0 1 0 2 -26 2 52 1 -26 2 -26 2 26 
1 26 2 -26 2 26 1 -52 2 52 2 0 1 -52 2 26 
2 0 1 -26 2 26 2 0 1 -26 2 52 2 0 1 -26 
2 26 2 -26 1 -26 2 78 2 -78 1 26 2 26 2 -26 
1 26 2 -26 2 -26 1 52 2 0 2 -26 1 26 2 -26 
2 -26 1 52 2 -52 2 26 1 26 2 -52 2 52 1 0 
2 -52 2 52 1 0 2 -26 2 26 1 -26 2 -26 2 52 
1 -52 2 26 2 0 1 0 2 26 2 -26 1 -26 2 78 
2 -26 1 -26 2 26 2 -26 1 0 2 52 2 -78 1 26 
2 26 2 -52 1 26 2 0 1 -26 699 2957 110 MP stroke
gr

c8
0 sg
2568 3877 mt 
(Time [s]) s
 346 2235 mt  -90 rotate
(Voltage [V]) s
90 rotate

end %%Color Dict

eplot
%%EndObject

epage
end

showpage

%%Trailer
%%EOF
