%!PS-Adobe-3.0 EPSF-3.0
%%Creator: MATLAB, The MathWorks, Inc. Version 8.3.0.532 (R2014a). Operating System: Linux 3.19.0-31-generic #36-Ubuntu SMP Wed Oct 7 15:04:02 UTC 2015 x86_64.
%%Title: /home/nicolai/Dropbox/Skole/7. Semester/EMB/Projects/Project 1 - LEGO Sorting/report/img/total_sample_time.eps
%%CreationDate: 10/31/2015  19:23:53
%%DocumentNeededFonts: Helvetica
%%DocumentProcessColors: Cyan Magenta Yellow Black
%%LanguageLevel: 2
%%Pages: 1
%%BoundingBox:  -315    67   928   724
%%EndComments

%%BeginProlog
% MathWorks dictionary
/MathWorks 160 dict begin
% definition operators
/bdef {bind def} bind def
/ldef {load def} bind def
/xdef {exch def} bdef
/xstore {exch store} bdef
% operator abbreviations
/c  /clip ldef
/cc /concat ldef
/cp /closepath ldef
/gr /grestore ldef
/gs /gsave ldef
/mt /moveto ldef
/np /newpath ldef
/cm /currentmatrix ldef
/sm /setmatrix ldef
/rm /rmoveto ldef
/rl /rlineto ldef
/s {show newpath} bdef
/sc {setcmykcolor} bdef
/sr /setrgbcolor ldef
/sg /setgray ldef
/w /setlinewidth ldef
/j /setlinejoin ldef
/cap /setlinecap ldef
/rc {rectclip} bdef
/rf {rectfill} bdef
% page state control
/pgsv () def
/bpage {/pgsv save def} bdef
/epage {pgsv restore} bdef
/bplot /gsave ldef
/eplot {stroke grestore} bdef
% orientation switch
/portraitMode 0 def /landscapeMode 1 def /rotateMode 2 def
% coordinate system mappings
/dpi2point 0 def
% font control
/FontSize 0 def
/FMS {/FontSize xstore findfont [FontSize 0 0 FontSize neg 0 0]
  makefont setfont} bdef
/reencode {exch dup where {pop load} {pop StandardEncoding} ifelse
  exch dup 3 1 roll findfont dup length dict begin
  { 1 index /FID ne {def}{pop pop} ifelse } forall
  /Encoding exch def currentdict end definefont pop} bdef
/isroman {findfont /CharStrings get /Agrave known} bdef
/FMSR {3 1 roll 1 index dup isroman {reencode} {pop pop} ifelse
  exch FMS} bdef
/csm {1 dpi2point div -1 dpi2point div scale neg translate
 dup landscapeMode eq {pop -90 rotate}
  {rotateMode eq {90 rotate} if} ifelse} bdef
% line types: solid, dotted, dashed, dotdash
/SO { [] 0 setdash } bdef
/DO { [.5 dpi2point mul 4 dpi2point mul] 0 setdash } bdef
/DA { [6 dpi2point mul] 0 setdash } bdef
/DD { [.5 dpi2point mul 4 dpi2point mul 6 dpi2point mul 4
  dpi2point mul] 0 setdash } bdef
% macros for lines and objects
/L {lineto stroke} bdef
/MP {3 1 roll moveto 1 sub {rlineto} repeat} bdef
/AP {{rlineto} repeat} bdef
/PDlw -1 def
/W {/PDlw currentlinewidth def setlinewidth} def
/PP {closepath eofill} bdef
/DP {closepath stroke} bdef
/MR {4 -2 roll moveto dup  0 exch rlineto exch 0 rlineto
  neg 0 exch rlineto closepath} bdef
/FR {MR stroke} bdef
/PR {MR fill} bdef
/L1i {{currentfile picstr readhexstring pop} image} bdef
/tMatrix matrix def
/MakeOval {newpath tMatrix currentmatrix pop translate scale
0 0 1 0 360 arc tMatrix setmatrix} bdef
/FO {MakeOval stroke} bdef
/PO {MakeOval fill} bdef
/PD {currentlinewidth 2 div 0 360 arc fill
   PDlw -1 eq not {PDlw w /PDlw -1 def} if} def
/FA {newpath tMatrix currentmatrix pop translate scale
  0 0 1 5 -2 roll arc tMatrix setmatrix stroke} bdef
/PA {newpath tMatrix currentmatrix pop	translate 0 0 moveto scale
  0 0 1 5 -2 roll arc closepath tMatrix setmatrix fill} bdef
/FAn {newpath tMatrix currentmatrix pop translate scale
  0 0 1 5 -2 roll arcn tMatrix setmatrix stroke} bdef
/PAn {newpath tMatrix currentmatrix pop translate 0 0 moveto scale
  0 0 1 5 -2 roll arcn closepath tMatrix setmatrix fill} bdef
/vradius 0 def /hradius 0 def /lry 0 def
/lrx 0 def /uly 0 def /ulx 0 def /rad 0 def
/MRR {/vradius xdef /hradius xdef /lry xdef /lrx xdef /uly xdef
  /ulx xdef newpath tMatrix currentmatrix pop ulx hradius add uly
  vradius add translate hradius vradius scale 0 0 1 180 270 arc 
  tMatrix setmatrix lrx hradius sub uly vradius add translate
  hradius vradius scale 0 0 1 270 360 arc tMatrix setmatrix
  lrx hradius sub lry vradius sub translate hradius vradius scale
  0 0 1 0 90 arc tMatrix setmatrix ulx hradius add lry vradius sub
  translate hradius vradius scale 0 0 1 90 180 arc tMatrix setmatrix
  closepath} bdef
/FRR {MRR stroke } bdef
/PRR {MRR fill } bdef
/MlrRR {/lry xdef /lrx xdef /uly xdef /ulx xdef /rad lry uly sub 2 div def
  newpath tMatrix currentmatrix pop ulx rad add uly rad add translate
  rad rad scale 0 0 1 90 270 arc tMatrix setmatrix lrx rad sub lry rad
  sub translate rad rad scale 0 0 1 270 90 arc tMatrix setmatrix
  closepath} bdef
/FlrRR {MlrRR stroke } bdef
/PlrRR {MlrRR fill } bdef
/MtbRR {/lry xdef /lrx xdef /uly xdef /ulx xdef /rad lrx ulx sub 2 div def
  newpath tMatrix currentmatrix pop ulx rad add uly rad add translate
  rad rad scale 0 0 1 180 360 arc tMatrix setmatrix lrx rad sub lry rad
  sub translate rad rad scale 0 0 1 0 180 arc tMatrix setmatrix
  closepath} bdef
/FtbRR {MtbRR stroke } bdef
/PtbRR {MtbRR fill } bdef
/stri 6 array def /dtri 6 array def
/smat 6 array def /dmat 6 array def
/tmat1 6 array def /tmat2 6 array def /dif 3 array def
/asub {/ind2 exch def /ind1 exch def dup dup
  ind1 get exch ind2 get sub exch } bdef
/tri_to_matrix {
  2 0 asub 3 1 asub 4 0 asub 5 1 asub
  dup 0 get exch 1 get 7 -1 roll astore } bdef
/compute_transform {
  dmat dtri tri_to_matrix tmat1 invertmatrix 
  smat stri tri_to_matrix tmat2 concatmatrix } bdef
/ds {stri astore pop} bdef
/dt {dtri astore pop} bdef
/db {2 copy /cols xdef /rows xdef mul dup 3 mul string
  currentfile 
  3 index 0 eq {/ASCIIHexDecode filter}
  {/ASCII85Decode filter 3 index 2 eq {/RunLengthDecode filter} if }
  ifelse exch readstring pop
  dup 0 3 index getinterval /rbmap xdef
  dup 2 index dup getinterval /gbmap xdef
  1 index dup 2 mul exch getinterval /bbmap xdef pop pop}bdef
/it {gs np dtri aload pop moveto lineto lineto cp c
  cols rows 8 compute_transform 
  rbmap gbmap bbmap true 3 colorimage gr}bdef
/il {newpath moveto lineto stroke}bdef
currentdict end def
%%EndProlog

%%BeginSetup
MathWorks begin

0 cap

end
%%EndSetup

%%Page: 1 1
%%BeginPageSetup
%%PageBoundingBox:  -315    67   928   724
MathWorks begin
bpage
%%EndPageSetup

%%BeginObject: obj1
bplot

/dpi2point 12 def
portraitMode -3780 8688 csm

    0     0 14927  7882 rc
86 dict begin %Colortable dictionary
/c0 { 0.000000 0.000000 0.000000 sr} bdef
/c1 { 1.000000 1.000000 1.000000 sr} bdef
/c2 { 0.900000 0.000000 0.000000 sr} bdef
/c3 { 0.000000 0.820000 0.000000 sr} bdef
/c4 { 0.000000 0.000000 0.800000 sr} bdef
/c5 { 0.910000 0.820000 0.320000 sr} bdef
/c6 { 1.000000 0.260000 0.820000 sr} bdef
/c7 { 0.000000 0.820000 0.820000 sr} bdef
c0
1 j
1 sg
   0    0 14928 7883 rf
6 w
0 6424 11568 0 0 -6424 1941 7015 4 MP
PP
-11568 0 0 6424 11568 0 0 -6424 1941 7015 5 MP stroke
4 w
DO
SO
6 w
0 sg
1941 7015 mt 13509 7015 L
1941  591 mt 13509  591 L
1941 7015 mt 1941  591 L
13509 7015 mt 13509  591 L
1941 7015 mt 13509 7015 L
1941 7015 mt 1941  591 L
1941 7015 mt 1941 6899 L
1941  591 mt 1941  706 L
%%IncludeResource: font Helvetica
/Helvetica /ISOLatin1Encoding 120 FMSR

1838 7160 mt 
(-5) s
3097 7015 mt 3097 6899 L
3097  591 mt 3097  706 L
2994 7160 mt 
(-4) s
4254 7015 mt 4254 6899 L
4254  591 mt 4254  706 L
4151 7160 mt 
(-3) s
5411 7015 mt 5411 6899 L
5411  591 mt 5411  706 L
5308 7160 mt 
(-2) s
6568 7015 mt 6568 6899 L
6568  591 mt 6568  706 L
6465 7160 mt 
(-1) s
7725 7015 mt 7725 6899 L
7725  591 mt 7725  706 L
7692 7160 mt 
(0) s
8881 7015 mt 8881 6899 L
8881  591 mt 8881  706 L
8848 7160 mt 
(1) s
10038 7015 mt 10038 6899 L
10038  591 mt 10038  706 L
10005 7160 mt 
(2) s
11195 7015 mt 11195 6899 L
11195  591 mt 11195  706 L
11162 7160 mt 
(3) s
12352 7015 mt 12352 6899 L
12352  591 mt 12352  706 L
12319 7160 mt 
(4) s
13508 7015 mt 13508 6899 L
13508  591 mt 13508  706 L
13475 7160 mt 
(5) s
13192 7362 mt 
(x 10) s
%%IncludeResource: font Helvetica
/Helvetica /ISOLatin1Encoding 80 FMSR

13418 7288 mt 
(-5) s
1941 7015 mt 2056 7015 L
13509 7015 mt 13393 7015 L
%%IncludeResource: font Helvetica
/Helvetica /ISOLatin1Encoding 120 FMSR

1873 7059 mt 
( ) s
1941 4873 mt 2056 4873 L
13509 4873 mt 13393 4873 L
1873 4917 mt 
( ) s
1941 2732 mt 2056 2732 L
13509 2732 mt 13393 2732 L
1873 2776 mt 
( ) s
1941  591 mt 2056  591 L
13509  591 mt 13393  591 L
1873  635 mt 
( ) s
1941 7015 mt 13509 7015 L
1941  591 mt 13509  591 L
1941 7015 mt 1941  591 L
13509 7015 mt 13509  591 L
gs 1941 591 11569 6425 rc
/c8 { 1.000000 0.000000 0.000000 sr} bdef
c8
1 0 10 86 9 85 9 -256 10 256 9 -85 9 85 9 -85 
10 -86 9 86 9 85 9 0 10 -85 9 -86 9 0 9 0 
10 0 9 0 9 86 9 -171 10 171 9 -86 9 171 9 -85 
10 0 9 -86 9 171 9 0 10 0 9 -85 9 -86 9 86 
10 0 9 -86 9 86 9 0 10 0 9 85 9 -85 9 0 
10 0 9 0 9 0 9 -86 10 86 9 -171 9 171 9 0 
10 -86 9 86 9 85 9 0 10 -171 9 -85 9 171 9 0 
10 85 9 -85 9 -86 10 0 9 86 9 85 9 -171 10 86 
9 0 9 85 9 -85 10 0 9 0 9 0 9 -86 10 86 
9 0 9 -86 9 86 10 -86 9 171 9 -85 9 -86 10 86 
9 85 9 -85 9 0 10 171 9 -171 9 -86 9 171 10 -85 
9 -86 9 86 9 0 10 -86 9 171 9 -171 9 0 10 171 
9 -171 9 86 9 0 10 -86 9 86 9 85 9 -85 10 0 
9 -86 9 86 9 0 10 0 9 -86 9 86 9 -86 10 171 
9 -85 9 85 10 0 9 -85 9 -86 9 0 10 86 9 85 
9 -171 9 86 10 -86 9 86 9 0 9 85 10 -85 9 -86 
9 0 9 86 10 0 9 -86 9 86 9 -86 10 0 9 86 
9 0 9 85 10 -85 9 0 9 0 9 -86 10 86 9 85 
9 -171 9 0 10 -85 9 171 9 171 9 -257 10 171 9 -85 
9 171 9 1285 10 -86 9 0 9 -85 9 171 10 -86 9 86 
9 -86 9 0 10 86 9 -86 9 0 9 0 10 0 9 86 
9 -86 9 0 10 0 9 86 9 -86 10 0 9 86 9 -86 
9 0 10 86 9 -86 9 0 9 0 10 86 9 86 9 -172 
9 0 10 86 9 -86 9 0 9 0 10 0 9 0 9 86 
9 -86 10 -85 9 85 9 343 9 -343 10 0 9 0 9 0 
9 0 10 0 9 0 9 0 9 0 10 0 9 0 9 86 
9 -86 10 0 9 0 9 0 9 0 10 172 9 -172 9 86 
9 -86 10 0 9 0 9 0 9 0 10 0 9 86 9 -171 
9 171 10 -86 9 0 9 0 10 0 9 0 9 0 9 0 
10 86 9 0 9 -171 9 85 10 86 9 -86 9 0 9 86 
10 -86 9 0 9 0 9 0 10 0 9 0 9 0 9 0 
10 0 9 0 9 0 9 0 10 0 9 0 9 0 9 0 
10 0 9 0 9 86 9 0 10 -86 9 86 9 -86 9 0 
10 0 9 86 9 -86 9 0 10 0 9 0 9 86 9 -86 
10 0 9 86 9 -86 9 172 10 -172 9 0 9 0 9 0 
10 0 9 0 9 0 9 0 10 0 9 0 9 0 10 0 
9 0 9 0 9 0 10 172 9 -172 9 0 9 0 10 86 
9 -86 9 0 9 86 10751 1190 300 MP stroke
10 -86 9 0 9 0 9 86 10 -86 9 0 9 86 9 -86 
10 0 9 0 9 0 9 0 10 0 9 0 9 172 9 -86 
10 -86 9 86 9 -86 9 0 10 0 9 0 9 0 9 -85 
10 85 9 0 9 0 9 86 10 0 9 -86 9 0 9 0 
10 0 9 0 9 0 9 0 10 0 9 86 9 -86 9 0 
10 86 9 0 9 -86 10 0 9 -85 9 85 9 0 10 0 
9 0 9 0 9 0 10 172 9 -172 9 0 9 86 10 -86 
9 0 9 0 9 0 10 0 9 0 9 0 9 0 10 86 
9 -86 9 0 9 86 10 -86 9 0 9 0 9 0 10 0 
9 86 9 -86 9 0 10 0 9 0 9 0 9 86 10 -86 
9 0 9 0 9 0 10 0 9 0 9 0 9 -85 10 85 
9 0 9 0 9 -85 10 -1371 9 0 9 0 9 -85 10 171 
9 0 9 0 9 0 10 85 9 0 9 -171 10 0 9 86 
9 85 9 -171 10 86 9 0 9 0 9 0 10 -171 9 256 
9 -171 9 0 10 0 9 0 9 171 9 -171 10 -85 9 256 
9 86 9 -171 10 0 9 0 9 85 9 -85 10 171 9 -86 
9 -85 9 0 10 0 9 0 9 -86 9 0 10 0 9 0 
9 257 9 -171 10 85 9 -171 9 86 9 -86 10 86 9 0 
9 85 9 -85 10 0 9 -86 9 86 9 0 10 -86 9 86 
9 0 9 0 10 85 9 -85 9 0 10 85 9 -85 9 0 
9 0 10 -86 9 86 9 0 9 0 10 0 9 0 9 -86 
9 86 10 0 9 0 9 0 9 0 10 0 9 0 9 85 
9 -85 10 0 9 -86 9 86 9 0 10 0 9 0 9 -171 
9 85 10 86 9 85 9 -85 9 0 10 0 9 0 9 0 
9 0 10 0 9 0 9 85 9 -85 10 0 9 0 9 0 
9 0 10 0 9 -171 9 256 9 0 10 -85 9 0 9 -86 
9 0 10 86 9 -86 9 0 9 0 10 86 9 0 9 -86 
10 86 9 0 9 -171 9 171 10 0 9 0 9 -86 9 86 
10 -171 9 171 9 85 9 -85 10 -86 9 0 9 86 9 0 
10 0 9 0 9 -86 9 171 10 0 9 -171 9 171 9 -85 
10 0 9 0 9 0 9 0 10 0 9 0 9 -86 9 0 
10 -85 9 171 9 0 9 0 10 0 9 -86 9 171 9 -171 
10 257 9 -171 9 85 9 -85 10 0 9 -86 9 171 9 -85 
10 0 9 -86 9 0 9 86 10 171 9 -257 9 86 10 0 
9 85 9 -85 9 -86 10 86 9 0 9 -86 9 171 10 -171 
9 0 9 86 9 -171 10 256 9 0 9 -85 9 0 10 0 
9 171 9 -257 9 86 10 85 9 -85 9 0 9 0 10 0 
9 -86 9 86 9 -86 7984 2732 300 MP stroke
10 0 9 86 9 -86 9 257 10 -257 9 86 9 0 9 -86 
10 86 9 85 9 -171 9 86 10 171 9 -171 9 0 9 -86 
10 86 9 85 9 -171 9 0 10 86 9 0 9 0 9 0 
10 85 9 -85 9 0 9 0 10 -86 9 343 9 -172 10 0 
9 -85 9 0 9 0 10 0 9 0 9 0 9 0 10 -171 
9 85 9 86 9 0 10 85 9 -171 9 86 9 -86 10 0 
9 86 9 -86 9 0 10 0 9 0 9 86 9 -86 10 86 
9 0 9 -171 9 171 10 -86 9 0 9 0 9 0 10 86 
9 -86 9 86 9 -86 10 86 9 0 9 85 9 86 10 -257 
9 86 9 0 9 -86 10 86 9 0 9 85 9 -171 10 0 
9 -85 9 171 9 85 10 -171 9 -85 9 85 10 171 9 -171 
9 0 9 171 10 -85 9 -86 9 86 9 0 10 0 9 85 
9 -85 9 85 10 -171 9 171 9 -171 9 86 10 0 9 0 
9 0 9 0 10 0 9 -86 9 171 9 -85 10 0 9 0 
9 0 9 -171 10 171 9 -86 9 0 9 86 10 0 9 0 
9 0 9 -86 10 86 9 0 9 0 9 0 10 171 9 -171 
9 85 9 -171 10 86 9 -86 9 86 9 0 10 0 9 -86 
9 86 9 -86 10 86 9 85 9 -171 10 0 9 86 9 85 
9 0 10 -85 9 0 9 -86 9 86 10 0 9 0 9 85 
9 0 10 -171 9 86 9 0 9 0 10 -86 9 257 9 -171 
9 0 10 -86 9 86 9 0 9 0 10 0 9 0 9 -86 
9 171 10 0 9 0 9 -85 9 0 10 0 9 -86 9 86 
9 0 10 -86 9 0 9 171 9 -85 10 -86 9 86 9 -86 
9 86 10 0 9 0 9 0 9 0 10 0 9 0 9 0 
9 85 10 86 9 -257 9 86 9 0 10 0 9 -86 9 86 
10 0 9 0 9 85 9 0 10 -85 9 -86 9 86 9 0 
10 0 9 0 9 0 9 0 10 171 9 -171 9 0 9 0 
10 -86 9 86 9 0 9 -86 10 0 9 86 9 -86 9 257 
10 -171 9 85 9 -85 9 0 10 85 9 0 9 -256 9 342 
10 -171 9 85 9 0 9 -171 10 86 9 85 9 -171 9 86 
10 0 9 85 9 -171 9 171 10 0 9 -85 9 -86 9 171 
10 -171 9 257 9 -171 9 0 10 0 9 0 9 85 10 -85 
9 -86 9 86 9 85 10 -85 9 0 9 -86 9 86 10 85 
9 0 9 0 9 172 10 1113 9 0 9 0 9 86 10 86 
9 -172 9 -85 9 85 10 0 9 0 9 0 9 0 10 0 
9 86 9 -86 9 0 10 0 9 0 9 0 9 0 10 0 
9 86 9 -86 9 0 10 0 9 86 9 0 9 0 10 -86 
9 86 9 -86 9 0 5217 1276 300 MP stroke
10 86 9 -86 9 0 9 86 10 0 9 -86 9 0 9 0 
10 0 9 86 9 0 9 -86 10 0 9 0 9 0 10 0 
9 86 9 0 9 -86 10 86 9 0 9 0 9 -86 10 0 
9 172 9 -172 9 86 10 -86 9 86 9 0 9 -86 10 0 
9 0 9 0 9 172 10 -172 9 0 9 0 9 0 10 86 
9 -86 9 0 9 0 10 86 9 -86 9 0 9 0 10 0 
9 0 9 0 9 86 10 -86 9 0 9 0 9 0 10 0 
9 0 9 0 9 86 10 -86 9 86 9 0 9 -86 10 86 
9 0 9 0 9 -86 10 0 9 0 9 0 10 0 9 0 
9 0 9 172 10 -172 9 0 9 0 9 0 10 0 9 86 
9 0 9 -86 10 0 9 86 9 -86 9 0 10 0 9 0 
9 0 9 0 10 0 9 0 9 0 9 0 10 0 9 0 
9 0 9 0 10 0 9 0 9 0 9 0 10 0 9 0 
9 0 9 0 10 -85 9 85 9 0 9 0 10 86 9 86 
9 -86 9 0 10 -86 9 0 9 0 9 0 10 0 9 0 
9 0 9 0 10 0 9 0 9 0 9 0 10 86 9 -86 
9 86 10 -86 9 0 9 172 9 -172 10 0 9 0 9 0 
9 172 10 -172 9 0 9 0 9 0 10 -85 9 171 9 -86 
9 86 10 -86 9 0 9 86 9 0 10 -86 9 0 9 0 
9 0 10 0 9 0 9 86 9 -86 10 0 9 0 9 86 
9 -86 10 0 9 0 9 0 9 86 10 0 9 -86 9 0 
9 86 10 0 9 0 9 86 9 -86 10 0 9 -86 9 0 
9 86 10 0 9 -171 9 85 9 0 10 0 9 0 9 0 
10 0 9 0 9 0 9 0 10 0 9 0 9 0 9 0 
10 172 9 -172 9 0 9 0 10 86 9 -86 9 0 9 0 
10 86 9 -171 9 85 9 0 10 -257 9 -1284 9 171 9 0 
10 -86 9 0 9 171 9 -171 10 0 9 0 9 86 9 -86 
10 86 9 0 9 -86 9 86 10 0 9 0 9 0 9 -86 
10 171 9 -85 9 0 9 85 10 -85 9 0 9 0 9 85 
10 -171 9 0 9 86 9 -86 10 171 9 -85 9 -86 9 86 
10 0 9 -86 9 257 10 -86 9 -85 9 0 9 0 10 85 
9 -85 9 -86 9 171 10 0 9 0 9 -85 9 85 10 -171 
9 86 9 -86 9 86 10 -86 9 171 9 -85 9 -86 10 171 
9 0 9 -85 9 0 10 0 9 0 9 0 9 -86 10 0 
9 171 9 0 9 -85 10 0 9 -171 9 0 9 171 10 0 
9 85 9 -85 9 0 10 0 9 0 9 0 9 0 10 85 
9 -85 9 0 9 0 10 -86 9 86 9 -86 9 -85 10 85 
9 0 9 86 10 -86 2449 2732 300 MP stroke
9 0 9 0 9 86 10 0 9 -86 9 171 9 -171 10 0 
9 -85 9 85 9 86 10 0 9 -86 9 171 9 -85 10 -86 
9 171 9 -171 9 171 10 -85 9 0 9 0 9 0 10 0 
9 85 9 -171 9 0 10 0 9 86 9 -171 9 171 10 0 
9 0 9 85 9 -171 10 171 9 -85 9 -86 9 0 10 0 
9 86 9 -86 9 86 10 -86 9 86 9 -86 9 0 10 171 
9 -85 9 -86 9 0 10 86 9 -86 9 -85 9 171 1941 2646 56 MP stroke
/c9 { 0.000000 1.000000 0.000000 sr} bdef
c9
1 -9 10 171 9 -85 9 0 10 0 9 0 9 0 9 85 
10 -85 9 0 9 0 9 0 10 0 9 85 9 -85 9 0 
10 85 9 -85 9 0 9 0 10 85 9 -85 9 0 9 0 
10 -86 9 86 9 0 9 85 10 -85 9 0 9 0 9 85 
10 -85 9 0 9 -86 9 86 10 0 9 0 9 0 9 0 
10 0 9 0 9 85 9 -85 10 0 9 0 9 0 9 0 
10 0 9 171 9 -257 9 86 10 0 9 0 9 85 9 0 
10 -85 9 85 9 0 10 0 9 -171 9 86 9 0 10 0 
9 0 9 -86 9 86 10 0 9 0 9 -86 9 86 10 0 
9 0 9 0 9 -86 10 86 9 0 9 0 9 0 10 0 
9 0 9 0 9 0 10 0 9 -86 9 86 9 -86 10 86 
9 0 9 0 9 0 10 0 9 0 9 0 9 0 10 -86 
9 0 9 86 9 0 10 0 9 -86 9 86 9 -86 10 86 
9 0 9 0 9 0 10 0 9 0 9 0 9 0 10 85 
9 86 9 0 10 -171 9 0 9 0 9 85 10 -171 9 86 
9 0 9 0 10 0 9 0 9 0 9 0 10 85 9 -85 
9 0 9 0 10 0 9 0 9 0 9 0 10 0 9 85 
9 0 9 -85 10 85 9 -85 9 0 9 0 10 0 9 0 
9 85 9 -85 10 0 9 -86 9 86 9 0 10 85 9 -85 
9 0 9 -1371 10 0 9 -171 9 171 9 0 10 -171 9 0 
9 0 9 85 10 0 9 -85 9 85 9 0 10 172 9 -257 
9 171 9 -171 10 171 9 -86 9 0 10 0 9 -85 9 0 
9 171 10 -171 9 171 9 -86 9 86 10 -86 9 -85 9 85 
9 0 10 86 9 -86 9 -85 9 85 10 172 9 -86 9 -86 
9 -85 10 0 9 171 9 -86 9 -85 10 85 9 -85 9 171 
9 0 10 -171 9 85 9 0 9 0 10 86 9 -171 9 171 
9 -86 10 0 9 -85 9 85 9 0 10 0 9 86 9 -86 
9 86 10 -86 9 86 9 -171 9 257 10 -172 9 0 9 0 
9 0 10 0 9 -85 9 0 10 0 9 171 9 -86 9 -85 
10 0 9 257 9 -172 9 0 10 -85 9 0 9 85 9 86 
10 0 9 0 9 0 9 -86 10 86 9 0 9 -86 9 0 
10 86 9 0 9 0 9 -86 10 0 9 0 9 172 9 -257 
10 171 9 -86 9 0 9 0 10 -85 9 171 9 0 9 -86 
10 -85 9 171 9 -171 9 85 10 172 9 -257 9 171 9 -86 
10 172 9 -172 9 0 9 0 10 86 9 0 9 86 9 -86 
10 -86 9 -85 9 171 9 0 10 -86 9 -85 9 171 10 -86 
9 0 9 172 9 -86 10 0 9 0 9 86 9 -172 10 -85 
9 171 9 -171 9 85 10751 4788 300 MP stroke
10 -85 9 171 9 0 9 0 10 -86 9 0 9 0 9 86 
10 0 9 0 9 -86 9 0 10 0 9 0 9 86 9 0 
10 -86 9 86 9 -86 9 -85 10 0 9 171 9 -86 9 0 
10 0 9 0 9 172 9 -172 10 86 9 0 9 -86 9 0 
10 86 9 0 9 -86 9 0 10 0 9 0 9 0 9 -85 
10 85 9 172 9 -86 10 -86 9 -85 9 171 9 -86 10 172 
9 -86 9 -86 9 86 10 -171 9 85 9 0 9 0 10 -85 
9 85 9 -85 9 85 10 86 9 -86 9 86 9 -86 10 86 
9 -86 9 86 9 -86 10 86 9 0 9 -86 9 86 10 86 
9 -172 9 0 9 86 10 -86 9 0 9 86 9 86 10 -172 
9 -85 9 85 9 0 10 -85 9 0 9 171 9 -86 10 -85 
9 171 9 -86 9 -85 10 0 9 171 9 0 9 -171 10 171 
9 -86 9 0 9 0 10 0 9 0 9 172 10 -257 9 85 
9 86 9 -86 10 -85 9 0 9 85 9 0 10 0 9 0 
9 257 9 -257 10 0 9 86 9 -171 9 171 10 86 9 -86 
9 -86 9 -85 10 0 9 85 9 0 9 0 10 -85 9 171 
9 0 9 -86 10 0 9 0 9 0 9 0 10 86 9 -86 
9 0 9 172 10 -172 9 -85 9 171 9 -86 10 0 9 0 
9 0 9 0 10 -85 9 85 9 86 9 -86 10 86 9 0 
9 0 9 0 10 -171 9 85 9 0 10 86 9 0 9 -86 
9 86 10 0 9 -86 9 0 9 86 10 -171 9 85 9 0 
9 0 10 86 9 0 9 -86 9 0 10 86 9 0 9 -86 
9 0 10 0 9 -85 9 171 9 -86 10 -85 9 0 9 85 
9 -85 10 171 9 -86 9 0 9 -85 10 85 9 -85 9 85 
9 0 10 -85 9 0 9 85 9 86 10 -86 9 -85 9 171 
9 -86 10 0 9 0 9 86 9 -171 10 0 9 171 9 0 
9 -171 10 0 9 0 9 171 9 0 10 86 9 -172 9 -85 
10 85 9 86 9 -86 9 86 10 -171 9 0 9 171 9 0 
10 -86 9 -171 9 257 9 -171 10 85 9 86 9 0 9 -86 
10 86 9 -171 9 85 9 86 10 -86 9 0 9 0 9 0 
10 0 9 86 9 0 9 -86 10 0 9 0 9 86 9 0 
10 -171 9 171 9 0 9 -86 10 86 9 0 9 -171 9 0 
10 85 9 86 9 86 9 -86 10 -171 9 171 9 -86 9 -85 
10 257 9 -172 9 86 9 0 10 -86 9 -85 9 171 10 -86 
9 86 9 -86 9 -171 10 257 9 86 9 -172 9 -85 10 0 
9 171 9 0 9 -171 10 171 9 -86 9 86 9 0 10 -171 
9 85 9 -85 9 85 10 86 9 0 9 -86 9 0 10 86 
9 -171 9 85 9 -85 7984 4873 300 MP stroke
10 85 9 0 9 0 9 -85 10 85 9 0 9 86 9 -86 
10 86 9 -86 9 0 9 86 10 -86 9 86 9 -86 9 0 
10 0 9 0 9 86 9 -86 10 0 9 0 9 86 9 0 
10 0 9 0 9 -86 9 86 10 0 9 171 9 1200 10 0 
9 0 9 0 9 0 10 0 9 0 9 0 9 0 10 0 
9 -86 9 86 9 0 10 0 9 0 9 85 9 -85 10 0 
9 0 9 0 9 0 10 0 9 0 9 0 9 0 10 0 
9 0 9 0 9 0 10 0 9 0 9 0 9 0 10 0 
9 0 9 -86 9 86 10 -172 9 172 9 85 9 -85 10 171 
9 -86 9 -85 9 85 10 -85 9 85 9 -85 9 0 10 0 
9 0 9 0 9 0 10 0 9 0 9 0 10 0 9 0 
9 -172 9 172 10 0 9 0 9 0 9 0 10 0 9 0 
9 0 9 0 10 0 9 0 9 0 9 0 10 0 9 85 
9 -85 9 0 10 0 9 0 9 0 9 0 10 0 9 0 
9 0 9 0 10 0 9 0 9 0 9 -86 10 86 9 85 
9 -85 9 0 10 0 9 0 9 0 9 0 10 0 9 0 
9 0 9 85 10 -171 9 171 9 -85 9 0 10 0 9 0 
9 -86 9 86 10 0 9 0 9 -86 10 86 9 171 9 -171 
9 0 10 0 9 0 9 -86 9 257 10 -171 9 85 9 -85 
9 0 10 85 9 -171 9 86 9 0 10 0 9 0 9 0 
9 -86 10 86 9 0 9 0 9 0 10 0 9 0 9 0 
9 0 10 85 9 -85 9 85 9 -85 10 0 9 0 9 0 
9 0 10 85 9 -85 9 0 9 0 10 0 9 0 9 0 
9 0 10 0 9 0 9 0 9 0 10 0 9 0 9 0 
9 85 10 -85 9 85 9 -85 9 0 10 85 9 -171 9 171 
10 86 9 -171 9 0 9 0 10 85 9 0 9 -85 9 0 
10 0 9 85 9 -85 9 -86 10 86 9 0 9 -86 9 86 
10 0 9 0 9 0 9 0 10 0 9 0 9 0 9 0 
10 85 9 -85 9 0 9 0 10 85 9 0 9 -85 9 0 
10 0 9 0 9 85 9 -85 10 0 9 85 9 -171 9 86 
10 0 9 0 9 0 9 85 10 -85 9 85 9 -171 9 86 
10 0 9 -86 9 86 9 0 10 0 9 0 9 0 10 0 
9 0 9 85 9 -85 10 0 9 0 9 0 9 0 10 0 
9 -86 9 86 9 0 10 -1371 9 -86 9 86 9 0 10 -86 
9 172 9 -257 9 257 10 -172 9 0 9 0 9 86 10 -86 
9 0 9 0 9 86 10 -171 9 0 9 171 9 0 10 0 
9 -86 9 86 9 0 10 -86 9 0 9 0 9 86 10 -171 
9 171 9 0 9 -171 5217 4873 300 MP stroke
10 171 9 0 9 0 9 0 10 -86 9 86 9 0 9 -86 
10 0 9 86 9 -171 9 171 10 0 9 86 9 -257 10 85 
9 86 9 -86 9 86 10 0 9 -171 9 85 9 86 10 -86 
9 86 9 -86 9 0 10 0 9 0 9 172 9 -86 10 -171 
9 171 9 -171 9 85 10 0 9 0 9 0 9 86 10 -86 
9 0 9 -85 9 85 10 0 9 0 9 0 9 86 10 0 
9 -86 9 86 9 0 10 0 9 -171 9 171 9 0 10 0 
9 -171 9 85 9 0 10 86 9 -86 9 86 9 -86 10 -85 
9 171 9 86 9 -86 10 -86 9 0 9 -85 10 171 9 0 
9 0 9 -171 10 85 9 -85 9 171 9 -86 10 86 9 -171 
9 257 9 -172 10 -85 9 85 9 86 9 0 10 -86 9 0 
9 -85 9 171 10 -86 9 86 9 -86 9 86 10 -86 9 172 
9 -257 9 171 10 86 9 -86 9 -86 9 0 10 86 9 0 
9 -86 9 -85 10 257 9 -172 9 86 9 -86 10 86 9 -86 
9 172 9 -257 10 257 9 -172 9 86 9 -171 10 85 9 86 
9 -171 9 171 10 0 9 -86 9 86 9 -171 10 257 9 -172 
9 0 10 -85 9 257 9 -257 9 171 10 -171 9 85 9 -85 
9 85 10 -85 9 0 9 85 9 0 10 86 9 -86 9 86 
9 -86 10 0 9 -85 9 171 9 -86 10 86 9 -171 9 171 
9 -86 10 86 9 -86 9 0 9 0 10 0 9 86 9 0 
9 -171 10 85 9 -85 9 85 9 0 10 0 9 86 9 -86 
9 86 10 -171 9 85 9 -85 9 171 10 0 9 -86 9 0 
9 0 10 -85 9 171 9 0 9 -171 10 85 9 0 9 0 
10 0 9 0 9 86 9 0 10 0 9 -171 9 85 9 0 
10 172 9 -172 9 86 9 -171 10 85 9 0 9 -85 9 85 
10 0 9 0 9 0 9 0 10 86 9 -171 9 85 9 -85 
10 0 9 85 9 86 9 -171 10 171 9 0 9 -86 9 0 
10 -85 9 171 9 0 9 -171 10 85 9 0 9 172 9 -257 
10 0 9 171 9 -86 9 86 10 -86 9 0 9 86 9 -171 
10 85 9 0 9 -85 9 171 10 86 9 -172 9 86 9 -86 
10 86 9 0 9 -86 10 86 9 -86 9 0 9 86 10 0 
9 0 9 -171 9 85 10 -85 9 171 9 0 9 -86 10 0 
9 86 9 0 9 -86 10 0 9 86 9 0 9 -171 10 85 
9 86 9 -86 9 0 10 86 9 -86 9 -85 9 257 10 -257 
9 85 9 86 9 0 10 -86 9 0 9 86 9 -86 10 0 
9 0 9 -85 9 0 10 85 9 0 9 0 9 86 10 -86 
9 86 9 0 9 -171 10 171 9 0 9 -86 9 0 10 86 
9 -171 9 85 10 0 2449 4788 300 MP stroke
9 0 9 0 9 0 10 0 9 0 9 86 9 -86 10 0 
9 0 9 86 9 0 10 0 9 -86 9 0 9 86 10 -86 
9 86 9 -86 9 86 10 -86 9 86 9 -171 9 85 10 0 
9 0 9 0 9 86 10 -86 9 0 9 86 9 0 10 0 
9 -86 9 -85 9 171 10 -171 9 0 9 171 9 -86 10 0 
9 -85 9 85 9 86 10 -171 9 171 9 -171 9 0 10 171 
9 -86 9 -85 9 85 10 0 9 0 9 86 9 -86 1941 4788 56 MP stroke
/c10 { 0.000000 0.000000 1.000000 sr} bdef
c10
1 -9 10 0 9 0 9 85 10 -85 9 85 9 0 9 0 
10 0 9 0 9 -85 9 -86 10 171 9 0 9 -85 9 85 
10 0 9 0 9 0 9 0 10 0 9 0 9 0 9 0 
10 0 9 0 9 -85 9 85 10 0 9 0 9 86 9 -86 
10 0 9 0 9 0 9 -85 10 85 9 -85 9 85 9 0 
10 -85 9 85 9 0 9 0 10 -171 9 171 9 0 9 -85 
10 85 9 0 9 86 9 -86 10 0 9 -85 9 85 9 0 
10 0 9 0 9 0 10 0 9 0 9 -85 9 85 10 0 
9 0 9 -85 9 85 10 0 9 0 9 0 9 0 10 -85 
9 171 9 -171 9 85 10 0 9 0 9 -85 9 85 10 -171 
9 171 9 0 9 -85 10 85 9 -85 9 85 9 0 10 0 
9 0 9 -85 9 85 10 -85 9 85 9 0 9 0 10 0 
9 0 9 0 9 0 10 0 9 0 9 0 9 0 10 0 
9 -85 9 85 9 0 10 0 9 0 9 0 9 0 10 0 
9 -85 9 85 10 -85 9 85 9 0 9 0 10 0 9 0 
9 0 9 -85 10 85 9 0 9 0 9 -171 10 171 9 0 
9 -85 9 85 10 0 9 0 9 0 9 0 10 0 9 0 
9 0 9 0 10 0 9 0 9 0 9 -85 10 85 9 0 
9 -85 9 85 10 0 9 -85 9 85 9 0 10 0 9 0 
9 0 9 0 10 0 9 -85 9 0 9 85 10 0 9 0 
9 0 9 86 10 0 9 0 9 -86 9 0 10 -85 9 0 
9 0 9 85 10 0 9 0 9 86 10 -171 9 85 9 0 
9 0 10 0 9 0 9 -85 9 85 10 -85 9 85 9 -85 
9 85 10 0 9 0 9 -85 9 85 10 0 9 0 9 0 
9 0 10 0 9 0 9 0 9 0 10 0 9 -85 9 85 
9 0 10 -85 9 85 9 0 9 0 10 0 9 -85 9 85 
9 0 10 0 9 -85 9 85 9 0 10 0 9 86 9 -86 
9 -85 10 -86 9 171 9 0 9 -85 10 85 9 0 9 0 
9 0 10 0 9 0 9 0 10 -85 9 85 9 0 9 0 
10 0 9 -85 9 85 9 0 10 0 9 0 9 0 9 0 
10 0 9 0 9 0 9 0 10 0 9 0 9 0 9 0 
10 -85 9 171 9 -86 9 86 10 -86 9 0 9 0 9 0 
10 0 9 -85 9 85 9 0 10 0 9 -171 9 171 9 -85 
10 85 9 0 9 0 9 0 10 -85 9 0 9 85 9 0 
10 0 9 -85 9 85 9 0 10 0 9 -85 9 85 9 0 
10 0 9 0 9 -85 9 85 10 -85 9 85 9 0 10 0 
9 0 9 0 9 0 10 0 9 0 9 0 9 0 10 0 
9 0 9 -85 9 0 10751 6843 300 MP stroke
10 0 9 85 9 0 9 0 10 0 9 -85 9 0 9 85 
10 0 9 0 9 0 9 86 10 -86 9 0 9 0 9 0 
10 0 9 0 9 0 9 0 10 0 9 0 9 86 9 -86 
10 0 9 0 9 0 9 0 10 0 9 0 9 0 9 0 
10 0 9 0 9 0 9 -85 10 85 9 0 9 -85 9 85 
10 0 9 -85 9 85 10 0 9 0 9 0 9 0 10 0 
9 0 9 0 9 0 10 0 9 0 9 0 9 0 10 -85 
9 85 9 0 9 0 10 -85 9 85 9 0 9 0 10 -85 
9 85 9 -85 9 85 10 0 9 -85 9 85 9 0 10 0 
9 0 9 -171 9 171 10 0 9 -85 9 85 9 0 10 -85 
9 85 9 -171 9 171 10 -85 9 85 9 0 9 -85 10 85 
9 -85 9 85 9 86 10 -86 9 1371 9 0 9 0 10 171 
9 -171 9 86 9 0 10 0 9 0 9 0 10 85 9 -171 
9 0 9 0 10 86 9 -86 9 171 9 -85 10 -86 9 -86 
9 0 9 86 10 86 9 0 9 0 9 -86 10 0 9 86 
9 0 9 -86 10 0 9 86 9 -86 9 86 10 -86 9 86 
9 0 9 0 10 85 9 -85 9 -257 9 342 10 -85 9 85 
9 0 9 0 10 0 9 -171 9 -86 9 86 10 86 9 -86 
9 171 9 -85 10 -86 9 0 9 0 9 86 10 0 9 -86 
9 86 9 85 10 -85 9 -86 9 86 10 -86 9 171 9 -85 
9 -86 10 -86 9 172 9 -86 9 0 10 171 9 -85 9 0 
9 -86 10 86 9 0 9 -86 9 0 10 86 9 -86 9 0 
9 86 10 85 9 -171 9 0 9 86 10 0 9 -86 9 86 
9 85 10 -85 9 0 9 -86 9 0 10 86 9 -86 9 86 
9 0 10 0 9 85 9 -171 9 86 10 -172 9 172 9 0 
9 -172 10 257 9 -85 9 -86 9 0 10 0 9 86 9 0 
9 0 10 85 9 0 9 -85 9 -172 10 172 9 0 9 -86 
10 86 9 0 9 -86 9 0 10 86 9 -86 9 86 9 -86 
10 0 9 0 9 -86 9 86 10 86 9 -86 9 86 9 0 
10 85 9 -171 9 86 9 -86 10 86 9 -86 9 86 9 0 
10 -86 9 86 9 0 9 0 10 -86 9 0 9 171 9 0 
10 -171 9 86 9 -86 9 0 10 86 9 -172 9 172 9 -86 
10 -86 9 172 9 0 9 -86 10 86 9 0 9 0 9 85 
10 0 9 -171 9 86 9 0 10 0 9 0 9 -86 10 86 
9 0 9 0 9 0 10 -86 9 0 9 171 9 -171 10 86 
9 0 9 0 9 0 10 -172 9 257 9 -85 9 -86 10 86 
9 85 9 0 9 -171 10 0 9 86 9 0 9 0 10 85 
9 0 9 0 9 -171 7984 5387 300 MP stroke
10 0 9 86 9 85 9 0 10 -171 9 0 9 86 9 0 
10 -86 9 86 9 0 9 -86 10 86 9 0 9 -172 9 172 
10 0 9 0 9 0 9 85 10 0 9 0 9 0 9 0 
10 -171 9 86 9 -86 9 0 10 86 9 -86 9 -1456 10 85 
9 -85 9 85 9 0 10 0 9 -85 9 85 9 0 10 0 
9 0 9 86 9 -86 10 0 9 0 9 0 9 86 10 -86 
9 0 9 0 9 0 10 0 9 0 9 0 9 86 10 -86 
9 -85 9 85 9 86 10 -86 9 0 9 0 9 -85 10 85 
9 0 9 0 9 0 10 -85 9 85 9 0 9 0 10 0 
9 86 9 -171 9 171 10 -86 9 86 9 0 9 -171 10 85 
9 0 9 0 9 0 10 0 9 0 9 0 10 0 9 86 
9 -86 9 0 10 0 9 0 9 0 9 0 10 0 9 0 
9 0 9 0 10 -85 9 85 9 0 9 0 10 0 9 0 
9 0 9 -85 10 85 9 0 9 0 9 0 10 0 9 0 
9 0 9 -85 10 85 9 0 9 0 9 0 10 0 9 0 
9 0 9 0 10 86 9 -86 9 0 9 0 10 0 9 0 
9 0 9 0 10 0 9 0 9 0 9 0 10 0 9 -85 
9 85 9 0 10 -85 9 85 9 0 10 0 9 0 9 0 
9 0 10 0 9 0 9 0 9 0 10 0 9 0 9 -85 
9 171 10 -171 9 171 9 -86 9 -85 10 0 9 85 9 0 
9 0 10 0 9 0 9 0 9 0 10 0 9 -85 9 85 
9 86 10 0 9 -86 9 0 9 0 10 0 9 0 9 -85 
9 85 10 -85 9 85 9 0 9 0 10 0 9 86 9 -86 
9 0 10 86 9 -86 9 0 9 0 10 0 9 0 9 0 
9 0 10 0 9 0 9 0 9 86 10 -86 9 0 9 0 
10 0 9 0 9 0 9 0 10 -85 9 85 9 0 9 0 
10 0 9 -85 9 85 9 0 10 0 9 0 9 0 9 0 
10 0 9 -85 9 85 9 0 10 -171 9 171 9 0 9 0 
10 0 9 0 9 0 9 0 10 86 9 -86 9 0 9 0 
10 -85 9 85 9 0 9 0 10 0 9 0 9 0 9 0 
10 -85 9 171 9 -86 9 0 10 0 9 -85 9 85 9 -85 
10 85 9 -85 9 85 9 0 10 -85 9 85 9 -171 10 86 
9 85 9 0 9 -85 10 85 9 0 9 0 9 0 10 0 
9 -85 9 85 9 0 10 0 9 0 9 0 9 0 10 0 
9 -85 9 85 9 0 10 0 9 0 9 0 9 0 10 0 
9 0 9 -85 9 85 10 86 9 -86 9 0 9 0 10 0 
9 0 9 0 9 0 10 0 9 0 9 86 9 -86 10 0 
9 0 9 -85 9 85 5217 6758 300 MP stroke
10 86 9 -86 9 0 9 0 10 0 9 0 9 0 9 0 
10 0 9 86 9 -86 9 0 10 0 9 -85 9 85 10 -85 
9 85 9 0 9 0 10 0 9 0 9 0 9 -85 10 0 
9 85 9 0 9 0 10 0 9 0 9 0 9 0 10 0 
9 0 9 0 9 0 10 0 9 0 9 -85 9 85 10 0 
9 0 9 0 9 -85 10 85 9 0 9 0 9 -85 10 85 
9 0 9 -85 9 85 10 0 9 0 9 0 9 0 10 -85 
9 0 9 85 9 0 10 0 9 0 9 -171 9 86 10 85 
9 0 9 0 9 0 10 0 9 0 9 0 10 -171 9 171 
9 0 9 -85 10 85 9 0 9 -85 9 0 10 85 9 0 
9 0 9 0 10 -85 9 85 9 -85 9 85 10 -85 9 85 
9 -85 9 85 10 0 9 0 9 0 9 0 10 0 9 -85 
9 85 9 0 10 0 9 0 9 0 9 0 10 0 9 -85 
9 85 9 0 10 -85 9 0 9 85 9 0 10 0 9 0 
9 0 9 0 10 0 9 0 9 0 9 0 10 0 9 0 
9 0 9 0 10 0 9 0 9 0 9 -85 10 -86 9 171 
9 0 10 0 9 0 9 0 9 -85 10 85 9 0 9 0 
9 -85 10 85 9 0 9 0 9 0 10 0 9 0 9 0 
9 0 10 0 9 0 9 0 9 0 10 0 9 0 9 0 
9 0 10 0 9 0 9 0 9 0 10 -85 9 0 9 85 
9 0 10 0 9 0 9 -85 9 85 10 -85 9 85 9 -85 
9 85 10 0 9 0 9 0 9 0 10 0 9 0 9 -85 
9 0 10 85 9 -85 9 0 9 85 10 0 9 -85 9 85 
10 -85 9 0 9 85 9 0 10 0 9 0 9 86 9 -86 
10 0 9 -85 9 0 9 85 10 0 9 -85 9 85 9 0 
10 0 9 0 9 -85 9 85 10 0 9 -85 9 1627 9 -85 
10 0 9 85 9 -171 9 86 10 0 9 0 9 0 9 -86 
10 171 9 0 9 0 9 -85 10 0 9 0 9 0 9 85 
10 -171 9 171 9 -85 9 -86 10 0 9 0 9 171 9 -171 
10 -86 9 172 9 0 9 -172 10 172 9 0 9 85 9 -85 
10 0 9 -86 9 86 10 -86 9 86 9 0 9 85 10 -85 
9 0 9 -86 9 86 10 0 9 0 9 -86 9 0 10 171 
9 -171 9 -86 9 257 10 -171 9 0 9 86 9 0 10 85 
9 -171 9 86 9 -86 10 86 9 0 9 0 9 -86 10 0 
9 0 9 86 9 -86 10 86 9 85 9 -257 9 257 10 -257 
9 172 9 0 9 0 10 0 9 -86 9 0 9 86 10 -86 
9 86 9 -86 9 171 10 -85 9 0 9 85 9 0 10 -85 
9 0 9 -86 10 86 2449 5301 300 MP stroke
9 0 9 -86 9 171 10 -171 9 86 9 0 9 0 10 85 
9 -85 9 0 9 -86 10 171 9 -85 9 -86 9 171 10 0 
9 -171 9 86 9 -86 10 -86 9 172 9 0 9 85 10 -171 
9 0 9 0 9 86 10 -86 9 86 9 0 9 0 10 85 
9 -171 9 -86 9 86 10 86 9 0 9 0 9 -86 10 86 
9 0 9 85 9 -85 10 -86 9 86 9 85 9 -85 10 0 
9 0 9 -172 9 86 10 86 9 0 9 0 9 0 1941 5301 56 MP stroke
gr

c10
0 sg
7511 7303 mt 
(Time [s]) s

end %%Color Dict

eplot
%%EndObject

epage
end

showpage

%%Trailer
%%EOF
